<?xml version="1.0" encoding="utf-8"?>
<COLLADA xmlns="http://www.collada.org/2005/11/COLLADASchema" version="1.4.1" xmlns:xsi="http://www.w3.org/2001/XMLSchema-instance">
  <asset>
    <contributor>
      <author>Blender User</author>
      <authoring_tool>Blender 2.92.0 commit date:2021-02-24, commit time:16:25, hash:02948a2cab44</authoring_tool>
    </contributor>
    <created>2021-03-28T13:45:47</created>
    <modified>2021-03-28T13:45:47</modified>
    <unit name="meter" meter="1"/>
    <up_axis>Z_UP</up_axis>
  </asset>
  <library_effects>
    <effect id="material0-effect">
      <profile_COMMON>
        <newparam sid="Book_png_001-surface">
          <surface type="2D">
            <init_from>Book_png_001</init_from>
          </surface>
        </newparam>
        <newparam sid="Book_png_001-sampler">
          <sampler2D>
            <source>Book_png_001-surface</source>
          </sampler2D>
        </newparam>
        <technique sid="common">
          <lambert>
            <emission>
              <color sid="emission">0 0 0 1</color>
            </emission>
            <diffuse>
              <texture texture="Book_png_001-sampler" texcoord="Cube_013-mesh-map-0"/>
            </diffuse>
            <index_of_refraction>
              <float sid="ior">1.45</float>
            </index_of_refraction>
          </lambert>
        </technique>
      </profile_COMMON>
    </effect>
  </library_effects>
  <library_images>
    <image id="Book_png_001" name="Book_png_001">
      <init_from>Book.png.001.png</init_from>
    </image>
  </library_images>
  <library_materials>
    <material id="material0-material" name="material0">
      <instance_effect url="#material0-effect"/>
    </material>
  </library_materials>
  <library_geometries>
    <geometry id="mesh0-mesh" name="mesh0">
      <mesh>
        <source id="mesh0-mesh-positions">
          <float_array id="mesh0-mesh-positions-array" count="39">-0.2302054 0.00254929 -0.3294135 -0.2302054 0.1072427 -0.3294135 0.2302054 0.00254929 -0.3294135 0.2302054 0.1072427 -0.3294135 -0.2302054 0.002549231 0.3294135 -0.2302054 0.1072427 0.3294135 0.2302054 0.002549231 0.3294135 0.2302054 0.1072427 0.3294135 0 0.1072427 -0.3294135 0.2302054 0.07905876 0 0 0.1072427 0.3294135 -0.2302054 0.07905876 0 0 0.07905876 0</float_array>
          <technique_common>
            <accessor source="#mesh0-mesh-positions-array" count="13" stride="3">
              <param name="X" type="float"/>
              <param name="Y" type="float"/>
              <param name="Z" type="float"/>
            </accessor>
          </technique_common>
        </source>
        <source id="mesh0-mesh-normals">
          <float_array id="mesh0-mesh-normals-array" count="24">0 0 -1 1 0 0 0 0 1 -1 0 0 0 -1 0 0 0.9963599 0.08524656 0 0.99636 -0.08524644 -1 0 0</float_array>
          <technique_common>
            <accessor source="#mesh0-mesh-normals-array" count="8" stride="3">
              <param name="X" type="float"/>
              <param name="Y" type="float"/>
              <param name="Z" type="float"/>
            </accessor>
          </technique_common>
        </source>
        <source id="mesh0-mesh-map-0">
          <float_array id="mesh0-mesh-map-0-array" count="132">0.5976221 0.09348493 0.5059233 0.093234 0.5060374 0.05153083 0.3747372 0.08164823 0.2434894 0.09251576 0.2436035 0.05081266 0.1517904 0.09226483 0.06009161 0.09201383 0.06020563 0.05031079 0.8205685 0.08286827 0.6893209 0.09373587 0.6894351 0.0520327 0.9874069 0.9593207 0.6152669 0.4268049 0.9874069 0.4268048 0.3078379 0.133237 0.6005942 0.5536886 0.3078379 0.5536885 0.3078379 0.5536885 0.6005941 0.9741401 0.3078377 0.9741401 0.01508158 0.5536884 0.3078377 0.9741401 0.01508128 0.97414 0.0150817 0.133237 0.3078379 0.5536885 0.01508158 0.5536884 0.5060374 0.05153083 0.6894351 0.0520327 0.5976221 0.09348493 0.6894351 0.0520327 0.6893209 0.09373587 0.5976221 0.09348493 0.2436035 0.05081266 0.5060374 0.05153083 0.3747372 0.08164823 0.5060374 0.05153083 0.5059233 0.093234 0.3747372 0.08164823 0.06020563 0.05031079 0.2436035 0.05081266 0.1517904 0.09226483 0.2436035 0.05081266 0.2434894 0.09251576 0.1517904 0.09226483 0.6894351 0.0520327 0.9518687 0.052751 0.8205685 0.08286827 0.9518687 0.052751 0.9517546 0.09445399 0.8205685 0.08286827 0.9874069 0.9593207 0.6152669 0.9593206 0.6152669 0.4268049 0.3078379 0.133237 0.6005942 0.133237 0.6005942 0.5536886 0.3078379 0.5536885 0.6005942 0.5536886 0.6005941 0.9741401 0.01508158 0.5536884 0.3078379 0.5536885 0.3078377 0.9741401 0.0150817 0.133237 0.3078379 0.133237 0.3078379 0.5536885</float_array>
          <technique_common>
            <accessor source="#mesh0-mesh-map-0-array" count="66" stride="2">
              <param name="S" type="float"/>
              <param name="T" type="float"/>
            </accessor>
          </technique_common>
        </source>
        <vertices id="mesh0-mesh-vertices">
          <input semantic="POSITION" source="#mesh0-mesh-positions"/>
        </vertices>
        <triangles material="material0-material" count="22">
          <input semantic="VERTEX" source="#mesh0-mesh-vertices" offset="0"/>
          <input semantic="NORMAL" source="#mesh0-mesh-normals" offset="1"/>
          <input semantic="TEXCOORD" source="#mesh0-mesh-map-0" offset="2" set="0"/>
          <p>8 0 0 3 0 1 2 0 2 9 1 3 7 1 4 6 1 5 10 2 6 5 2 7 4 2 8 11 3 9 1 3 10 0 3 11 6 4 12 0 4 13 2 4 14 8 5 15 11 5 16 12 5 17 12 6 18 5 6 19 10 6 20 9 6 21 10 6 22 7 6 23 3 5 24 12 5 25 9 5 26 2 0 27 0 0 28 8 0 29 0 0 30 1 0 31 8 0 32 6 1 33 2 1 34 9 1 35 2 1 36 3 1 37 9 1 38 4 2 39 6 2 40 10 2 41 6 2 42 7 2 43 10 2 44 0 3 45 4 3 46 11 3 47 4 7 48 5 7 49 11 7 50 6 4 51 4 4 52 0 4 53 8 5 54 1 5 55 11 5 56 12 6 57 11 6 58 5 6 59 9 6 60 12 6 61 10 6 62 3 5 63 8 5 64 12 5 65</p>
        </triangles>
      </mesh>
    </geometry>
  </library_geometries>
  <library_visual_scenes>
    <visual_scene id="Scene" name="Scene">
      <node id="Cube_009" name="Cube.009" type="NODE">
        <matrix sid="transform">1 0 0 0 0 1 0 0 0 0 1 0 0 0 0 1</matrix>
        <instance_geometry url="#mesh0-mesh" name="Cube.009">
          <bind_material>
            <technique_common>
              <instance_material symbol="material0-material" target="#material0-material">
                <bind_vertex_input semantic="Cube_013-mesh-map-0" input_semantic="TEXCOORD" input_set="0"/>
              </instance_material>
            </technique_common>
          </bind_material>
        </instance_geometry>
      </node>
    </visual_scene>
  </library_visual_scenes>
  <scene>
    <instance_visual_scene url="#Scene"/>
  </scene>
</COLLADA>