<?xml version="1.0" encoding="utf-8"?>
<COLLADA xmlns="http://www.collada.org/2005/11/COLLADASchema" version="1.4.1" xmlns:xsi="http://www.w3.org/2001/XMLSchema-instance">
  <asset>
    <contributor>
      <author>Blender User</author>
      <authoring_tool>Blender 2.92.0 commit date:2021-02-24, commit time:16:25, hash:02948a2cab44</authoring_tool>
    </contributor>
    <created>2021-03-28T13:47:47</created>
    <modified>2021-03-28T13:47:47</modified>
    <unit name="meter" meter="1"/>
    <up_axis>Z_UP</up_axis>
  </asset>
  <library_effects>
    <effect id="material0-effect">
      <profile_COMMON>
        <newparam sid="Pot_png-surface">
          <surface type="2D">
            <init_from>Pot_png</init_from>
          </surface>
        </newparam>
        <newparam sid="Pot_png-sampler">
          <sampler2D>
            <source>Pot_png-surface</source>
          </sampler2D>
        </newparam>
        <technique sid="common">
          <lambert>
            <emission>
              <color sid="emission">0 0 0 1</color>
            </emission>
            <diffuse>
              <texture texture="Pot_png-sampler" texcoord="Cylinder_003-mesh-map-0"/>
            </diffuse>
            <index_of_refraction>
              <float sid="ior">1.45</float>
            </index_of_refraction>
          </lambert>
        </technique>
      </profile_COMMON>
    </effect>
  </library_effects>
  <library_images>
    <image id="Pot_png" name="Pot_png">
      <init_from>Pot.png</init_from>
    </image>
  </library_images>
  <library_materials>
    <material id="material0-material" name="material0">
      <instance_effect url="#material0-effect"/>
    </material>
  </library_materials>
  <library_geometries>
    <geometry id="mesh0-mesh" name="mesh0">
      <mesh>
        <source id="mesh0-mesh-positions">
          <float_array id="mesh0-mesh-positions-array" count="384">1.296596 0.108379 0 1.626961 1.197533 0.0105884 1.197898 0.108379 0.4961858 1.503973 1.197533 0.6288914 0.9168319 0.108379 0.9168319 1.153733 1.197533 1.153063 0.4961858 0.108379 1.197898 0.629561 1.197533 1.503304 0 0.108379 1.296596 0.011258 1.197533 1.626292 -0.4961859 0.108379 1.197898 -0.6070449 1.197533 1.503304 -0.9168319 0.108379 0.9168319 -1.131216 1.197533 1.153063 -1.197898 0.1083789 0.4961859 -1.481457 1.197533 0.6288914 -1.296596 0.1083789 1.95781e-7 -1.604445 1.197533 0.01058864 -1.197899 0.1083789 -0.4961856 -1.481457 1.197533 -0.607714 -0.9168322 0.108379 -0.9168316 -1.131217 1.197533 -1.131886 -0.496186 0.108379 -1.197898 -0.6070449 1.197533 -1.482126 0 0.108379 -1.296596 0.01125806 1.197533 -1.605115 0.496186 0.108379 -1.197898 0.6295613 1.197533 -1.482126 0.9168322 0.108379 -0.9168316 1.153733 1.197533 -1.131886 1.197899 0.108379 -0.4961853 1.503974 1.197533 -0.6077136 1.673513 0.6529494 0 1.546124 0.6529494 0.6404257 1.183352 0.6529494 1.183352 0.6404257 0.6529493 1.546124 0 0.6529493 1.673513 -0.6404258 0.6529493 1.546124 -1.183352 0.6529493 1.183352 -1.546124 0.6529493 0.6404258 -1.673513 0.6529493 2.38652e-7 -1.546124 0.6529493 -0.6404253 -1.183353 0.6529493 -1.183352 -0.6404259 0.6529493 -1.546124 0 0.6529493 -1.673513 0.640426 0.6529493 -1.546124 1.183353 0.6529494 -1.183352 1.546125 0.6529494 -0.6404249 1.705165 0.9252347 0 1.575367 0.9252347 0.6525383 1.205734 0.9252347 1.205734 0.6525381 0.9252346 1.575367 0 0.9252346 1.705165 -0.6525385 0.9252346 1.575367 -1.205734 0.9252346 1.205734 -1.575367 0.9252346 0.6525384 -1.705165 0.9252346 2.42252e-7 -1.575367 0.9252346 -0.6525379 -1.205734 0.9252346 -1.205733 -0.6525385 0.9252346 -1.575367 0 0.9252346 -1.705165 0.6525384 0.9252346 -1.575367 1.205734 0.9252347 -1.205733 1.575367 0.9252347 -0.6525375 1.406749 0.3806642 0.5826945 1.076679 0.3806642 1.076679 0.5826945 0.3806642 1.406749 0 0.3806642 1.522654 -0.5826946 0.3806642 1.406749 -1.076679 0.3806641 1.076679 -1.406749 0.3806641 0.5826946 -1.522654 0.3806641 2.21493e-7 -1.406749 0.3806641 -0.5826941 -1.076679 0.3806641 -1.076679 -0.5826947 0.3806642 -1.406749 0 0.3806642 -1.522654 0.5826948 0.3806642 -1.406749 1.076679 0.3806642 -1.076679 1.406749 0.3806642 -0.5826938 1.522654 0.3806642 0 1.11424 0.004001617 0 1.029423 0.004001617 0.4264011 0.7878866 0.004001617 0.7878866 0.4264011 0.004001617 1.029423 0 0.004001617 1.11424 -0.4264012 0.004001498 1.029423 -0.7878866 0.004001498 0.7878866 -1.029423 0.004001498 0.4264012 -1.11424 0.004001498 1.70325e-7 -1.029423 0.004001498 -0.4264008 -0.7878867 0.004001498 -0.7878863 -0.4264013 0.004001498 -1.029423 0 0.004001617 -1.11424 0.4264013 0.004001617 -1.029423 0.7878867 0.004001617 -0.7878862 1.029424 0.004001617 -0.4264006 1.50088 1.061377 0 1.386633 1.061377 0.5743621 1.061283 1.061377 1.061283 0.5743619 1.061377 1.386632 0 1.061377 1.50088 -0.5743623 1.061377 1.386632 -1.061283 1.061377 1.061283 -1.386633 1.061377 0.5743622 -1.50088 1.061377 2.19016e-7 -1.386633 1.061377 -0.5743617 -1.061283 1.061377 -1.061282 -0.5743623 1.061377 -1.386633 0 1.061377 -1.50088 0.5743622 1.061377 -1.386633 1.061283 1.061377 -1.061282 1.386633 1.061377 -0.5743614 0.6996479 1.197541 0.4172114 0.7445955 1.197508 0.5874314 0.4035797 1.198564 0.3809116 0.574397 1.197727 0.341315 0.4061796 1.199077 0.623292 0.3603873 1.199031 0.4534776 0.7022427 1.197593 0.6574807 0.5305809 1.198352 0.6974827 1.116116 1.921252 0.9657238 1.071015 1.921286 0.7949222 0.9453361 1.921472 0.7187663 0.773935 1.922312 0.7584983 0.7305952 1.922781 0.8313122 0.7765439 1.922827 1.001707 0.9013704 1.922099 1.076151 1.073619 1.921338 1.036013</float_array>
          <technique_common>
            <accessor source="#mesh0-mesh-positions-array" count="128" stride="3">
              <param name="X" type="float"/>
              <param name="Y" type="float"/>
              <param name="Z" type="float"/>
            </accessor>
          </technique_common>
        </source>
        <source id="mesh0-mesh-normals">
          <float_array id="mesh0-mesh-normals-array" count="744">0.7205754 -0.6784007 0.1433307 0.6061145 -0.6845482 0.4049926 0.4052631 -0.6840264 0.6065226 0.1436075 -0.6768661 0.721962 -0.1459302 -0.6636849 0.7336394 -0.4241811 -0.6457989 0.6348341 -0.6487728 -0.6254397 0.4334964 -0.7804168 -0.6056834 0.1552338 -0.7918497 -0.5900556 -0.1575077 -0.6763147 -0.5817087 -0.4518998 -0.4516089 -0.582439 -0.6758804 -0.157218 -0.5920811 -0.790394 0.1548006 -0.6085859 -0.7782416 0.4320556 -0.628663 -0.6466148 0.6974997 -0.578842 0.4224171 0.6326974 -0.6488236 -0.4227554 0.7315385 -0.6660915 -0.1455113 0.4943553 -0.8636801 0.09833389 0.861769 -0.4774628 -0.1714163 0.7305729 -0.4774622 -0.4881528 0.4881538 -0.4774615 -0.7305727 0.1714161 -0.4774618 -0.8617695 -0.1714161 -0.4774619 -0.8617696 -0.4881536 -0.4774613 -0.7305729 -0.7305737 -0.4774603 -0.4881536 -0.8617691 -0.4774625 -0.1714163 -0.8617702 -0.4774605 0.1714164 -0.7305736 -0.47746 0.4881538 -0.4881539 -0.47746 0.7305736 -0.1714161 -0.4774619 0.8617696 0.1714161 -0.4774619 0.8617695 0.4881539 -0.4774599 0.7305736 0.7305735 -0.4774602 0.4881538 0.8617701 -0.4774609 0.1714164 0.9744727 -0.1132761 -0.193834 0.8261177 -0.1132772 -0.5519944 0.5519939 -0.1132763 -0.8261183 0.1938354 -0.1132781 -0.9744721 -0.1938354 -0.1132782 -0.9744721 -0.5519942 -0.1132763 -0.8261181 -0.8261182 -0.1132794 -0.5519932 -0.9744721 -0.1132794 -0.1938353 -0.9744721 -0.1132787 0.1938353 -0.8261175 -0.113279 0.5519943 -0.5519945 -0.1132794 0.8261173 -0.1938355 -0.1132782 0.9744721 0.193835 -0.1132794 0.9744721 0.5519944 -0.1132788 0.8261176 0.8261173 -0.1132793 0.5519945 0.9744723 -0.1132773 0.1938353 0.7605398 -0.6314216 0.1512816 0.6447553 -0.6314213 0.4308106 0.4308107 -0.6314214 0.6447551 0.1512821 -0.6314199 0.7605411 -0.1512821 -0.6314199 0.7605412 -0.4308108 -0.6314215 0.6447551 -0.644755 -0.6314214 0.4308109 -0.7605397 -0.6314218 0.1512815 -0.760542 -0.6314191 -0.1512805 -0.6447553 -0.6314203 -0.4308122 -0.4308115 -0.6314201 -0.6447558 -0.1512821 -0.6314199 -0.7605411 0.1512821 -0.6314199 -0.7605411 0.4308109 -0.6314213 -0.6447551 0.6447557 -0.63142 -0.4308119 0.7605412 -0.6314203 -0.1512805 0 -1 0 0.09833371 -0.8636802 -0.4943551 -0.2800294 -0.8636802 0.4190946 -0.2800293 -0.8636804 -0.4190942 0.4943557 -0.86368 -0.09833312 0.09833371 -0.8636803 0.4943551 -0.494355 -0.8636803 -0.09833389 0.2800298 -0.8636803 -0.419094 0.4190944 -0.8636803 0.2800292 -0.4190945 -0.8636801 0.2800295 -0.09833383 -0.8636801 -0.4943553 -0.09833371 -0.8636802 0.4943551 -0.419093 -0.8636812 -0.2800283 0.4190934 -0.8636806 -0.2800295 0.280029 -0.8636805 0.4190942 -0.4943553 -0.8636801 0.09833389 0.5512241 0.8271214 -0.1096457 0.4673053 0.8271216 -0.312243 0.3122435 0.8271214 -0.4673053 0.1096452 0.8271228 -0.5512222 -0.1096453 0.8271217 -0.5512237 -0.3122432 0.8271219 -0.4673046 -0.4673046 0.8271223 -0.3122425 -0.551224 0.8271216 -0.1096453 -0.5512226 0.8271225 0.1096451 -0.4673051 0.8271219 0.3122423 -0.3122426 0.827122 0.4673048 -0.1096452 0.8271229 0.5512222 0.1096453 0.8271231 0.5512218 0.3122425 0.8271222 0.4673046 0.4673054 0.8271216 0.3122428 0.5512226 0.8271226 0.1096453 -0.5043342 -0.1831357 0.8438652 0.003218293 0.9999907 -0.002868473 8.80399e-4 0.9999995 -6.79696e-4 -0.6999201 0.5774464 -0.4203184 0.004910171 0.999988 4.2252e-5 0.1902453 -0.5298752 0.8264617 -0.9090355 0.3370603 0.2450403 -0.1892365 0.5285671 -0.8275303 0.9088678 -0.3410739 -0.2400581 0.5102088 0.1773967 -0.8415566 0.7205761 -0.6783999 0.1433309 0.6061142 -0.6845489 0.4049918 0.4052676 -0.6840225 0.6065241 0.1436068 -0.6768685 0.72196 -0.1459301 -0.6636831 0.7336411 -0.4241809 -0.6458047 0.6348283 -0.6487733 -0.6254385 0.4334974 -0.7804175 -0.6056821 0.1552342 -0.7918479 -0.5900579 -0.1575081 -0.676316 -0.5817082 -0.4518985 -0.4516104 -0.5824349 -0.6758829 -0.157219 -0.5920869 -0.7903894 0.1548035 -0.6085816 -0.7782444 0.4320527 -0.6286672 -0.6466127 0.697499 -0.5788411 0.4224194 0.6326982 -0.6488226 -0.4227556 0.7315384 -0.6660917 -0.145511 0.494355 -0.8636804 0.09833389 0.8617696 -0.4774616 -0.1714161 0.7305727 -0.4774625 -0.4881529 0.4881535 -0.4774603 -0.7305737 0.1714173 -0.4774603 -0.8617703 -0.1714173 -0.4774603 -0.8617702 -0.4881535 -0.4774603 -0.7305735 -0.7305732 -0.4774622 -0.4881522 -0.8617706 -0.4774594 -0.1714174 -0.8617696 -0.4774613 0.1714173 -0.7305733 -0.4774603 0.4881541 -0.4881541 -0.4774603 0.7305732 -0.1714174 -0.4774603 0.8617701 0.1714174 -0.4774602 0.8617702 0.4881542 -0.4774603 0.7305733 0.7305735 -0.47746 0.4881539 0.8617694 -0.4774615 0.1714172 0.9744724 -0.1132773 -0.1938349 0.8261182 -0.1132757 -0.551994 0.5519952 -0.1132788 -0.826117 0.1938344 -0.1132793 -0.9744722 -0.1938343 -0.1132794 -0.9744722 -0.551995 -0.1132791 -0.8261171 -0.826118 -0.1132766 -0.5519943 -0.9744722 -0.1132786 -0.1938349 -0.9744723 -0.1132786 0.1938347 -0.8261176 -0.1132817 0.5519937 -0.5519937 -0.1132817 0.8261175 -0.1938343 -0.1132794 0.9744722 0.1938349 -0.113278 0.9744722 0.5519931 -0.1132816 0.826118 0.8261178 -0.1132814 0.5519934 0.9744721 -0.1132795 0.1938347 0.7605415 -0.6314197 0.1512808 0.6447557 -0.6314198 0.4308122 0.4308122 -0.6314201 0.6447556 0.1512801 -0.6314213 0.7605404 -0.1512801 -0.6314214 0.7605403 -0.430812 -0.6314202 0.6447556 -0.6447555 -0.6314202 0.4308121 -0.7605415 -0.6314197 0.1512808 -0.7605412 -0.6314201 -0.1512808 -0.6447561 -0.6314195 -0.4308122 -0.4308117 -0.6314211 -0.6447548 -0.1512801 -0.6314213 -0.7605403 0.1512801 -0.6314213 -0.7605403 0.4308124 -0.6314201 -0.6447552 0.6447562 -0.6314195 -0.430812 0.7605416 -0.6314195 -0.151281 0 -1 0 0 -1 0 0 -1 0 0 -1 3.60518e-7 0 -1 -3.57299e-7 0 -1 0 0 -1 0 0 -1 0 0 -1 0 0.09833371 -0.8636802 -0.4943551 -0.2800294 -0.8636803 0.4190945 -0.2800298 -0.8636801 -0.4190944 0.4943552 -0.8636803 -0.09833288 0.09833377 -0.8636803 0.4943551 -0.4943534 -0.8636813 -0.09833252 0.2800291 -0.8636806 -0.4190939 0.4190944 -0.8636803 0.2800293 -0.4190941 -0.8636804 0.2800292 -0.09833365 -0.8636802 -0.4943552 -0.09833383 -0.8636801 0.4943553 -0.4190934 -0.8636806 -0.2800295 0.419094 -0.8636804 -0.2800295 0.2800297 -0.86368 0.4190945 -0.4943551 -0.8636803 0.09833389 0.5512226 0.8271226 -0.1096443 0.4673042 0.8271223 -0.3122426 0.3122434 0.8271223 -0.4673038 0.1096445 0.8271214 -0.5512245 -0.1096444 0.8271223 -0.5512232 -0.312244 0.8271212 -0.4673053 -0.4673053 0.8271214 -0.3122437 -0.5512229 0.8271225 -0.1096445 -0.5512244 0.8271214 0.1096448 -0.4673048 0.8271217 0.3122432 -0.3122416 0.8271225 0.4673045 -0.1096451 0.8271226 0.5512226 0.1096452 0.8271226 0.5512223 0.3122413 0.8271229 0.4673041 0.4673041 0.8271226 0.3122423 0.5512239 0.8271218 0.1096444 -0.504333 -0.1831356 0.8438659 0.003953635 0.9999839 -0.00408864 0.005216956 0.999985 -0.001675546 0.005557 0.9999845 4.5951e-4 0.00435692 0.9999905 -2.62625e-4 0.001636683 0.9999987 -2.32905e-4 -3.18061e-5 1 -2.10931e-5 9.43612e-6 1 1.82225e-6 -4.41949e-5 1 2.03988e-4 7.9221e-6 1 -1.33864e-6 1.24035e-4 1 -8.26098e-5 0.001009404 0.9999993 7.84163e-4 6.96637e-5 1 -1.04265e-4 0.003670394 0.9999881 -0.003223657 -0.6999191 0.5774468 -0.4203198 6.27573e-4 0.9999994 9.39212e-4 1.97336e-4 0.9999995 9.92369e-4 0.003976285 0.9999873 0.003104865 -2.83961e-4 0.9999991 0.00142759 -0.001425325 0.999999 1.13535e-4 -7.64647e-4 0.9999997 5.10791e-4 -5.90082e-4 0.9999995 8.83286e-4 -7.29681e-4 0.9999998 -1.4538e-4 -7.98185e-4 0.9999997 1.59029e-4 -2.71408e-4 1 -4.06409e-4 -4.05026e-4 0.9999999 -2.70877e-4 0.002155005 0.9999844 -0.005151033 1.07489e-4 0.9999999 -5.40462e-4 -9.93613e-5 1 -4.99548e-4 0.1902442 -0.5298756 0.8264619 -0.9090356 0.3370609 0.2450392 -0.1892363 0.5285671 -0.8275303 0.9088677 -0.3410743 -0.2400578 0.5102086 0.1773969 -0.8415567</float_array>
          <technique_common>
            <accessor source="#mesh0-mesh-normals-array" count="248" stride="3">
              <param name="X" type="float"/>
              <param name="Y" type="float"/>
              <param name="Z" type="float"/>
            </accessor>
          </technique_common>
        </source>
        <source id="mesh0-mesh-map-0">
          <float_array id="mesh0-mesh-map-0-array" count="1512">0.04266119 0.1728352 0.07295566 0.1091376 0.07735008 0.1699222 0.0376268 0.1112428 0.06967079 0.05055493 0.07295566 0.1091376 0.5228504 0.9460258 0.4361279 0.9317414 0.4649969 0.8980408 0.4649969 0.8980408 0.3799092 0.8787662 0.4088282 0.8478238 0.4088282 0.8478238 0.3285297 0.8249841 0.3576084 0.7966405 0.3576084 0.7966405 0.2817378 0.7699726 0.3113141 0.7442917 0.3113141 0.7442917 0.2395197 0.7136008 0.2697688 0.690707 0.2697688 0.690707 0.2018724 0.6559993 0.2328058 0.6360033 0.2328058 0.6360033 0.1687672 0.5975118 0.2001885 0.5804329 0.2001885 0.5804329 0.1400877 0.5388747 0.1712607 0.5243113 0.1400877 0.5388747 0.146723 0.4670814 0.1712607 0.5243113 0.1143425 0.4797821 0.1255733 0.4090436 0.146723 0.4670814 0.09233874 0.4192575 0.1081732 0.3501262 0.1255733 0.4090436 0.07436138 0.3579347 0.09451538 0.2905291 0.1081732 0.3501262 0.8259773 0.5632727 0.8444952 0.9808012 0.8254617 0.982218 0.06033289 0.2962308 0.08437937 0.2304294 0.09451538 0.2905291 0.04995346 0.2344647 0.07735008 0.1699222 0.08437937 0.2304294 0.2942587 0.1103226 0.322016 0.1574878 0.292212 0.1576362 0.1768071 0.2176498 0.2296811 0.1586497 0.23381 0.2107776 0.1858428 0.2724479 0.23381 0.2107776 0.2417927 0.2617126 0.2534436 0.3117346 0.1858428 0.2724479 0.2417927 0.2617126 0.2145165 0.3793504 0.2534436 0.3117346 0.2686777 0.3609069 0.2874579 0.409183 0.2145165 0.3793504 0.2686777 0.3609069 0.257623 0.4826336 0.2874579 0.409183 0.3097796 0.456464 0.2847566 0.5327724 0.3097796 0.456464 0.335707 0.5026419 0.3157609 0.5818063 0.335707 0.5026419 0.3653338 0.5475579 0.3508356 0.6295685 0.3653338 0.5475579 0.3988056 0.5909969 0.3902306 0.6758552 0.3988056 0.5909969 0.4363324 0.6326898 0.4782375 0.6723167 0.3902306 0.6758552 0.4363324 0.6326898 0.4835584 0.7633618 0.4782375 0.6723167 0.5250679 0.7095005 0.5778025 0.7437479 0.4835584 0.7633618 0.5250679 0.7095005 0.6026174 0.8452076 0.5778025 0.7437479 0.6379938 0.7742875 0.2298209 0.104636 0.1686304 0.04156327 0.235192 0.04738885 0.2296811 0.1586497 0.1684785 0.1036013 0.2298209 0.104636 0.1208162 0.2246417 0.171119 0.1616296 0.1768071 0.2176498 0.1306109 0.2827262 0.1768071 0.2176498 0.1858428 0.2724479 0.1983866 0.3263253 0.1306109 0.2827262 0.1858428 0.2724479 0.1607397 0.3967476 0.1983866 0.3263253 0.2145165 0.3793504 0.2342601 0.4314826 0.1607397 0.3967476 0.2145165 0.3793504 0.2054429 0.5073758 0.2342601 0.4314826 0.257623 0.4826336 0.2336052 0.5612597 0.257623 0.4826336 0.2847566 0.5327724 0.3157609 0.5818063 0.2336052 0.5612597 0.2847566 0.5327724 0.3508356 0.6295685 0.2656555 0.6142739 0.3157609 0.5818063 0.3902306 0.6758552 0.3019192 0.6662525 0.3508356 0.6295685 0.3881372 0.7663792 0.3902306 0.6758552 0.4342877 0.7204815 0.4387234 0.8144173 0.4342877 0.7204815 0.4835584 0.7633618 0.4951037 0.8614689 0.4835584 0.7633618 0.5390835 0.8046733 0.6026174 0.8452076 0.4951037 0.8614689 0.5390835 0.8046733 0.1093729 0.1058821 0.1686304 0.04156327 0.1684785 0.1036013 0.1140554 0.165781 0.1684785 0.1036013 0.171119 0.1616296 0.292212 0.1576362 0.2298209 0.104636 0.2942587 0.1103226 0.2298209 0.104636 0.3032241 0.06145495 0.2942587 0.1103226 0.665759 0.6993053 0.5778025 0.7437479 0.6126757 0.6779484 0.6126757 0.6779484 0.5250679 0.7095005 0.5653265 0.65073 0.5250679 0.7095005 0.5226137 0.619402 0.5653265 0.65073 0.4782375 0.6723167 0.4839733 0.5849963 0.5226137 0.619402 0.4839733 0.5849963 0.3988056 0.5909969 0.4491018 0.54817 0.3988056 0.5909969 0.4178243 0.5093812 0.4491018 0.54817 0.4178243 0.5093812 0.335707 0.5026419 0.3900334 0.4689708 0.3900334 0.4689708 0.3097796 0.456464 0.3656599 0.4272022 0.3097796 0.456464 0.344664 0.3842841 0.3656599 0.4272022 0.344664 0.3842841 0.2686777 0.3609069 0.3270381 0.3403882 0.2686777 0.3609069 0.3128224 0.2956676 0.3270381 0.3403882 0.2534436 0.3117346 0.302115 0.2502522 0.3128224 0.2956676 0.2417927 0.2617126 0.295113 0.2042337 0.302115 0.2502522 0.295113 0.2042337 0.2296811 0.1586497 0.292212 0.1576362 0.03892689 0.786987 0.1058753 0.7422536 0.146923 0.9486144 0.3128224 0.2956676 0.3556365 0.3301986 0.3270381 0.3403882 0.4839733 0.5849963 0.5435649 0.5933472 0.5226137 0.619402 0.344664 0.3842841 0.3929986 0.4126107 0.3656599 0.4272022 0.292212 0.1576362 0.3247792 0.2011788 0.295113 0.2042337 0.5653265 0.65073 0.627556 0.646367 0.6126757 0.6779484 0.4178243 0.5093812 0.4165465 0.452177 0.4433466 0.4903607 0.3128224 0.2956676 0.3315279 0.2446641 0.3418803 0.2877314 0.2942587 0.1103226 0.332693 0.07106781 0.3240224 0.1139185 0.4491018 0.54817 0.5068102 0.561378 0.4839733 0.5849963 0.3270381 0.3403882 0.3726921 0.3718864 0.344664 0.3842841 0.5226137 0.619402 0.5837739 0.6220605 0.5653265 0.65073 0.3900334 0.4689708 0.3929986 0.4126107 0.4165465 0.452177 0.302115 0.2502522 0.3247792 0.2011788 0.3315279 0.2446641 0.6126757 0.6779484 0.6749841 0.6642598 0.665759 0.6993053 0.4178243 0.5093812 0.4734226 0.5268827 0.4491018 0.54817 0.08437937 0.2304294 0.1140554 0.165781 0.1208162 0.2246417 0.1306109 0.2827262 0.08437937 0.2304294 0.1208162 0.2246417 0.1081732 0.3501262 0.1306109 0.2827262 0.1438555 0.3401126 0.1255733 0.4090436 0.1438555 0.3401126 0.1607397 0.3967476 0.146723 0.4670814 0.1607397 0.3967476 0.1812986 0.4525369 0.1712607 0.5243113 0.1812986 0.4525369 0.2054429 0.5073758 0.2336052 0.5612597 0.1712607 0.5243113 0.2054429 0.5073758 0.2656555 0.6142739 0.2001885 0.5804329 0.2336052 0.5612597 0.3019192 0.6662525 0.2328058 0.6360033 0.2656555 0.6142739 0.3113141 0.7442917 0.3019192 0.6662525 0.3426583 0.7169969 0.3881372 0.7663792 0.3113141 0.7442917 0.3426583 0.7169969 0.4088282 0.8478238 0.3881372 0.7663792 0.4387234 0.8144173 0.4951037 0.8614689 0.4088282 0.8478238 0.4387234 0.8144173 0.5228504 0.9460258 0.4951037 0.8614689 0.5577796 0.9112672 0.07295566 0.1091376 0.1046776 0.04408228 0.1093729 0.1058821 0.07735008 0.1699222 0.1093729 0.1058821 0.1140554 0.165781 0.7854471 0.5573592 0.7523139 0.9670197 0.7530787 0.5481259 0.05773782 0.6958189 0.02625972 0.6635982 0.098984 0.5935191 0.7849253 0.2643906 0.7854628 0.2525186 0.8799365 0.2291113 0.977056 0.5378436 0.95744 0.9549763 0.9575068 0.5361235 0.7271008 0.2618129 0.7445279 0.2803723 0.6041083 0.5049351 0.8259773 0.5632727 0.7847933 0.9762845 0.7854471 0.5573592 0.7126992 0.9564184 0.7530787 0.5481259 0.7523139 0.9670197 0.95744 0.9549763 0.9171712 0.5419018 0.9575068 0.5361235 0.8449457 0.5618607 0.8841975 0.9703747 0.8444952 0.9808012 0.8845133 0.5514695 0.9169666 0.9607746 0.8841975 0.9703747 0.04266119 0.1728352 0.0376268 0.1112428 0.07295566 0.1091376 0.0376268 0.1112428 0.03536987 0.04935312 0.06967079 0.05055493 0.5228504 0.9460258 0.4975692 0.9820479 0.4361279 0.9317414 0.4649969 0.8980408 0.4361279 0.9317414 0.3799092 0.8787662 0.4088282 0.8478238 0.3799092 0.8787662 0.3285297 0.8249841 0.3576084 0.7966405 0.3285297 0.8249841 0.2817378 0.7699726 0.3113141 0.7442917 0.2817378 0.7699726 0.2395197 0.7136008 0.2697688 0.690707 0.2395197 0.7136008 0.2018724 0.6559993 0.2328058 0.6360033 0.2018724 0.6559993 0.1687672 0.5975118 0.2001885 0.5804329 0.1687672 0.5975118 0.1400877 0.5388747 0.1400877 0.5388747 0.1143425 0.4797821 0.146723 0.4670814 0.1143425 0.4797821 0.09233874 0.4192575 0.1255733 0.4090436 0.09233874 0.4192575 0.07436138 0.3579347 0.1081732 0.3501262 0.07436138 0.3579347 0.06033289 0.2962308 0.09451538 0.2905291 0.8259773 0.5632727 0.8449457 0.5618607 0.8444952 0.9808012 0.06033289 0.2962308 0.04995346 0.2344647 0.08437937 0.2304294 0.04995346 0.2344647 0.04266119 0.1728352 0.07735008 0.1699222 0.2942587 0.1103226 0.3240224 0.1139185 0.322016 0.1574878 0.1768071 0.2176498 0.171119 0.1616296 0.2296811 0.1586497 0.1858428 0.2724479 0.1768071 0.2176498 0.23381 0.2107776 0.2534436 0.3117346 0.1983866 0.3263253 0.1858428 0.2724479 0.2145165 0.3793504 0.1983866 0.3263253 0.2534436 0.3117346 0.2874579 0.409183 0.2342601 0.4314826 0.2145165 0.3793504 0.257623 0.4826336 0.2342601 0.4314826 0.2874579 0.409183 0.2847566 0.5327724 0.257623 0.4826336 0.3097796 0.456464 0.3157609 0.5818063 0.2847566 0.5327724 0.335707 0.5026419 0.3508356 0.6295685 0.3157609 0.5818063 0.3653338 0.5475579 0.3902306 0.6758552 0.3508356 0.6295685 0.3988056 0.5909969 0.4782375 0.6723167 0.4342877 0.7204815 0.3902306 0.6758552 0.4835584 0.7633618 0.4342877 0.7204815 0.4782375 0.6723167 0.5778025 0.7437479 0.5390835 0.8046733 0.4835584 0.7633618 0.6026174 0.8452076 0.5390835 0.8046733 0.5778025 0.7437479 0.2298209 0.104636 0.1684785 0.1036013 0.1686304 0.04156327 0.2296811 0.1586497 0.171119 0.1616296 0.1684785 0.1036013 0.1208162 0.2246417 0.1140554 0.165781 0.171119 0.1616296 0.1306109 0.2827262 0.1208162 0.2246417 0.1768071 0.2176498 0.1983866 0.3263253 0.1438555 0.3401126 0.1306109 0.2827262 0.1607397 0.3967476 0.1438555 0.3401126 0.1983866 0.3263253 0.2342601 0.4314826 0.1812986 0.4525369 0.1607397 0.3967476 0.2054429 0.5073758 0.1812986 0.4525369 0.2342601 0.4314826 0.2336052 0.5612597 0.2054429 0.5073758 0.257623 0.4826336 0.3157609 0.5818063 0.2656555 0.6142739 0.2336052 0.5612597 0.3508356 0.6295685 0.3019192 0.6662525 0.2656555 0.6142739 0.3902306 0.6758552 0.3426583 0.7169969 0.3019192 0.6662525 0.3881372 0.7663792 0.3426583 0.7169969 0.3902306 0.6758552 0.4387234 0.8144173 0.3881372 0.7663792 0.4342877 0.7204815 0.4951037 0.8614689 0.4387234 0.8144173 0.4835584 0.7633618 0.6026174 0.8452076 0.5577796 0.9112672 0.4951037 0.8614689 0.1093729 0.1058821 0.1046776 0.04408228 0.1686304 0.04156327 0.1140554 0.165781 0.1093729 0.1058821 0.1684785 0.1036013 0.292212 0.1576362 0.2296811 0.1586497 0.2298209 0.104636 0.2298209 0.104636 0.235192 0.04738885 0.3032241 0.06145495 0.665759 0.6993053 0.6379938 0.7742875 0.5778025 0.7437479 0.6126757 0.6779484 0.5778025 0.7437479 0.5250679 0.7095005 0.5250679 0.7095005 0.4782375 0.6723167 0.5226137 0.619402 0.4782375 0.6723167 0.4363324 0.6326898 0.4839733 0.5849963 0.4839733 0.5849963 0.4363324 0.6326898 0.3988056 0.5909969 0.3988056 0.5909969 0.3653338 0.5475579 0.4178243 0.5093812 0.4178243 0.5093812 0.3653338 0.5475579 0.335707 0.5026419 0.3900334 0.4689708 0.335707 0.5026419 0.3097796 0.456464 0.3097796 0.456464 0.2874579 0.409183 0.344664 0.3842841 0.344664 0.3842841 0.2874579 0.409183 0.2686777 0.3609069 0.2686777 0.3609069 0.2534436 0.3117346 0.3128224 0.2956676 0.2534436 0.3117346 0.2417927 0.2617126 0.302115 0.2502522 0.2417927 0.2617126 0.23381 0.2107776 0.295113 0.2042337 0.295113 0.2042337 0.23381 0.2107776 0.2296811 0.1586497 0.1058753 0.7422536 0.146923 0.7422536 0.2295795 0.8249101 0.146923 0.7422536 0.1848461 0.7579618 0.2295795 0.8249101 0.1848461 0.7579618 0.2138712 0.786987 0.2295795 0.8249101 0.2295795 0.8249101 0.2295795 0.8659579 0.2138712 0.903881 0.2138712 0.903881 0.1848462 0.932906 0.146923 0.9486144 0.146923 0.9486144 0.1058753 0.9486144 0.02321869 0.8659579 0.1058753 0.9486144 0.06795215 0.9329061 0.02321869 0.8659579 0.06795215 0.9329061 0.03892689 0.903881 0.02321869 0.8659579 0.02321869 0.8659579 0.02321869 0.8249102 0.03892689 0.786987 0.03892689 0.786987 0.06795209 0.7579619 0.1058753 0.7422536 0.2295795 0.8249101 0.2138712 0.903881 0.1058753 0.7422536 0.2138712 0.903881 0.146923 0.9486144 0.1058753 0.7422536 0.02321869 0.8659579 0.03892689 0.786987 0.146923 0.9486144 0.3128224 0.2956676 0.3418803 0.2877314 0.3556365 0.3301986 0.4839733 0.5849963 0.5068102 0.561378 0.5435649 0.5933472 0.344664 0.3842841 0.3726921 0.3718864 0.3929986 0.4126107 0.292212 0.1576362 0.322016 0.1574878 0.3247792 0.2011788 0.5653265 0.65073 0.5837739 0.6220605 0.627556 0.646367 0.4178243 0.5093812 0.3900334 0.4689708 0.4165465 0.452177 0.3128224 0.2956676 0.302115 0.2502522 0.3315279 0.2446641 0.2942587 0.1103226 0.3032241 0.06145495 0.332693 0.07106781 0.4491018 0.54817 0.4734226 0.5268827 0.5068102 0.561378 0.3270381 0.3403882 0.3556365 0.3301986 0.3726921 0.3718864 0.5226137 0.619402 0.5435649 0.5933472 0.5837739 0.6220605 0.3900334 0.4689708 0.3656599 0.4272022 0.3929986 0.4126107 0.302115 0.2502522 0.295113 0.2042337 0.3247792 0.2011788 0.6126757 0.6779484 0.627556 0.646367 0.6749841 0.6642598 0.4178243 0.5093812 0.4433466 0.4903607 0.4734226 0.5268827 0.08437937 0.2304294 0.07735008 0.1699222 0.1140554 0.165781 0.1306109 0.2827262 0.09451538 0.2905291 0.08437937 0.2304294 0.1081732 0.3501262 0.09451538 0.2905291 0.1306109 0.2827262 0.1255733 0.4090436 0.1081732 0.3501262 0.1438555 0.3401126 0.146723 0.4670814 0.1255733 0.4090436 0.1607397 0.3967476 0.1712607 0.5243113 0.146723 0.4670814 0.1812986 0.4525369 0.2336052 0.5612597 0.2001885 0.5804329 0.1712607 0.5243113 0.2656555 0.6142739 0.2328058 0.6360033 0.2001885 0.5804329 0.3019192 0.6662525 0.2697688 0.690707 0.2328058 0.6360033 0.3113141 0.7442917 0.2697688 0.690707 0.3019192 0.6662525 0.3881372 0.7663792 0.3576084 0.7966405 0.3113141 0.7442917 0.4088282 0.8478238 0.3576084 0.7966405 0.3881372 0.7663792 0.4951037 0.8614689 0.4649969 0.8980408 0.4088282 0.8478238 0.5228504 0.9460258 0.4649969 0.8980408 0.4951037 0.8614689 0.07295566 0.1091376 0.06967079 0.05055493 0.1046776 0.04408228 0.07735008 0.1699222 0.07295566 0.1091376 0.1093729 0.1058821 0.7854471 0.5573592 0.7847933 0.9762845 0.7523139 0.9670197 0.02619701 0.6096626 0.04491961 0.591656 0.02625972 0.6635982 0.04491961 0.591656 0.098984 0.5935191 0.02625972 0.6635982 0.098984 0.5935191 0.1298918 0.6256089 0.05773782 0.6958189 0.1298918 0.6256089 0.1298918 0.6798253 0.05773782 0.6958189 0.1298918 0.6798253 0.1118649 0.6974017 0.05773782 0.6958189 0.8799365 0.2291113 0.8799365 0.3206366 0.7849253 0.2643906 0.8799365 0.3206366 0.8449109 0.4051946 0.7657694 0.2813131 0.7849253 0.2643906 0.8799365 0.3206366 0.7657694 0.2813131 0.8449109 0.4051946 0.7801926 0.4699119 0.7657694 0.2813131 0.7801926 0.4699119 0.6956338 0.5049363 0.7445279 0.2803723 0.7657694 0.2813131 0.7801926 0.4699119 0.7445279 0.2803723 0.6956338 0.5049363 0.6041083 0.5049351 0.7445279 0.2803723 0.7854628 0.2525186 0.7679666 0.2338424 0.8799365 0.2291113 0.977056 0.5378436 0.977056 0.9567025 0.95744 0.9549763 0.8449124 0.1445533 0.8799365 0.2291113 0.7679666 0.2338424 0.8449124 0.1445533 0.7679666 0.2338424 0.7801961 0.07983517 0.7679666 0.2338424 0.7469643 0.2327635 0.7801961 0.07983517 0.6956375 0.0448085 0.7801961 0.07983517 0.7469643 0.2327635 0.6956375 0.0448085 0.7469643 0.2327635 0.7277396 0.2495682 0.5195524 0.07983368 0.6041115 0.04480803 0.7277396 0.2495682 0.6041115 0.04480803 0.6956375 0.0448085 0.7277396 0.2495682 0.4198095 0.2291125 0.4548341 0.1445528 0.7277396 0.2495682 0.4548341 0.1445528 0.5195524 0.07983368 0.7277396 0.2495682 0.4548346 0.4051928 0.4198099 0.320636 0.7271008 0.2618129 0.4198099 0.320636 0.4198095 0.2291125 0.7271008 0.2618129 0.7271008 0.2618129 0.4198095 0.2291125 0.7277396 0.2495682 0.6041083 0.5049351 0.5195516 0.46991 0.7271008 0.2618129 0.5195516 0.46991 0.4548346 0.4051928 0.7271008 0.2618129 0.8259773 0.5632727 0.8254617 0.982218 0.7847933 0.9762845 0.7126992 0.9564184 0.7135988 0.5375609 0.7530787 0.5481259 0.95744 0.9549763 0.9169666 0.9607746 0.9171712 0.5419018 0.8449457 0.5618607 0.8845133 0.5514695 0.8841975 0.9703747 0.8845133 0.5514695 0.9171712 0.5419018 0.9169666 0.9607746</float_array>
          <technique_common>
            <accessor source="#mesh0-mesh-map-0-array" count="756" stride="2">
              <param name="S" type="float"/>
              <param name="T" type="float"/>
            </accessor>
          </technique_common>
        </source>
        <vertices id="mesh0-mesh-vertices">
          <input semantic="POSITION" source="#mesh0-mesh-positions"/>
        </vertices>
        <triangles material="material0-material" count="252">
          <input semantic="VERTEX" source="#mesh0-mesh-vertices" offset="0"/>
          <input semantic="NORMAL" source="#mesh0-mesh-normals" offset="1"/>
          <input semantic="TEXCOORD" source="#mesh0-mesh-map-0" offset="2" set="0"/>
          <p>1 0 0 97 0 1 96 0 2 3 1 3 98 1 4 97 1 5 98 2 6 7 2 7 99 2 8 99 3 9 9 3 10 100 3 11 100 4 12 11 4 13 101 4 14 101 5 15 13 5 16 102 5 17 102 6 18 15 6 19 103 6 20 103 7 21 17 7 22 104 7 23 104 8 24 19 8 25 105 8 26 105 9 27 21 9 28 106 9 29 21 10 30 107 10 31 106 10 32 23 11 33 108 11 34 107 11 35 25 12 36 109 12 37 108 12 38 27 13 39 110 13 40 109 13 41 118 14 42 120 14 43 127 14 44 29 15 45 111 15 46 110 15 47 31 16 48 96 16 49 111 16 50 2 17 51 80 17 52 0 17 53 47 18 54 79 18 55 78 18 56 46 19 57 78 19 58 77 19 59 76 20 60 46 20 61 77 20 62 44 21 63 76 21 64 75 21 65 74 22 66 44 22 67 75 22 68 42 23 69 74 23 70 73 23 71 41 24 72 73 24 73 72 24 74 40 25 75 72 25 76 71 25 77 39 26 78 71 26 79 70 26 80 38 27 81 70 27 82 69 27 83 68 28 84 38 28 85 69 28 86 36 29 87 68 29 88 67 29 89 66 30 90 36 30 91 67 30 92 34 31 93 66 31 94 65 31 95 64 32 96 34 32 97 65 32 98 79 33 99 33 33 100 64 33 101 63 34 102 32 34 103 47 34 104 62 35 105 47 35 106 46 35 107 45 36 108 62 36 109 46 36 110 60 37 111 45 37 112 44 37 113 43 38 114 60 38 115 44 38 116 58 39 117 43 39 118 42 39 119 57 40 120 42 40 121 41 40 122 40 41 123 57 41 124 41 41 125 39 42 126 56 42 127 40 42 128 38 43 129 55 43 130 39 43 131 53 44 132 38 44 133 37 44 134 52 45 135 37 45 136 36 45 137 51 46 138 36 46 139 35 46 140 34 47 141 51 47 142 35 47 143 49 48 144 34 48 145 33 48 146 48 49 147 33 49 148 32 49 149 0 50 150 64 50 151 2 50 152 64 51 153 4 51 154 2 51 155 4 52 156 66 52 157 6 52 158 6 53 159 67 53 160 8 53 161 67 54 162 10 54 163 8 54 164 68 55 165 12 55 166 10 55 167 12 56 168 70 56 169 14 56 170 70 57 171 16 57 172 14 57 173 16 58 174 72 58 175 18 58 176 18 59 177 73 59 178 20 59 179 73 60 180 22 60 181 20 60 182 22 61 183 75 61 184 24 61 185 75 62 186 26 62 187 24 62 188 76 63 189 28 63 190 26 63 191 77 64 192 30 64 193 28 64 194 30 65 195 79 65 196 0 65 197 93 66 198 95 66 199 87 66 200 26 67 201 92 67 202 24 67 203 12 68 204 85 68 205 10 68 206 22 69 207 90 69 208 20 69 209 0 70 210 95 70 211 30 70 212 8 71 213 83 71 214 6 71 215 16 72 216 89 72 217 88 72 218 26 73 219 94 73 220 93 73 221 2 74 222 82 74 223 81 74 224 14 75 225 86 75 226 12 75 227 24 76 228 91 76 229 22 76 230 10 77 231 84 77 232 8 77 233 18 78 234 90 78 235 89 78 236 28 79 237 95 79 238 94 79 239 6 80 240 82 80 241 4 80 242 16 81 243 87 81 244 14 81 245 111 82 246 48 82 247 63 82 248 62 83 249 111 83 250 63 83 251 109 84 252 62 84 253 61 84 254 108 85 255 61 85 256 60 85 257 107 86 258 60 86 259 59 86 260 106 87 261 59 87 262 58 87 263 57 88 264 106 88 265 58 88 266 56 89 267 105 89 268 57 89 269 55 90 270 104 90 271 56 90 272 102 91 273 55 91 274 54 91 275 53 92 276 102 92 277 54 92 278 100 93 279 53 93 280 52 93 281 51 94 282 100 94 283 52 94 284 98 95 285 51 95 286 50 95 287 97 96 288 50 96 289 49 96 290 96 97 291 49 97 292 48 97 293 119 98 294 125 98 295 116 98 296 121 99 297 122 99 298 125 99 299 113 100 300 118 100 301 5 100 302 117 101 303 123 101 304 114 101 305 114 102 306 115 102 307 27 102 308 118 103 309 126 103 310 119 103 311 124 104 312 116 104 313 125 104 314 123 105 315 115 105 316 114 105 317 113 106 318 121 106 319 120 106 320 112 107 321 122 107 322 121 107 323 1 108 324 3 108 325 97 108 326 3 109 327 5 109 328 98 109 329 98 110 330 5 110 331 7 110 332 99 111 333 7 111 334 9 111 335 100 112 336 9 112 337 11 112 338 101 113 339 11 113 340 13 113 341 102 114 342 13 114 343 15 114 344 103 115 345 15 115 346 17 115 347 104 116 348 17 116 349 19 116 350 105 117 351 19 117 352 21 117 353 21 118 354 23 118 355 107 118 356 23 119 357 25 119 358 108 119 359 25 120 360 27 120 361 109 120 362 27 121 363 29 121 364 110 121 365 118 122 366 113 122 367 120 122 368 29 123 369 31 123 370 111 123 371 31 124 372 1 124 373 96 124 374 2 125 375 81 125 376 80 125 377 47 126 378 32 126 379 79 126 380 46 127 381 47 127 382 78 127 383 76 128 384 45 128 385 46 128 386 44 129 387 45 129 388 76 129 389 74 130 390 43 130 391 44 130 392 42 131 393 43 131 394 74 131 395 41 132 396 42 132 397 73 132 398 40 133 399 41 133 400 72 133 401 39 134 402 40 134 403 71 134 404 38 135 405 39 135 406 70 135 407 68 136 408 37 136 409 38 136 410 36 137 411 37 137 412 68 137 413 66 138 414 35 138 415 36 138 416 34 139 417 35 139 418 66 139 419 64 140 420 33 140 421 34 140 422 79 141 423 32 141 424 33 141 425 63 142 426 48 142 427 32 142 428 62 143 429 63 143 430 47 143 431 45 144 432 61 144 433 62 144 434 60 145 435 61 145 436 45 145 437 43 146 438 59 146 439 60 146 440 58 147 441 59 147 442 43 147 443 57 148 444 58 148 445 42 148 446 40 149 447 56 149 448 57 149 449 39 150 450 55 150 451 56 150 452 38 151 453 54 151 454 55 151 455 53 152 456 54 152 457 38 152 458 52 153 459 53 153 460 37 153 461 51 154 462 52 154 463 36 154 464 34 155 465 50 155 466 51 155 467 49 156 468 50 156 469 34 156 470 48 157 471 49 157 472 33 157 473 0 158 474 79 158 475 64 158 476 64 159 477 65 159 478 4 159 479 4 160 480 65 160 481 66 160 482 6 161 483 66 161 484 67 161 485 67 162 486 68 162 487 10 162 488 68 163 489 69 163 490 12 163 491 12 164 492 69 164 493 70 164 494 70 165 495 71 165 496 16 165 497 16 166 498 71 166 499 72 166 500 18 167 501 72 167 502 73 167 503 73 168 504 74 168 505 22 168 506 22 169 507 74 169 508 75 169 509 75 170 510 76 170 511 26 170 512 76 171 513 77 171 514 28 171 515 77 172 516 78 172 517 30 172 518 30 173 519 78 173 520 79 173 521 95 174 522 80 174 523 83 174 524 80 175 525 81 175 526 83 175 527 81 176 528 82 176 529 83 176 530 83 177 531 84 177 532 85 177 533 85 176 534 86 176 535 87 176 536 87 176 537 88 176 538 91 176 539 88 176 540 89 176 541 91 176 542 89 176 543 90 176 544 91 176 545 91 178 546 92 178 547 93 178 548 93 179 549 94 179 550 95 179 551 83 180 552 85 180 553 95 180 554 85 181 555 87 181 556 95 181 557 91 182 558 93 182 559 87 182 560 26 183 561 93 183 562 92 183 563 12 184 564 86 184 565 85 184 566 22 185 567 91 185 568 90 185 569 0 186 570 80 186 571 95 186 572 8 187 573 84 187 574 83 187 575 16 188 576 18 188 577 89 188 578 26 189 579 28 189 580 94 189 581 2 190 582 4 190 583 82 190 584 14 191 585 87 191 586 86 191 587 24 192 588 92 192 589 91 192 590 10 193 591 85 193 592 84 193 593 18 194 594 20 194 595 90 194 596 28 195 597 30 195 598 95 195 599 6 196 600 83 196 601 82 196 602 16 197 603 88 197 604 87 197 605 111 198 606 96 198 607 48 198 608 62 199 609 110 199 610 111 199 611 109 200 612 110 200 613 62 200 614 108 201 615 109 201 616 61 201 617 107 202 618 108 202 619 60 202 620 106 203 621 107 203 622 59 203 623 57 204 624 105 204 625 106 204 626 56 205 627 104 205 628 105 205 629 55 206 630 103 206 631 104 206 632 102 207 633 103 207 634 55 207 635 53 208 636 101 208 637 102 208 638 100 209 639 101 209 640 53 209 641 51 210 642 99 210 643 100 210 644 98 211 645 99 211 646 51 211 647 97 212 648 98 212 649 50 212 650 96 213 651 97 213 652 49 213 653 119 214 654 126 214 655 125 214 656 123 215 657 124 215 658 122 215 659 124 216 660 125 216 661 122 216 662 125 217 663 126 217 664 121 217 665 126 218 666 127 218 667 121 218 668 127 219 669 120 219 670 121 219 671 5 220 672 3 220 673 113 220 674 3 221 675 1 221 676 112 221 677 113 222 678 3 222 679 112 222 680 1 223 681 31 223 682 112 223 683 31 224 684 29 224 685 115 224 686 112 225 687 31 225 688 115 225 689 29 226 690 27 226 691 115 226 692 118 227 693 119 227 694 5 227 695 117 228 696 124 228 697 123 228 698 7 229 699 5 229 700 119 229 701 7 230 702 119 230 703 9 230 704 119 231 705 116 231 706 9 231 707 11 232 708 9 232 709 116 232 710 11 233 711 116 233 712 117 233 713 15 234 714 13 234 715 117 234 716 13 235 717 11 235 718 117 235 719 19 236 720 17 236 721 117 236 722 17 237 723 15 237 724 117 237 725 23 238 726 21 238 727 114 238 728 21 239 729 19 239 730 114 239 731 114 240 732 19 240 733 117 240 734 27 241 735 25 241 736 114 241 737 25 242 738 23 242 739 114 242 740 118 243 741 127 243 742 126 243 743 124 244 744 117 244 745 116 244 746 123 245 747 122 245 748 115 245 749 113 246 750 112 246 751 121 246 752 112 247 753 115 247 754 122 247 755</p>
        </triangles>
      </mesh>
    </geometry>
  </library_geometries>
  <library_visual_scenes>
    <visual_scene id="Scene" name="Scene">
      <node id="Pot" name="Pot" type="NODE">
        <matrix sid="transform">1 0 0 0 0 0 1 0 0 -1 0 0 0 0 0 1</matrix>
        <instance_geometry url="#mesh0-mesh" name="Pot">
          <bind_material>
            <technique_common>
              <instance_material symbol="material0-material" target="#material0-material">
                <bind_vertex_input semantic="Cylinder_003-mesh-map-0" input_semantic="TEXCOORD" input_set="0"/>
              </instance_material>
            </technique_common>
          </bind_material>
        </instance_geometry>
      </node>
    </visual_scene>
  </library_visual_scenes>
  <scene>
    <instance_visual_scene url="#Scene"/>
  </scene>
</COLLADA>