<?xml version="1.0" encoding="utf-8"?>
<COLLADA xmlns="http://www.collada.org/2005/11/COLLADASchema" version="1.4.1" xmlns:xsi="http://www.w3.org/2001/XMLSchema-instance">
  <asset>
    <contributor>
      <author>Blender User</author>
      <authoring_tool>Blender 2.92.0 commit date:2021-02-24, commit time:16:25, hash:02948a2cab44</authoring_tool>
    </contributor>
    <created>2021-06-03T14:25:15</created>
    <modified>2021-06-03T14:25:15</modified>
    <unit name="meter" meter="1"/>
    <up_axis>Z_UP</up_axis>
  </asset>
  <library_effects>
    <effect id="matarial0_001-effect">
      <profile_COMMON>
        <technique sid="common">
          <lambert>
            <emission>
              <color sid="emission">0 0 0 1</color>
            </emission>
            <diffuse>
              <color sid="diffuse">0.8 0.8 0.8 1</color>
            </diffuse>
            <index_of_refraction>
              <float sid="ior">1.45</float>
            </index_of_refraction>
          </lambert>
        </technique>
      </profile_COMMON>
    </effect>
  </library_effects>
  <library_images/>
  <library_materials>
    <material id="matarial0_001-material" name="matarial0.001">
      <instance_effect url="#matarial0_001-effect"/>
    </material>
  </library_materials>
  <library_geometries>
    <geometry id="mesh0_005-mesh" name="mesh0.005">
      <mesh>
        <source id="mesh0_005-mesh-positions">
          <float_array id="mesh0_005-mesh-positions-array" count="258">-0.9251429 -0.002582371 -0.6667014 -0.9496031 0.4866234 -0.632457 -0.9251429 -0.002582371 -0.8265085 -0.9496031 0.4866234 -0.8607529 -0.8109949 -0.002582371 -0.6667014 -0.7865345 0.4866234 -0.632457 -0.8109949 -0.002582371 -0.8265085 -0.7865345 0.4866234 -0.8607529 -0.9262576 -0.002582252 0.86093 -0.9507178 0.4866234 0.8951746 -0.9262576 -0.002582252 0.7011227 -0.9507178 0.4866234 0.6668784 -0.8121094 -0.002582252 0.86093 -0.7876492 0.4866234 0.8951746 -0.8121094 -0.002582252 0.7011227 -0.7876492 0.4866234 0.6668784 0.8246209 -0.002582371 0.8609299 0.8001605 0.4866234 0.8951745 0.8246209 -0.002582371 0.7011225 0.8001605 0.4866234 0.6668782 0.9387689 -0.002582371 0.8609299 0.9632291 0.4866234 0.8951745 0.9387689 -0.002582371 0.7011225 0.9632291 0.4866234 0.6668782 0.8284963 -0.00258249 -0.6667015 0.8040422 0.4866234 -0.6324571 0.8284963 -0.00258249 -0.8265087 0.8040422 0.4866234 -0.8607531 0.9426444 -0.00258249 -0.6667015 0.9671108 0.4866234 -0.6324571 0.9426444 -0.00258249 -0.8265087 0.9671108 0.4866234 -0.8607531 1.04111 0.3365489 -0.9633764 1.04111 2.869332 -0.9633765 1.041611 0.3365489 0.9847444 1.041611 2.869332 0.9847443 -1.026496 0.3365491 -0.9623327 -1.026496 2.869332 -0.9623328 -1.025994 0.3365491 0.9857878 -1.025994 2.869332 0.9857878 1.041611 1.509892 0.9847443 -1.025994 1.509892 0.9857878 -0.8191606 0.5614963 -0.6146128 1.041611 0.3453331 0.9847444 -1.025994 0.3453332 0.9857878 1.041611 2.674452 0.9847443 -1.025994 2.674452 0.9857878 0.8339536 0.5571044 -0.6154471 0.8339537 1.726055 -0.6154472 -0.8191606 1.726055 -0.6146129 -0.8191606 1.488609 -0.6146129 0.8339537 2.653168 -0.6154472 0.8339537 1.488609 -0.6154472 -0.8191606 0.3580132 -0.6146128 -0.8191606 2.653168 -0.6146129 0.8438125 0.5358211 0.9848439 -0.8281953 0.5402134 0.9856879 0.8438126 1.704772 0.9848439 -0.8281953 1.704772 0.9856878 0.8438126 1.509892 0.9848439 -0.8281953 1.509892 0.9856878 0.8438125 0.3453332 0.9848439 0.8438126 2.674452 0.9848439 -0.8281953 0.3453332 0.9856879 -0.8281953 2.674452 0.9856878 1.041611 0.3453331 0.9847444 1.041611 0.3365489 0.9847444 -1.025994 0.3453332 0.9857878 -1.025994 0.3365491 0.9857878 1.04111 0.3365489 -0.9633764 -1.026496 0.3365491 -0.9623327 0.8438125 0.3453332 0.9848439 -0.8281953 0.3453332 0.9856879 1.107673 3.016544 -1.026142 1.108207 3.016544 1.047443 -1.092559 3.016544 1.048554 -1.093093 3.016544 -1.025032 1.182302 3.162356 -1.096514 1.182872 3.162356 1.11774 -1.16719 3.162356 1.118926 -1.16776 3.162356 -1.095328 -0.8191606 0.3580132 -0.6146128 0.8339536 0.5571044 -0.6154471 -0.8281953 0.3453332 0.9856879 0.8438125 0.3453332 0.9848439 0.8438125 0.5358211 0.9848439</float_array>
          <technique_common>
            <accessor source="#mesh0_005-mesh-positions-array" count="86" stride="3">
              <param name="X" type="float"/>
              <param name="Y" type="float"/>
              <param name="Z" type="float"/>
            </accessor>
          </technique_common>
        </source>
        <source id="mesh0_005-mesh-normals">
          <float_array id="mesh0_005-mesh-normals-array" count="342">-0.9987524 -0.04993718 0 0 -0.06982904 -0.9975591 0.9987524 -0.04993766 0 0 -0.06982904 0.997559 0 -1 0 0 1 0 -0.9987524 -0.04993724 0 0 -0.06982892 -0.9975591 0.9987524 -0.04993718 0 0 -0.06982946 0.997559 -0.9987524 -0.04993778 0 0 -0.06982892 -0.997559 0.9987524 -0.04993754 0 0 -0.06982946 0.997559 -0.998753 -0.04992508 0 0 -0.06982904 -0.9975591 0.9987518 -0.04994982 0 0 -0.06982904 0.9975591 -5.04809e-4 0 -1 1 0 -2.57312e-4 5.04782e-4 -1.53213e-6 1 5.04753e-4 1.27911e-7 0.9999999 4.64421e-4 -0.3920264 0.9199539 -1 0 2.57863e-4 5.04783e-4 0 0.9999999 5.04862e-4 0 0.9999999 5.04644e-4 0 1 0.002663195 0.9999083 0.01328194 6.71148e-6 0.9999116 0.01329839 6.71221e-6 -0.9999116 0.01329821 0.9999841 0 0.005645513 -0.9999811 0 0.006160557 -0.9999811 3.70424e-7 0.006160557 6.7129e-6 -0.9999116 0.01329857 0.9999842 0 0.005645513 0.04436564 -0.9990154 -1.14164e-5 0 0 1 0.9999811 0 -0.006160557 -0.890131 -0.4557046 2.29348e-4 0.9111452 -0.4120857 -2.34439e-4 -4.64084e-4 -0.3920238 -0.9199551 -0.9111433 -0.41209 2.34912e-4 0 1 0 0.8901352 -0.4556965 -2.29261e-4 -4.54653e-4 -0.4344596 -0.9006912 4.54654e-4 -0.4344612 0.9006905 -0.9987524 -0.04993742 0 0 -0.0698291 -0.997559 0.9987524 -0.0499379 0 0 -0.0698291 0.997559 -0.9987524 -0.04993724 0 0 -0.06982892 -0.997559 0.9987524 -0.04993754 0 0 -0.06982934 0.997559 -0.9987524 -0.04993802 0 0 -0.06982886 -0.997559 0.9987524 -0.04993718 0 0 -0.06982934 0.997559 -0.998753 -0.04992526 0 0 -0.06982916 -0.997559 0.9987518 -0.04995 0 0 -0.06982916 0.997559 -5.04718e-4 0 -0.9999999 1 0 -2.57312e-4 1 2.10181e-7 -2.57312e-4 1 0 -2.57313e-4 1 0 -2.57312e-4 5.03317e-4 0 0.9999999 5.0465e-4 -6.97015e-7 0.9999999 5.05635e-4 0 1 5.04567e-4 1.28549e-7 0.9999999 4.64248e-4 -0.3920252 0.9199544 -1 0 2.57863e-4 -1 0 2.57863e-4 -1 0 2.57863e-4 -1 0 2.57864e-4 5.05921e-4 0 1 5.05097e-4 0 1 5.05635e-4 0 0.9999999 5.03316e-4 0 0.9999999 5.03027e-4 0 0.9999999 5.03435e-4 0 0.9999999 5.04692e-4 0 0.9999999 5.03056e-4 0 0.9999999 5.03545e-4 0 1 5.02403e-4 0 1 5.04679e-4 0 1 5.05098e-4 0 1 5.04726e-4 0 1 5.04783e-4 0 0.9999999 5.04644e-4 0 1 0.002633452 0.9999079 0.01331293 6.71221e-6 0.9999116 0.01329821 6.71148e-6 -0.9999116 0.01329815 0.9999841 -2.43658e-7 0.005645513 -0.9999811 0 0.006160557 -0.9999811 -1.59937e-7 0.006160557 6.71148e-6 -0.9999116 0.01329851 0.9999841 0 0.005645513 5.03797e-4 0 0.9999999 5.04931e-4 0 1 -0.04436665 -0.9990154 1.14352e-5 2.27589e-6 -0.9999898 0.004508972 2.17518e-6 -0.9999899 0.004509091 -3.99915e-6 -0.9999687 -0.007923305 0.1184747 -0.9842802 -0.1309825 -0.8901299 -0.4557071 2.29295e-4 0.9111468 -0.4120822 -2.3476e-4 -4.64338e-4 -0.3920282 -0.9199531 -0.9111419 -0.4120926 2.34859e-4 0 1 -1.83271e-7 0.8901351 -0.4556967 -2.29271e-4 -4.54298e-4 -0.4344583 -0.9006918 4.54799e-4 -0.4344631 0.9006896</float_array>
          <technique_common>
            <accessor source="#mesh0_005-mesh-normals-array" count="114" stride="3">
              <param name="X" type="float"/>
              <param name="Y" type="float"/>
              <param name="Z" type="float"/>
            </accessor>
          </technique_common>
        </source>
        <source id="mesh0_005-mesh-map-0">
          <float_array id="mesh0_005-mesh-map-0-array" count="894">0.6669576 0.6136512 0.7063947 0.6627725 0.6526998 0.6582715 0.6798542 0.6113473 0.7564323 0.6168541 0.7063947 0.6627725 0.6856378 0.5991131 0.7564323 0.5328156 0.7564323 0.6168541 0.6363847 0.5536249 0.6526998 0.6582715 0.6046887 0.6292078 0.7372146 0.9108671 0.6866351 0.8602878 0.7372146 0.8602878 0.6798542 0.6113473 0.6363847 0.5536249 0.6856378 0.5991131 0.7384266 0.7990519 0.7655809 0.7521274 0.7921214 0.8035529 0.7655809 0.7521274 0.8421592 0.7576344 0.7921214 0.8035529 0.7713644 0.7398937 0.8421592 0.673596 0.8421592 0.7576344 0.7221114 0.6944053 0.7384266 0.7990519 0.6904154 0.7699881 0.6225593 0.856813 0.5719798 0.9073925 0.5719798 0.856813 0.7655809 0.7521274 0.7221114 0.6944053 0.7713644 0.7398937 0.8468089 0.6503891 0.8739632 0.6034647 0.9005037 0.6548901 0.9005037 0.6548901 0.8797469 0.5912307 0.9505416 0.6089718 0.8797469 0.5912307 0.9505416 0.5249333 0.9505416 0.6089718 0.8304938 0.5457428 0.8468089 0.6503891 0.7987977 0.6213254 0.6854051 0.9108671 0.6348259 0.8602878 0.6854051 0.8602878 0.8739632 0.6034647 0.8304938 0.5457428 0.8797469 0.5912307 0.6007016 0.7398634 0.5916294 0.80754 0.5542086 0.7581317 0.6155021 0.7460983 0.6657978 0.8186986 0.5916294 0.80754 0.6657978 0.709095 0.5459518 0.6947852 0.5926204 0.6510509 0.5459518 0.6947852 0.6007016 0.7398634 0.5542086 0.7581317 0.7384446 0.8602878 0.7890238 0.9108671 0.7384446 0.9108671 0.6155021 0.7460983 0.6063393 0.7258625 0.6657978 0.709095 0.3365864 0.6767855 0.5305199 0.3138507 0.5305198 0.7123537 0.5305198 0.7123537 0.5179995 0.9805492 0.4431818 0.980549 0.03528815 0.5684809 0.02629828 0.5911108 0.01166117 0.5859484 0.6776708 0.1686342 0.5731663 0.3695151 0.5726711 0.1686342 0.2719578 0.02209413 0.2698697 0.3603596 0.2705329 0.023126 0.3463307 0.3443736 0.2966614 0.04068619 0.3813505 0.02665174 0.04251718 0.6057333 0.05970281 0.5546095 0.05348587 0.6109352 0.09487199 0.5279101 0.0811755 0.4812651 0.1002278 0.5088337 0.8107165 0.3675972 0.7220755 0.1661895 0.8182234 0.1667376 0.07770359 0.5548008 0.08025813 0.6208019 0.07188391 0.6095663 0.04365319 0.5706762 0.04251718 0.6057333 0.03732991 0.5950829 0.07063841 0.5587045 0.05348587 0.6109352 0.05970281 0.5546095 0.677671 0.3695151 0.5707673 0.5084219 0.5731663 0.3695151 0.7220755 0.1661895 0.8256214 0.02785789 0.8182234 0.1667376 0.6776708 0.1686342 0.5702722 0.02972728 0.68007 0.02972728 0.03972887 0.5733574 0.02629828 0.5911108 0.03528815 0.5684809 0.7145689 0.3670492 0.8077327 0.5065017 0.7071707 0.5059285 0.1196818 0.46721 0.09671461 0.4546715 0.3356173 0.3596946 0.1215518 0.701394 0.06810307 0.6967231 0.09471124 0.6917891 0.08962881 0.454321 0.08962911 0.45432 0.09314829 0.46214 0.3356173 0.3596946 0.3365864 0.6767855 0.316731 0.6451979 0.316731 0.6451979 0.1215506 0.7014531 0.1215518 0.701394 0.1206403 0.4386379 0.3463307 0.3443736 0.3356173 0.3596946 0.09471124 0.6917891 0.08501583 0.6546105 0.1090431 0.6643113 0.1041367 0.4906986 0.0811755 0.4812651 0.09096676 0.4702521 0.1090431 0.6643113 0.1002278 0.5088337 0.1041367 0.4906986 0.1082874 0.7320335 0.2842463 0.7210121 0.2849192 0.7307817 0.2705329 0.023126 0.04550296 0.01747351 0.04557543 0.01691162 0.05909228 0.3810412 0.2698697 0.3603596 0.2719578 0.3611611 0.02269715 0.3329378 0.04557543 0.01691162 0.0321992 0.3438606 0.2719578 0.02209413 0.04557543 0.01691162 0.04447484 0.01545035 0.268971 0.3604343 0.04550296 0.01747351 0.2703303 0.02329272 0.05106002 0.3690295 0.268971 0.3604343 0.2698697 0.3603596 0.0321992 0.3438606 0.04550296 0.01747351 0.0422042 0.3560022 0.2705329 0.023126 0.268971 0.3604343 0.2703303 0.02329272 0.5214018 0.5472693 0.521137 0.3462266 0.521137 0.3462266 0.6603048 0.5484173 0.5214018 0.5472693 0.5214018 0.5472693 0.6597747 0.3375428 0.6603048 0.3452404 0.6603048 0.3452404 0.6669576 0.6136512 0.6798542 0.6113473 0.7063947 0.6627725 0.6798542 0.6113473 0.6856378 0.5991131 0.7564323 0.6168541 0.6856378 0.5991131 0.6363847 0.5536249 0.7564323 0.5328156 0.6363847 0.5536249 0.6669576 0.6136512 0.6526998 0.6582715 0.7372146 0.9108671 0.6866351 0.9108671 0.6866351 0.8602878 0.6798542 0.6113473 0.6669576 0.6136512 0.6363847 0.5536249 0.7384266 0.7990519 0.7526845 0.7544316 0.7655809 0.7521274 0.7655809 0.7521274 0.7713644 0.7398937 0.8421592 0.7576344 0.7713644 0.7398937 0.7221114 0.6944053 0.8421592 0.673596 0.7221114 0.6944053 0.7526845 0.7544316 0.7384266 0.7990519 0.6225593 0.856813 0.6225593 0.9073925 0.5719798 0.9073925 0.7655809 0.7521274 0.7526845 0.7544316 0.7221114 0.6944053 0.8468089 0.6503891 0.8610668 0.6057689 0.8739632 0.6034647 0.9005037 0.6548901 0.8739632 0.6034647 0.8797469 0.5912307 0.8797469 0.5912307 0.8304938 0.5457428 0.9505416 0.5249333 0.8304938 0.5457428 0.8610668 0.6057689 0.8468089 0.6503891 0.6854051 0.9108671 0.6348259 0.9108671 0.6348259 0.8602878 0.8739632 0.6034647 0.8610668 0.6057689 0.8304938 0.5457428 0.6007016 0.7398634 0.6155021 0.7460983 0.5916294 0.80754 0.6155021 0.7460983 0.6657978 0.709095 0.6657978 0.8186986 0.6657978 0.709095 0.6063393 0.7258625 0.5459518 0.6947852 0.5459518 0.6947852 0.6063393 0.7258625 0.6007016 0.7398634 0.7384446 0.8602878 0.7890238 0.8602878 0.7890238 0.9108671 0.6155021 0.7460983 0.6007016 0.7398634 0.6063393 0.7258625 0.3365864 0.6767855 0.3463307 0.3443736 0.5305199 0.3138507 0.5305198 0.7123537 0.5305198 0.9805492 0.5179995 0.9805492 0.4431818 0.980549 0.3683642 0.980549 0.3365864 0.6767855 0.3683642 0.980549 0.3677998 0.980549 0.3365864 0.6767855 0.4431818 0.980549 0.3365864 0.6767855 0.5305198 0.7123537 0.02629828 0.5911108 0.01015412 0.5940765 0.01166117 0.5859484 0.01166117 0.5859484 0.02475839 0.5628437 0.03528815 0.5684809 0.02475839 0.5628437 0.02882999 0.5640351 0.03528815 0.5684809 0.6776708 0.1686342 0.677671 0.3695151 0.5731663 0.3695151 0.2719578 0.02209413 0.2719578 0.3611611 0.2698697 0.3603596 0.480212 0.01026916 0.5305199 0.3138507 0.4660397 0.01261746 0.5305199 0.3138507 0.3463307 0.3443736 0.3813505 0.02665174 0.4660397 0.01261746 0.5305199 0.3138507 0.3813505 0.02665174 0.3463307 0.3443736 0.2960239 0.04079174 0.2966614 0.04068619 0.05048835 0.562606 0.03528815 0.5684809 0.02882999 0.5640351 0.02882999 0.5640351 0.03952765 0.5410799 0.05048835 0.562606 0.03952765 0.5410799 0.05970281 0.5546095 0.05048835 0.562606 0.05348587 0.6109352 0.01754969 0.642748 0.04251718 0.6057333 0.01754969 0.642748 0.01015412 0.5940765 0.04251718 0.6057333 0.01015412 0.5940765 0.02629828 0.5911108 0.04251718 0.6057333 0.04251718 0.6057333 0.05048835 0.562606 0.05970281 0.5546095 0.08501583 0.6546105 0.06810307 0.6967231 0.08116286 0.6279164 0.06810307 0.6967231 0.01754969 0.642748 0.08116286 0.6279164 0.01754969 0.642748 0.05348587 0.6109352 0.08116286 0.6279164 0.09487199 0.5279101 0.05970281 0.5546095 0.03952765 0.5410799 0.09487199 0.5279101 0.03952765 0.5410799 0.0811755 0.4812651 0.08501583 0.6546105 0.08116286 0.6279164 0.1002278 0.5088337 0.08116286 0.6279164 0.09487199 0.5279101 0.1002278 0.5088337 0.8107165 0.3675972 0.7145689 0.3670492 0.7220755 0.1661895 0.07770359 0.5548008 0.09487199 0.5279101 0.08025813 0.6208019 0.04365319 0.5706762 0.05048835 0.562606 0.04251718 0.6057333 0.07063841 0.5587045 0.06516271 0.6087656 0.05348587 0.6109352 0.677671 0.3695151 0.68007 0.5084219 0.5707673 0.5084219 0.7220755 0.1661895 0.7250592 0.02728492 0.8256214 0.02785789 0.6776708 0.1686342 0.5726711 0.1686342 0.5702722 0.02972728 0.03972887 0.5733574 0.03474992 0.5908648 0.02629828 0.5911108 0.7145689 0.3670492 0.8107165 0.3675972 0.8077327 0.5065017 0.121553 0.7013347 0.1222379 0.6901084 0.1166868 0.665201 0.1196818 0.46721 0.09859293 0.4669087 0.09671461 0.4546715 0.121553 0.7013347 0.1166868 0.665201 0.316731 0.6451979 0.1166868 0.665201 0.1196818 0.46721 0.3356173 0.3596946 0.3356173 0.3596946 0.316731 0.6451979 0.1166868 0.665201 0.1215518 0.701394 0.1215506 0.7014531 0.06810307 0.6967231 0.08962881 0.454321 0.08962875 0.4543212 0.08962911 0.45432 0.3356173 0.3596946 0.3463307 0.3443736 0.3365864 0.6767855 0.316731 0.6451979 0.3365864 0.6767855 0.1215506 0.7014531 0.1206403 0.4386379 0.08454912 0.4076852 0.3463307 0.3443736 0.09471124 0.6917891 0.06810307 0.6967231 0.08501583 0.6546105 0.1041367 0.4906986 0.1002278 0.5088337 0.0811755 0.4812651 0.1090431 0.6643113 0.08501583 0.6546105 0.1002278 0.5088337 0.2849192 0.9886539 0.1086235 0.9871969 0.2849192 0.7307817 0.1086235 0.9871969 0.1082874 0.7320335 0.2849192 0.7307817 0.2705329 0.023126 0.2703303 0.02329272 0.04550296 0.01747351 0.05909228 0.3810412 0.05106002 0.3690295 0.2698697 0.3603596 0.02269715 0.3329378 0.04447484 0.01545035 0.04557543 0.01691162 0.2719578 0.02209413 0.2705329 0.023126 0.04557543 0.01691162 0.268971 0.3604343 0.0422042 0.3560022 0.04550296 0.01747351 0.05106002 0.3690295 0.0422042 0.3560022 0.268971 0.3604343 0.0321992 0.3438606 0.04557543 0.01691162 0.04550296 0.01747351 0.2705329 0.023126 0.2698697 0.3603596 0.268971 0.3604343 0.5214018 0.5472693 0.5214018 0.5472693 0.521137 0.3462266 0.6603048 0.5484173 0.6603048 0.5484173 0.5214018 0.5472693 0.6597747 0.3375428 0.6597747 0.3375428 0.6603048 0.3452404</float_array>
          <technique_common>
            <accessor source="#mesh0_005-mesh-map-0-array" count="447" stride="2">
              <param name="S" type="float"/>
              <param name="T" type="float"/>
            </accessor>
          </technique_common>
        </source>
        <vertices id="mesh0_005-mesh-vertices">
          <input semantic="POSITION" source="#mesh0_005-mesh-positions"/>
        </vertices>
        <triangles material="matarial0_001-material" count="149">
          <input semantic="VERTEX" source="#mesh0_005-mesh-vertices" offset="0"/>
          <input semantic="NORMAL" source="#mesh0_005-mesh-normals" offset="1"/>
          <input semantic="TEXCOORD" source="#mesh0_005-mesh-map-0" offset="2" set="0"/>
          <p>1 0 0 2 0 1 0 0 2 3 1 3 6 1 4 2 1 5 7 2 6 4 2 7 6 2 8 5 3 9 0 3 10 4 3 11 6 4 12 0 4 13 2 4 14 3 5 15 5 5 16 7 5 17 8 6 18 11 6 19 10 6 20 11 7 21 14 7 22 10 7 23 15 8 24 12 8 25 14 8 26 13 9 27 8 9 28 12 9 29 14 4 30 8 4 31 10 4 32 11 5 33 13 5 34 15 5 35 16 10 36 19 10 37 18 10 38 18 11 39 23 11 40 22 11 41 23 12 42 20 12 43 22 12 44 21 13 45 16 13 46 20 13 47 22 4 48 16 4 49 18 4 50 19 5 51 21 5 52 23 5 53 25 14 54 26 14 55 24 14 56 27 15 57 30 15 58 26 15 59 31 16 60 28 16 61 30 16 62 28 17 63 25 17 64 24 17 65 30 4 66 24 4 67 26 4 68 27 5 69 29 5 70 31 5 71 69 18 72 37 18 73 33 18 74 33 19 75 45 19 76 40 19 77 64 20 78 62 20 79 35 20 80 52 21 81 42 21 82 82 21 83 39 22 84 74 22 85 75 22 86 70 23 87 67 23 88 41 23 89 57 24 90 60 24 91 59 24 92 56 25 93 67 25 94 83 25 95 54 26 96 48 26 97 51 26 98 42 27 99 85 27 100 82 27 101 49 28 102 57 28 103 48 28 104 50 29 105 59 29 106 60 29 107 50 30 108 56 30 109 42 30 110 48 31 111 62 31 112 51 31 113 52 32 114 85 32 115 59 32 116 54 33 117 62 33 118 64 33 119 49 34 120 64 34 121 58 34 122 63 35 123 38 35 124 36 35 125 34 36 126 65 36 127 43 36 128 44 36 129 68 36 130 38 36 131 36 36 132 69 36 133 32 36 134 32 36 135 66 36 136 34 36 137 38 36 138 70 36 139 36 36 140 43 36 141 84 36 142 61 36 143 63 36 144 67 36 145 44 36 146 61 36 147 83 36 148 63 36 149 82 37 150 85 37 151 84 37 152 75 38 153 80 38 154 76 38 155 33 39 156 74 39 157 35 39 158 33 40 159 76 40 160 73 40 161 39 41 162 76 41 163 37 41 164 78 42 165 80 42 166 79 42 167 73 43 168 78 43 169 74 43 170 73 44 171 80 44 172 77 44 173 75 45 174 78 45 175 79 45 176 81 36 177 47 36 178 82 36 179 83 36 180 53 36 181 81 36 182 85 36 183 71 36 184 84 36 185 1 46 186 3 46 187 2 46 188 3 47 189 7 47 190 6 47 191 7 48 192 5 48 193 4 48 194 5 49 195 1 49 196 0 49 197 6 4 198 4 4 199 0 4 200 3 5 201 1 5 202 5 5 203 8 50 204 9 50 205 11 50 206 11 51 207 15 51 208 14 51 209 15 52 210 13 52 211 12 52 212 13 53 213 9 53 214 8 53 215 14 4 216 12 4 217 8 4 218 11 5 219 9 5 220 13 5 221 16 54 222 17 54 223 19 54 224 18 55 225 19 55 226 23 55 227 23 56 228 21 56 229 20 56 230 21 57 231 17 57 232 16 57 233 22 4 234 20 4 235 16 4 236 19 5 237 17 5 238 21 5 239 25 58 240 27 58 241 26 58 242 27 59 243 31 59 244 30 59 245 31 60 246 29 60 247 28 60 248 28 61 249 29 61 250 25 61 251 30 4 252 28 4 253 24 4 254 27 5 255 25 5 256 29 5 257 69 62 258 70 62 259 37 62 260 33 63 261 35 63 262 45 63 263 40 64 264 65 64 265 69 64 266 65 65 267 66 65 268 69 65 269 40 66 270 69 66 271 33 66 272 62 67 273 45 67 274 35 67 275 35 68 276 39 68 277 64 68 278 39 69 279 46 69 280 64 69 281 52 70 282 50 70 283 42 70 284 39 71 285 35 71 286 74 71 287 39 72 288 37 72 289 46 72 290 37 73 291 70 73 292 41 73 293 46 74 294 37 74 295 41 74 296 70 75 297 68 75 298 67 75 299 58 76 300 64 76 301 46 76 302 46 77 303 41 77 304 58 77 305 41 78 306 60 78 307 58 78 308 59 79 309 40 79 310 57 79 311 40 80 312 45 80 313 57 80 314 45 81 315 62 81 316 57 81 317 57 82 318 58 82 319 60 82 320 84 83 321 65 83 322 85 83 323 65 84 324 40 84 325 85 84 326 40 85 327 59 85 328 85 85 329 56 86 330 60 86 331 41 86 332 56 87 333 41 87 334 67 87 335 84 88 336 85 88 337 83 88 338 85 89 339 56 89 340 83 89 341 54 90 342 49 90 343 48 90 344 42 91 345 56 91 346 85 91 347 49 92 348 58 92 349 57 92 350 50 93 351 52 93 352 59 93 353 50 94 354 60 94 355 56 94 356 48 95 357 57 95 358 62 95 359 52 96 360 82 96 361 85 96 362 54 97 363 51 97 364 62 97 365 49 98 366 54 98 367 64 98 368 34 99 369 43 99 370 61 99 371 63 100 372 44 100 373 38 100 374 34 101 375 61 101 376 32 101 377 61 102 378 63 102 379 36 102 380 36 103 381 32 103 382 61 103 383 34 36 384 66 36 385 65 36 386 44 36 387 67 36 388 68 36 389 36 36 390 70 36 391 69 36 392 32 36 393 69 36 394 66 36 395 38 36 396 68 36 397 70 36 398 43 36 399 65 36 400 84 36 401 63 36 402 83 36 403 67 36 404 61 36 405 84 36 406 83 36 407 83 104 408 81 104 409 84 104 410 81 105 411 82 105 412 84 105 413 75 106 414 79 106 415 80 106 416 33 107 417 73 107 418 74 107 419 33 108 420 37 108 421 76 108 422 39 109 423 75 109 424 76 109 425 78 110 426 77 110 427 80 110 428 73 111 429 77 111 430 78 111 431 73 112 432 76 112 433 80 112 434 75 113 435 74 113 436 78 113 437 81 36 438 53 36 439 47 36 440 83 36 441 72 36 442 53 36 443 85 36 444 55 36 445 71 36 446</p>
        </triangles>
      </mesh>
    </geometry>
  </library_geometries>
  <library_visual_scenes>
    <visual_scene id="Scene" name="Scene">
      <node id="Cube_012" name="Cube.012" type="NODE">
        <matrix sid="transform">0 1 0 0 0 0 1 0 1 0 0 0 0 0 0 1</matrix>
        <instance_geometry url="#mesh0_005-mesh" name="Cube.012">
          <bind_material>
            <technique_common>
              <instance_material symbol="matarial0_001-material" target="#matarial0_001-material">
                <bind_vertex_input semantic="mesh0-mesh-map-0" input_semantic="TEXCOORD" input_set="0"/>
              </instance_material>
            </technique_common>
          </bind_material>
        </instance_geometry>
      </node>
    </visual_scene>
  </library_visual_scenes>
  <scene>
    <instance_visual_scene url="#Scene"/>
  </scene>
</COLLADA>