<?xml version="1.0" encoding="utf-8"?>
<COLLADA xmlns="http://www.collada.org/2005/11/COLLADASchema" version="1.4.1" xmlns:xsi="http://www.w3.org/2001/XMLSchema-instance">
  <asset>
    <contributor>
      <author>Blender User</author>
      <authoring_tool>Blender 2.92.0 commit date:2021-02-24, commit time:16:25, hash:02948a2cab44</authoring_tool>
    </contributor>
    <created>2021-06-19T13:26:34</created>
    <modified>2021-06-19T13:26:34</modified>
    <unit name="meter" meter="1"/>
    <up_axis>Z_UP</up_axis>
  </asset>
  <library_effects>
    <effect id="Material_004-effect">
      <profile_COMMON>
        <technique sid="common">
          <lambert>
            <emission>
              <color sid="emission">0 0 0 1</color>
            </emission>
            <diffuse>
              <color sid="diffuse">0.8 0.8 0.8 1</color>
            </diffuse>
            <index_of_refraction>
              <float sid="ior">1.45</float>
            </index_of_refraction>
          </lambert>
        </technique>
      </profile_COMMON>
    </effect>
  </library_effects>
  <library_images/>
  <library_materials>
    <material id="Material_004-material" name="Material.004">
      <instance_effect url="#Material_004-effect"/>
    </material>
  </library_materials>
  <library_geometries>
    <geometry id="mesh0_015-mesh" name="mesh0.015">
      <mesh>
        <source id="mesh0_015-mesh-positions">
          <float_array id="mesh0_015-mesh-positions-array" count="612">-2.081741 1.037431 -1.006728 -2.100022 1.27084 -1.051132 -2.081741 1.037431 1.006729 -2.100022 1.27084 1.051132 2.081741 1.037431 -1.006729 2.100022 1.27084 -1.051132 2.081741 1.037431 1.006728 2.100022 1.27084 1.051132 -2.081741 1.037431 -0.7801952 -1.804084 1.037431 1.006729 2.081741 1.037431 0.7801954 1.804084 1.037431 -1.006729 -2.081741 1.037431 0.780197 1.804084 1.037431 1.006728 2.081741 1.037431 -0.7801967 -1.804084 1.037431 -1.006728 1.804084 1.037431 0.7801955 -1.804084 1.037431 0.7801969 -1.804084 1.037431 -0.7801954 1.804084 1.037431 -0.7801966 -2.100022 1.037431 8.76207e-7 -2.100022 1.037431 -1.051132 -2.100022 1.037431 1.051132 2.100022 1.037431 -6.67591e-7 2.100022 1.037431 1.051132 2.100022 1.037431 -1.051132 -2.081741 0.007321417 -0.7801952 -2.081741 0.007321417 -1.006728 -1.804084 0.007321298 1.006729 -2.081741 0.007321298 1.006729 2.081741 0.007321119 0.7801952 2.081741 0.007321119 1.006728 1.804084 0.007321298 -1.006729 2.081741 0.007321298 -1.006729 -2.081741 0.007321298 0.7801968 1.804084 0.007321119 1.006728 2.081741 0.007321298 -0.7801968 -1.804084 0.007321417 -1.006728 1.804084 0.007321119 0.7801954 -1.804084 0.007321298 0.7801967 -1.804084 0.007321417 -0.7801954 1.804084 0.007321298 -0.7801967 -2.081741 0.007321417 -0.7801952 -2.081741 0.007321417 -1.006728 -1.804084 0.007321298 1.006729 -2.081741 0.007321298 1.006729 1.804084 0.007321298 -1.006729 2.081741 0.007321298 -1.006729 -2.081741 0.007321298 0.7801968 2.081741 0.007321298 -0.7801968 -1.804084 0.007321417 -1.006728 -1.804084 0.007321298 0.7801967 -1.804084 0.007321417 -0.7801954 1.804084 0.007321298 -0.7801967 -0.7145876 1.282083 0.8196147 -0.7145876 1.44359 0.8196147 -0.7145876 1.282083 0.1093556 -0.7145876 1.44359 0.1093556 0.3017607 1.282083 0.8196144 0.3017607 1.44359 0.8196144 0.3017606 1.282083 0.1093555 0.3017606 1.44359 0.1093555 -0.7145876 1.44359 0.4644852 -0.2064135 1.400112 0.1093556 0.3017606 1.44359 0.4644849 -0.2064133 1.400111 0.8196144 -0.2064135 1.400111 0.464485 1.674554 1.578392 -0.6253859 1.622118 1.578392 -0.5727882 1.56952 1.578392 -0.6252244 1.621956 1.578392 -0.6778219 1.622004 1.943109 -0.6468539 1.643586 1.943109 -0.6253382 1.600488 1.943109 -0.6252719 1.62207 1.943109 -0.6037563 1.637261 1.1936 -0.6253286 1.82122 1.436073 -0.6256116 1.90206 1.264619 -0.625736 1.876996 1.343282 -0.6256974 1.62206 1.1936 -0.6100814 1.622343 1.436073 -0.4261217 1.622467 1.264619 -0.3452816 1.622429 1.343282 -0.3703458 1.606813 1.1936 -0.6252818 1.422853 1.436073 -0.6249989 1.342013 1.264619 -0.6248745 1.367077 1.343282 -0.624913 1.622013 1.1936 -0.6405289 1.62173 1.436073 -0.8244886 1.621606 1.264619 -0.9053288 1.621645 1.343282 -0.8802645 1.621982 1.943109 -0.6606231 1.657355 1.943109 -0.6253593 1.586719 1.943109 -0.6252507 1.622091 1.943109 -0.5899871 1.622004 1.976486 -0.6468539 1.643586 1.976486 -0.6253382 1.600488 1.976486 -0.6252719 1.62207 1.976486 -0.6037563 -2.100022 1.041517 1.051132 -1.73816 1.258655 -0.6142662 -1.73816 1.997133 -0.4765483 -1.635654 1.258655 -0.5718216 -1.733069 1.997133 -0.4744402 -1.593195 1.258655 -0.4693511 -1.730961 1.997133 -0.4693509 -1.635654 1.258655 -0.3668805 -1.733069 1.997133 -0.4642617 -1.73816 1.258655 -0.324436 -1.73816 1.997133 -0.4621536 -1.840666 1.258655 -0.3668805 -1.743252 1.997133 -0.4642617 -1.883126 1.258655 -0.4693509 -1.74536 1.997133 -0.4693509 -1.840666 1.258655 -0.5718215 -1.743252 1.997133 -0.4744402 -1.635654 1.982081 -0.5718216 -1.73816 1.982081 -0.6142662 -1.593195 1.982081 -0.4693511 -1.635654 1.982081 -0.3668805 -1.73816 1.982081 -0.324436 -1.840666 1.982081 -0.3668805 -1.883126 1.982081 -0.4693509 -1.840666 1.982081 -0.5718215 -1.656181 1.997132 -0.551302 -1.73816 1.997132 -0.5852469 -1.622224 1.997132 -0.4693511 -1.656181 1.997132 -0.3874002 -1.73816 1.997132 -0.353455 -1.82014 1.997132 -0.3874002 -1.854096 1.997132 -0.4693509 -1.82014 1.997132 -0.5513018 -1.733069 2.214909 -0.4744402 -1.73816 2.214909 -0.4765483 -1.730961 2.214909 -0.4693509 -1.733069 2.214909 -0.4642617 -1.73816 2.214909 -0.4621536 -1.743252 2.214909 -0.4642617 -1.74536 2.214909 -0.4693509 -1.743252 2.214909 -0.4744402 -1.742405 2.092777 -0.4744402 -1.740296 2.092777 -0.4693509 -1.754696 2.092777 -0.4693509 -1.752587 2.092777 -0.4744402 -1.747496 2.092777 -0.4621536 -1.752587 2.092777 -0.4642617 -1.742405 2.092777 -0.4642617 -1.747496 2.092777 -0.4765483 -1.697327 1.254401 -0.145096 -1.591581 1.895703 -0.08922982 -1.623154 1.254401 -0.2065864 -1.587897 1.895703 -0.09228378 -1.527249 1.254401 -0.1976208 -1.583134 1.895703 -0.09183847 -1.465791 1.254401 -0.1234509 -1.580082 1.895703 -0.08815479 -1.474783 1.254401 -0.02752453 -1.580528 1.895703 -0.08339047 -1.548956 1.254401 0.03396576 -1.584212 1.895703 -0.08033651 -1.644861 1.254401 0.02500003 -1.588975 1.895703 -0.08078181 -1.706318 1.254401 -0.0491696 -1.592028 1.895703 -0.0844655 -1.623154 1.882632 -0.2065864 -1.697327 1.882632 -0.145096 -1.527249 1.882632 -0.1976208 -1.465791 1.882632 -0.1234509 -1.474783 1.882632 -0.02752453 -1.548956 1.882632 0.03396576 -1.644861 1.882632 0.02500003 -1.706318 1.882632 -0.0491696 -1.615725 1.895703 -0.1825013 -1.675045 1.895703 -0.1333241 -1.539025 1.895703 -0.1753309 -1.489874 1.895703 -0.1160135 -1.497065 1.895703 -0.03929632 -1.556385 1.895703 0.009880542 -1.633085 1.895703 0.002710223 -1.682235 1.895703 -0.056607 -1.587897 2.084822 -0.09228378 -1.591581 2.084822 -0.08922982 -1.583134 2.084822 -0.09183847 -1.580082 2.084822 -0.08815479 -1.580528 2.084822 -0.08339047 -1.584212 2.084822 -0.08033651 -1.588975 2.084822 -0.08078181 -1.592028 2.084822 -0.0844655 -1.591684 1.978761 -0.08511567 -1.586921 1.978761 -0.08467042 -1.592762 1.978761 -0.0736137 -1.595815 1.978761 -0.07729744 -1.584315 1.978761 -0.07622241 -1.587999 1.978761 -0.07316839 -1.583869 1.978761 -0.08098667 -1.595368 1.978761 -0.0820617 1.037563 1.268791 -0.3247946 1.037563 1.445887 -0.3247946 0.5504549 1.268791 -0.06278604 0.5504549 1.445887 -0.06278604 0.7006593 1.268791 -0.951144 0.7006593 1.445887 -0.951144 0.2135507 1.268791 -0.6891356 0.2135507 1.445887 -0.6891356</float_array>
          <technique_common>
            <accessor source="#mesh0_015-mesh-positions-array" count="204" stride="3">
              <param name="X" type="float"/>
              <param name="Y" type="float"/>
              <param name="Z" type="float"/>
            </accessor>
          </technique_common>
        </source>
        <source id="mesh0_015-mesh-normals">
          <float_array id="mesh0_015-mesh-normals-array" count="804">0 -1 0 1.21601e-7 0 1 1 0 0 -1.21601e-7 0 -1 0 1 0 -1 2.55427e-7 0 0 2.3145e-7 -1 -8.33581e-7 0 -1 0 0 1 4.16791e-7 0 1 -1 0 0 0 0 -1 0 0 1 8.33581e-7 0 1 -4.16791e-7 0 -1 0 -1 2.75149e-7 0 -1 1.21566e-7 0 0 1 0 0 -1 -8.33581e-7 1.73587e-7 -1 0 -1 -9.58815e-7 0 -1 -4.83458e-6 0 -1 -2.41724e-6 0 -1 0 0 -1 0 0 -1 4.83458e-6 0 -1 2.97626e-6 0 -1 2.41724e-6 8.33581e-7 0 1 4.16791e-7 0 1 -1 0 0 -8.33581e-7 0 -1 4.1679e-7 0 1 -1.25037e-6 1.73587e-7 -1 1 0 0 1 0 0 -1 0 1.67839e-7 -2.72338e-7 0 -1 1 0 -3.35678e-7 3.63117e-7 0 1 0 -1 -4.48835e-7 0.08524775 0.9963599 0 -0.08524775 0.9963598 0 -0.08524566 0.9963601 4.75052e-7 0.08524566 0.9963601 1.77705e-6 -1 5.19604e-7 0 -1.86329e-7 4.10312e-7 -1 0 0 -1 1 5.19604e-7 -2.09799e-7 1 0 0 1.24221e-7 1.01001e-6 1 0 -1 3.30279e-7 0.08524769 0.9963599 0 -0.08524769 0.9963599 6.58154e-7 -0.08524769 0.9963598 1.97446e-6 0.08524775 0.9963599 6.58153e-7 0.5705927 0.5889303 -0.5723506 0.705622 0.03332716 -0.7078043 -0.5705925 0.5889314 0.5723496 -0.5723502 0.5889319 -0.5705915 -0.7060145 0 0.7081974 0.707802 0.03332692 0.7056244 -0.7078009 0.03332549 -0.7056255 -0.7056242 0.03332668 0.7078021 0.6517629 0.3911713 0.6497617 0.6908766 0.2197918 0.6887534 -0.6497625 0.3911688 0.6517635 -0.688753 0.2198011 0.690874 -0.6517626 0.3911696 -0.6497631 -0.6908742 0.2197936 -0.6887552 0.6497601 0.3911728 -0.6517635 0.6887556 0.2197902 -0.6908748 0 -1 -3.80067e-7 0.5723516 0.5889292 0.5705928 0 1 -5.15e-6 0 1 1.25555e-5 0 1 -1.25553e-5 0.7060164 0 -0.7081955 0.7081882 0 0.7060237 -0.7081882 0 -0.7060237 0.5705912 0.5889254 -0.5723572 0.7056218 0.03332716 -0.7078046 -0.5705893 0.5889336 0.5723506 -0.5723495 0.5889314 -0.5705926 -0.7060201 0 0.7081919 0.7077969 0.03332585 0.7056295 -0.7078075 0.0333271 -0.7056189 -0.7056289 0.03332489 0.7077975 0.6517648 0.391167 0.6497623 0.690876 0.2197902 0.6887545 -0.6497607 0.3911694 0.6517649 -0.6887533 0.219791 0.6908769 -0.6517661 0.391165 -0.6497622 -0.6908745 0.2197988 -0.6887533 0.6497616 0.3911718 -0.6517627 0.6887529 0.2197938 -0.6908764 0 -1 3.80067e-7 0.5723523 0.5889263 0.570595 0 1 1.25556e-5 0.7060219 0 -0.7081901 0.7081863 0 0.7060256 -0.7081901 0 -0.7060219 0.3825694 0 -0.9239268 0.9238339 0 -0.3827938 0.9238339 0 0.3827938 0.38257 0 0.9239265 -0.3825695 0 0.9239267 0.9215866 -0.07043856 -0.3817284 -0.9238302 0 0.3828027 -0.9238305 0 -0.3828022 0.1872694 0.8719987 -0.4522705 0.4521361 0.8720519 -0.187346 0.4521434 0.8720478 0.1873472 0.1872715 0.8720045 0.4522585 -0.1872711 0.8719984 0.4522703 -0.4521517 0.872043 0.1873501 -0.4521258 0.8720576 -0.1873444 9.86663e-6 1 0 -0.1872744 0.8719966 -0.4522722 -9.86686e-6 1 -5.01666e-6 -0.9215942 0.07043993 -0.3817099 -0.3824145 0.02923011 0.9235284 0.921529 -0.0704416 0.3818671 0.3824151 -0.02923208 -0.9235281 -0.3823451 0.02922755 -0.9235572 -0.9215227 0.07044303 0.3818819 0.382418 -0.02923232 0.9235269 0.3823118 0.03731799 0.9232797 -0.9200814 -0.08981186 0.3812929 -0.3822494 -0.03731191 -0.9233056 0.3823118 0.03731799 -0.9232797 0.9200915 0.08980929 0.3812689 -0.3823192 -0.03731518 0.9232766 -0.9201541 -0.08980762 -0.3811181 0.9201489 0.08980572 -0.3811313 -0.3825705 0 -0.9239264 -0.6382204 0 -0.7698538 0.09307861 0 -0.9956588 0.770006 0 -0.6380367 0.9956354 0 0.09332889 0.6382188 0 0.7698552 0.09285694 -0.07044196 -0.9931846 -0.09307968 0 0.9956588 -0.7700105 0 0.6380313 -0.3124218 0.8719953 -0.3768514 0.04555594 0.8720465 -0.4872983 0.3768634 0.87204 -0.3122823 0.4873862 0.8719906 0.04568499 0.312422 0.8719944 0.3768534 -0.04555588 0.8720456 0.4872998 -0.3768673 0.872039 0.3122804 -0.4873763 0.8719965 -0.04567974 -0.7680205 0.07043898 0.6365398 0.6379347 0.02922993 0.7695356 0.768136 -0.0704351 -0.6364007 -0.6379272 -0.02923011 -0.7695418 -0.9952015 0.02922302 -0.09338092 -0.09285461 0.07044291 0.9931847 0.9952221 -0.0292313 0.0931583 0.9949542 0.03731924 0.09313189 -0.0927118 -0.08981037 0.9916344 -0.9949337 -0.03730624 -0.09335464 -0.6377548 0.03731536 -0.7693351 0.7669376 0.08980429 -0.6354071 0.6377642 -0.03731513 0.7693272 -0.7668194 -0.089809 0.6355488 0.09271335 0.08980917 -0.9916343 -0.9956364 0 -0.09331917 0.4737069 0 0.8806826 -0.8806831 0 0.4737058 -0.4737063 0 -0.8806829 0.8806834 0 -0.4737055 0 1 -1.51522e-7 0 -1 -2.43133e-7 0 -1 -1.37574e-7 0.38257 0 -0.9239265 0.9238339 0 -0.3827939 0.9238339 0 0.3827939 0.3825691 0 0.923927 -0.3825705 0 0.9239264 0.9215255 -0.07044577 -0.3818747 -0.9238303 0 0.3828022 -0.9238306 0 -0.3828017 0.1872712 0.8720045 -0.4522585 0.4521399 0.8720499 -0.1873459 0.4521345 0.8720529 0.1873456 0.1872729 0.8719958 0.4522746 -0.1872729 0.8719979 0.4522706 -0.4521217 0.87206 0.187343 -0.4521551 0.8720408 -0.1873514 -9.8669e-6 1 0 -9.86696e-6 1 6.68894e-6 -4.08695e-6 1 1.04513e-5 4.08699e-6 1 1.33777e-5 9.86687e-6 1 6.68887e-6 4.08678e-6 1 0 9.86685e-6 1 -6.68885e-6 4.08695e-6 1 -1.33777e-5 -4.08692e-6 1 -1.00332e-5 -4.0867e-6 1 -1.00965e-5 -4.08634e-6 1 1.00958e-5 4.08693e-6 1 2.69268e-5 9.86683e-6 1 -2.35614e-5 -0.1872683 0.8720012 -0.452266 -9.86869e-6 1 0 0 1 8.67528e-5 0 1 -8.67566e-5 0 1 -4.33839e-5 -0.9215193 0.07044446 -0.3818897 -0.3823546 0.02922743 0.9235534 0.9215896 -0.07044261 0.3817205 0.3824086 -0.02923244 -0.9235308 -0.3824239 0.02922999 -0.9235245 -0.9215974 0.0704413 0.3817021 0.3824057 -0.0292322 0.923532 -0.9201582 -0.08980876 0.3811082 -0.3823192 -0.03731518 -0.9232766 0.9201504 0.08981156 0.3811261 -0.3822494 -0.03731191 0.9233056 -0.9200791 -0.08981299 -0.3812978 0.9200869 0.08981513 -0.3812787 -0.3825711 0 -0.9239261 -0.63822 0 -0.7698541 0.09307962 0 -0.9956587 0.7700064 0 -0.6380363 0.9956353 0 0.09332895 0.6382186 0 0.7698553 0.09284371 -0.07043933 -0.9931859 -0.09307956 0 0.9956588 0 -1 -2.66034e-6 0 -1 2.66032e-6 -0.3124239 0.871987 -0.3768688 0.04555571 0.872041 -0.4873082 0.376863 0.8720479 -0.3122611 0.4873844 0.8719916 0.04568606 0.31242 0.87199 0.3768652 -0.045556 0.8720408 0.4873085 -0.3768629 0.8720502 0.3122544 0 1 1.10869e-6 0 1 -4.43477e-6 0 1 -2.21737e-6 0 1 7.14094e-5 0 1 -2.21739e-6 0 1 -6.41533e-6 0 1 4.46302e-6 0 1 1.33904e-5 -0.4873925 0.8719875 -0.04567962 0 1 -5.75407e-5 -0.7680369 0.07044464 0.6365193 0.637939 0.0292288 0.769532 0.7681164 -0.07043528 -0.6364246 -0.6379281 -0.02923017 -0.769541 -0.9952039 0.02922707 -0.0933547 -0.09285461 0.0704388 0.993185 0.9952195 -0.02924007 0.09318339 0.9949516 0.03732573 0.09315747 -0.09271121 -0.08980709 0.9916347 -0.9949359 -0.03731155 -0.09333038 -0.6377559 0.03731542 -0.7693341 0.7669177 0.08980208 -0.6354314 0.6377674 -0.03731614 0.7693247 -0.7668388 -0.08981192 0.6355252 0.09269797 0.08980816 -0.9916359 -0.9956364 0 -0.09331917 0.4737064 0 0.8806828 -0.8806828 0 0.4737066 -0.4737062 0 -0.880683 0.8806832 0 -0.473706</float_array>
          <technique_common>
            <accessor source="#mesh0_015-mesh-normals-array" count="268" stride="3">
              <param name="X" type="float"/>
              <param name="Y" type="float"/>
              <param name="Z" type="float"/>
            </accessor>
          </technique_common>
        </source>
        <source id="mesh0_015-mesh-map-0">
          <float_array id="mesh0_015-mesh-map-0-array" count="2208">0.5092443 0.3178868 0.4773169 0.3235707 0.4773747 0.3178918 0.3228132 0.9882678 0.3115872 0.9882678 0.3115871 0.7862632 0.5413401 0.1061313 0.5662346 0.2182407 0.5662346 0.3303505 0.4719149 0.3239085 0.4690482 0.267294 0.4721935 0.2673094 0.5782673 0.4712173 0.5224451 0.4724396 0.5252766 0.4840928 0.006538093 0.5300802 0.2373421 0.9952734 0.004906058 0.9944565 0.2578425 0.7109494 0.3092446 0.7222806 0.3092502 0.7109754 0.2578495 0.6970929 0.3092502 0.7109754 0.3092573 0.6971189 0.5112617 0.3569779 0.4938005 0.4086683 0.5079723 0.409555 0.4773169 0.3235707 0.4719149 0.3239085 0.4928653 0.3240114 0.5091838 0.3238935 0.5150234 0.3243784 0.5140346 0.3239628 0.5092338 0.2425193 0.5150234 0.2421004 0.4930694 0.2422298 0.4718801 0.2487799 0.4773747 0.3178918 0.4730242 0.3179228 0.5209472 0.364647 0.5325746 0.3584173 0.5330149 0.3584656 0.5776532 0.4473227 0.5648354 0.4546666 0.5646235 0.454529 0.5646235 0.454529 0.5653455 0.4652836 0.5651358 0.4654861 0.5444169 0.3584675 0.5581528 0.4094278 0.5444169 0.4094278 0.5776532 0.4473227 0.5205348 0.4294832 0.5199207 0.4450445 0.5209472 0.364647 0.5079723 0.409555 0.5191251 0.4099965 0.4970899 0.3560913 0.4822382 0.407945 0.4938005 0.4086683 0.5651358 0.4654861 0.5200073 0.4571659 0.5224451 0.4724396 0.5646235 0.454529 0.5199207 0.4450445 0.5200073 0.4571659 0.5330149 0.3584656 0.5191251 0.4099965 0.5330149 0.4099965 0.5332102 0.3584675 0.5444169 0.4094278 0.5332102 0.4094278 0.2577875 0.7220296 0.3092539 0.7361539 0.3092446 0.7222806 0.5693596 0.3584675 0.5830954 0.4094278 0.5693596 0.4094278 0.5581528 0.3584675 0.5693596 0.4094278 0.5581528 0.4094278 0.2577296 0.7361691 0.3092573 0.7474846 0.3092539 0.7361539 0.2577296 0.7361691 0.2575359 0.7220302 0.2577875 0.7220296 0.2490687 0.7077227 0.2469168 0.7156577 0.2467224 0.7157617 0.5240322 0.3472607 0.5117142 0.3569769 0.5112617 0.3569779 0.2578425 0.7109494 0.2491974 0.7079455 0.2490687 0.7077227 0.2577875 0.7220296 0.2576454 0.7110981 0.2578425 0.7109494 0.5651358 0.4654861 0.577741 0.4707037 0.5782673 0.4712173 0.5782673 0.4712173 0.5772745 0.4479258 0.5776532 0.4473227 0.5112617 0.3569779 0.5209396 0.3643393 0.5209472 0.364647 0.5330149 0.3584656 0.5240351 0.3476888 0.5240322 0.3472607 0.4928653 0.3240114 0.5092443 0.3178868 0.5091838 0.3238935 0.4765476 0.2486091 0.4930694 0.2422298 0.5092338 0.2425193 0.3115871 0.7862632 0.3228131 0.7862632 0.3228132 0.9882678 0.4719149 0.3239085 0.4687695 0.323893 0.4690482 0.267294 0.5782673 0.4712173 0.5651358 0.4654861 0.5224451 0.4724396 0.006538093 0.5300802 0.238974 0.530897 0.2373421 0.9952734 0.2578425 0.7109494 0.2577875 0.7220296 0.3092446 0.7222806 0.2578495 0.6970929 0.2578425 0.7109494 0.3092502 0.7109754 0.5112617 0.3569779 0.4970899 0.3560913 0.4938005 0.4086683 0.4773169 0.3235707 0.4728017 0.3235485 0.4719149 0.3239085 0.5091838 0.3238935 0.4928653 0.3240114 0.5150234 0.3243784 0.5150234 0.2421004 0.5150234 0.3243784 0.5139121 0.3177605 0.5150234 0.3243784 0.5140346 0.3239628 0.5139121 0.3177605 0.5139088 0.2486551 0.5140436 0.2425014 0.5150234 0.2421004 0.5092417 0.2485126 0.4765476 0.2486091 0.5092338 0.2425193 0.5139088 0.2486551 0.5150234 0.2421004 0.5139121 0.3177605 0.5092417 0.2485126 0.5139088 0.2486551 0.5139121 0.3177605 0.5092417 0.2485126 0.5139121 0.3177605 0.5092443 0.3178868 0.5092417 0.2485126 0.5092443 0.3178868 0.4765476 0.2486091 0.2891567 0.9910948 0.3003625 0.988511 0.3115888 0.9884637 0.4765476 0.2486091 0.5092443 0.3178868 0.4773747 0.3178918 0.5662346 0.3303505 0.5413401 0.3303505 0.5413401 0.1061313 0.470646 0.2421556 0.4716492 0.2425615 0.4718801 0.2487799 0.4718801 0.2487799 0.4765476 0.2486091 0.4773747 0.3178918 0.4719149 0.3239085 0.4721935 0.2673094 0.4728289 0.3180142 0.470646 0.2421556 0.4718801 0.2487799 0.4730242 0.3179228 0.4728289 0.3180142 0.4728017 0.3235485 0.4719149 0.3239085 0.5209472 0.364647 0.5209396 0.3643393 0.5325746 0.3584173 0.5776532 0.4473227 0.5772745 0.4479258 0.5648354 0.4546666 0.5646235 0.454529 0.5648354 0.4546666 0.5653455 0.4652836 0.5444169 0.3584675 0.5581528 0.3584675 0.5581528 0.4094278 0.5776532 0.4473227 0.5782673 0.4317614 0.5205348 0.4294832 0.5209472 0.364647 0.5112617 0.3569779 0.5079723 0.409555 0.4970899 0.3560913 0.4855276 0.3553679 0.4822382 0.407945 0.5651358 0.4654861 0.5646235 0.454529 0.5200073 0.4571659 0.5646235 0.454529 0.5776532 0.4473227 0.5199207 0.4450445 0.5330149 0.3584656 0.5209472 0.364647 0.5191251 0.4099965 0.5332102 0.3584675 0.5444169 0.3584675 0.5444169 0.4094278 0.2577875 0.7220296 0.2577296 0.7361691 0.3092539 0.7361539 0.5693596 0.3584675 0.5830954 0.3584674 0.5830954 0.4094278 0.5581528 0.3584675 0.5693596 0.3584675 0.5693596 0.4094278 0.2577296 0.7361691 0.2577329 0.7474998 0.3092573 0.7474846 0.2467224 0.7157617 0.2469168 0.7156577 0.2575359 0.7220302 0.2490687 0.7077227 0.2491974 0.7079455 0.2469168 0.7156577 0.5240322 0.3472607 0.5240351 0.3476888 0.5117142 0.3569769 0.2578425 0.7109494 0.2576454 0.7110981 0.2491974 0.7079455 0.2577875 0.7220296 0.2575359 0.7220302 0.2576454 0.7110981 0.5651358 0.4654861 0.5653455 0.4652836 0.577741 0.4707037 0.5782673 0.4712173 0.577741 0.4707037 0.5772745 0.4479258 0.5112617 0.3569779 0.5117142 0.3569769 0.5209396 0.3643393 0.5330149 0.3584656 0.5325746 0.3584173 0.5240351 0.3476888 0.4531223 0.04394698 0.3802168 0.04394698 0.3802168 0.01079094 0.2758925 0.0350213 0.171568 0.04394698 0.171568 0.01079082 0.09866261 0.04394698 0.02575701 0.04394698 0.02575701 0.01079082 0.6303519 0.03502106 0.5260276 0.04394698 0.5260276 0.01079082 0.4590745 0.1108895 0.5348279 0.2192892 0.4590745 0.2192892 0.9949222 0.7638041 0.66642 0.992537 0.66642 0.7638041 0.66642 0.7638041 0.3379178 0.9925367 0.337918 0.7638041 0.66642 0.5350714 0.337918 0.7638041 0.337918 0.5350713 0.9949222 0.5350713 0.66642 0.7638041 0.66642 0.5350714 0.3802168 0.01079094 0.5260276 0.01079082 0.4531223 0.04394698 0.5260276 0.01079082 0.5260276 0.04394698 0.4531223 0.04394698 0.171568 0.01079082 0.3802168 0.01079094 0.2758925 0.0350213 0.3802168 0.01079094 0.3802168 0.04394698 0.2758925 0.0350213 0.02575701 0.01079082 0.171568 0.01079082 0.09866261 0.04394698 0.171568 0.01079082 0.171568 0.04394698 0.09866261 0.04394698 0.5260276 0.01079082 0.7346759 0.01079082 0.6303519 0.03502106 0.7346759 0.01079082 0.7346759 0.04394686 0.6303519 0.03502106 0.4590745 0.1108895 0.5348279 0.1108895 0.5348279 0.2192892 0.9949222 0.7638041 0.9949222 0.992537 0.66642 0.992537 0.66642 0.7638041 0.66642 0.992537 0.3379178 0.9925367 0.66642 0.5350714 0.66642 0.7638041 0.337918 0.7638041 0.9949222 0.5350713 0.9949222 0.7638041 0.66642 0.7638041 0.2271379 0.1912603 0.09851092 0.2514676 0.1449355 0.1070404 0.2271379 0.1912603 0.3936474 0.1328098 0.2241507 0.2353911 0.1413987 0.3662521 0.2865566 0.308431 0.2461804 0.4307002 0.2461804 0.4307002 0.3318554 0.3142554 0.3989871 0.4130932 0.2328042 0.1159585 0.2232516 0.1255112 0.2232518 0.1159585 0.2515828 0.0871635 0.2367734 0.07364183 0.2515828 0.07364183 0.2241507 0.2353911 0.4058703 0.150764 0.2400094 0.2839803 0.2865566 0.308431 0.4365693 0.1813352 0.3318554 0.3142554 0.2400094 0.2839803 0.4205938 0.1673586 0.2865566 0.308431 0.09851092 0.2514676 0.103527 0.3974133 0.04716295 0.2518079 0.103527 0.3974133 0.005866289 0.2540366 0.04716295 0.2518079 0.2461804 0.4307002 0.103527 0.3974133 0.1413987 0.3662521 0.103527 0.3974133 0.2255514 0.5217208 0.07450085 0.4212435 0.2461804 0.4307002 0.4249357 0.4673579 0.2358488 0.4813715 0.2358488 0.4813715 0.4371892 0.5116271 0.2255514 0.5217208 0.09851092 0.2514676 0.09736424 0.07131952 0.1449355 0.1070404 0.04716295 0.2518079 0.0568341 0.05082738 0.09736424 0.07131952 0.2982231 0.7709372 0.2559859 0.8131744 0.2559859 0.7709371 0.2241507 0.2353911 0.1413987 0.3662521 0.09851092 0.2514676 0.4221006 0.1421449 0.4371892 0.1526347 0.4310837 0.1522701 0.4310837 0.1522701 0.4205938 0.1673586 0.4209586 0.1612536 0.4119753 0.1511287 0.4205938 0.1673586 0.4058703 0.150764 0.4119753 0.1511287 0.4224647 0.1360402 0.4221006 0.1421449 0.2232516 0.07364183 0.2367732 0.08716344 0.2232516 0.08716356 0.2515828 0.1142067 0.2367734 0.1006851 0.2515828 0.1006851 0.2515828 0.1006851 0.2367732 0.08716344 0.2515828 0.0871635 0.2515828 0.07364183 0.2367734 0.06012022 0.2515828 0.06011992 0.2271379 0.1912603 0.2241507 0.2353911 0.09851092 0.2514676 0.2271379 0.1912603 0.3821026 0.111984 0.3936474 0.1328098 0.1413987 0.3662521 0.2400094 0.2839803 0.2865566 0.308431 0.2461804 0.4307002 0.2865566 0.308431 0.3318554 0.3142554 0.2328042 0.1159585 0.2328042 0.1255112 0.2232516 0.1255112 0.2515828 0.0871635 0.2367732 0.08716344 0.2367734 0.07364183 0.2241507 0.2353911 0.3936474 0.1328098 0.4058703 0.150764 0.2865566 0.308431 0.4205938 0.1673586 0.4365693 0.1813352 0.2400094 0.2839803 0.4058703 0.150764 0.4205938 0.1673586 0.09851092 0.2514676 0.1413987 0.3662521 0.103527 0.3974133 0.103527 0.3974133 0.07450085 0.4212435 0.005866289 0.2540366 0.2461804 0.4307002 0.2358488 0.4813715 0.103527 0.3974133 0.103527 0.3974133 0.2358488 0.4813715 0.2255514 0.5217208 0.2461804 0.4307002 0.3989871 0.4130932 0.4249357 0.4673579 0.2358488 0.4813715 0.4249357 0.4673579 0.4371892 0.5116271 0.09851092 0.2514676 0.04716295 0.2518079 0.09736424 0.07131952 0.04716295 0.2518079 0.005866289 0.2540366 0.0568341 0.05082738 0.2982231 0.7709372 0.2982231 0.8131744 0.2559859 0.8131744 0.2241507 0.2353911 0.2400094 0.2839803 0.1413987 0.3662521 0.4221006 0.1421449 0.4224647 0.1360402 0.4371892 0.1526347 0.4310837 0.1522701 0.4371892 0.1526347 0.4205938 0.1673586 0.4119753 0.1511287 0.4209586 0.1612536 0.4205938 0.1673586 0.4119753 0.1511287 0.4058703 0.150764 0.4224647 0.1360402 0.2232516 0.07364183 0.2367734 0.07364183 0.2367732 0.08716344 0.2515828 0.1142067 0.2367734 0.1142066 0.2367734 0.1006851 0.2515828 0.1006851 0.2367734 0.1006851 0.2367732 0.08716344 0.2515828 0.07364183 0.2367734 0.07364183 0.2367734 0.06012022 0.4765396 0.2425673 0.470646 0.2421556 0.4716492 0.2425615 0.2891567 0.9910948 0.3115888 0.9884637 0.3116086 0.9909129 0.8079475 0.1890984 0.9755635 0.1633925 0.9755635 0.1890985 0.8079477 0.1633924 0.9755635 0.1376928 0.9755635 0.1633925 0.8079477 0.1376927 0.9755635 0.1119931 0.9755635 0.1376928 0.8079477 0.1119931 0.9755635 0.0862872 0.9755635 0.1119931 0.8079477 0.0862872 0.9755637 0.06058108 0.9755635 0.0862872 0.7844972 0.1773681 0.7812515 0.1248695 0.783565 0.1247618 0.8079475 0.06058108 0.9755635 0.03488159 0.9755637 0.06058108 0.8079475 0.2405039 0.9755635 0.2148044 0.9755634 0.2405041 0.6863902 0.4793069 0.6954927 0.4702044 0.7083657 0.4702075 0.752103 0.0860567 0.7427616 0.06409007 0.7501292 0.06618291 0.7672207 0.09907633 0.7454346 0.08961957 0.752103 0.0860567 0.7672207 0.09907633 0.7902507 0.10488 0.7648097 0.106157 0.7871422 0.09798824 0.8079477 0.0862872 0.7902507 0.10488 0.8009064 0.06339257 0.8079477 0.0862872 0.8008341 0.08344912 0.7869365 0.04835587 0.8079475 0.06058108 0.8009064 0.06339257 0.7825592 0.04685682 0.758449 0.04372411 0.7838997 0.03936356 0.7753397 0.07523298 0.7766337 0.07515001 0.7672207 0.09907633 0.7623128 0.05024868 0.7427616 0.06409007 0.758449 0.04372411 0.7763407 0.07189726 0.7623128 0.05024868 0.7825592 0.04685682 0.7819716 0.1207894 0.7859435 0.1191948 0.7875365 0.1231669 0.7774354 0.1774369 0.7741852 0.125387 0.7765773 0.1252766 0.7704434 0.1775839 0.7717906 0.1253616 0.7727801 0.1775196 0.7844972 0.1773681 0.7858809 0.1247871 0.7868664 0.1773166 0.7821275 0.1774004 0.7789307 0.1250718 0.7812515 0.1248695 0.7797729 0.1774187 0.7765773 0.1252766 0.7789307 0.1250718 0.7727801 0.1775196 0.7741852 0.125387 0.7751075 0.1774688 0.768089 0.1776487 0.7694317 0.1252406 0.7704434 0.1775839 0.7710835 0.2187102 0.768089 0.1776487 0.7704434 0.1775839 0.7758336 0.2183313 0.7727801 0.1775196 0.7751075 0.1774688 0.7782323 0.218375 0.7797729 0.1774187 0.7805939 0.2185403 0.7805939 0.2185403 0.7821275 0.1774004 0.7829235 0.2187037 0.7875624 0.2186197 0.7844972 0.1773681 0.7868664 0.1773166 0.7734379 0.2184607 0.7704434 0.1775839 0.7727801 0.1775196 0.7758336 0.2183313 0.7774354 0.1774369 0.7782323 0.218375 0.7829235 0.2187037 0.7844972 0.1773681 0.7852446 0.2187466 0.8079475 0.2148042 0.9755635 0.1890985 0.9755635 0.2148044 0.7829852 0.4345685 0.9788177 0.4045352 0.9788177 0.4345685 0.7829852 0.4045352 0.9788177 0.3745093 0.9788177 0.4045352 0.7829851 0.3745093 0.9788177 0.3444833 0.9788177 0.3745093 0.7829851 0.3444833 0.9788177 0.3144501 0.9788177 0.3444833 0.7829852 0.31445 0.9788177 0.2844168 0.9788177 0.3144501 0.7383084 0.4333357 0.7430249 0.5096253 0.739663 0.509782 0.7829852 0.2844169 0.9788177 0.2543907 0.9788177 0.2844168 0.7829852 0.4946276 0.9788177 0.4646018 0.9788177 0.4946278 0.7230731 0.07334482 0.7158086 0.08060926 0.7055352 0.08060675 0.7177397 0.314181 0.7068261 0.2885164 0.7154337 0.2909616 0.7354021 0.3293923 0.709949 0.3183434 0.7177397 0.314181 0.7354021 0.3293923 0.7623091 0.3361728 0.7325854 0.3376647 0.7586776 0.3281209 0.7829852 0.31445 0.7623091 0.3361728 0.7747586 0.2877015 0.7829852 0.31445 0.7746741 0.3111343 0.7584369 0.2701335 0.7829852 0.2844169 0.7747586 0.2877015 0.7533227 0.2683824 0.7251542 0.2647225 0.7548893 0.2596279 0.7448882 0.3015351 0.7464 0.3014382 0.7354021 0.3293923 0.7296683 0.2723451 0.7068261 0.2885164 0.7251542 0.2647225 0.7460576 0.2976379 0.7296683 0.2723451 0.7533227 0.2683824 0.7419787 0.5155544 0.736207 0.5178717 0.7338913 0.5120993 0.7485706 0.4332358 0.7532938 0.5088727 0.7498175 0.5090336 0.7587314 0.4330222 0.7567737 0.50891 0.7553355 0.4331156 0.7383084 0.4333357 0.7362975 0.5097453 0.7348658 0.433411 0.7417518 0.4332889 0.7463979 0.5093312 0.7430249 0.5096253 0.7451737 0.4332624 0.7498175 0.5090336 0.7463979 0.5093312 0.7553355 0.4331156 0.7532938 0.5088727 0.7519534 0.4331896 0.7621523 0.432928 0.7602016 0.5090858 0.7587314 0.4330222 0.7578008 0.3732584 0.7621523 0.432928 0.7587314 0.4330222 0.7508981 0.3738085 0.7553355 0.4331156 0.7519534 0.4331896 0.7474121 0.373745 0.7451737 0.4332624 0.7439807 0.3735051 0.7439807 0.3735051 0.7417518 0.4332889 0.7405954 0.3732674 0.7338538 0.3733897 0.7383084 0.4333357 0.7348658 0.433411 0.7543798 0.3736208 0.7587314 0.4330222 0.7553355 0.4331156 0.7508981 0.3738085 0.7485706 0.4332358 0.7474121 0.373745 0.7405954 0.3732674 0.7383084 0.4333357 0.7372224 0.3732051 0.7829852 0.4646018 0.9788177 0.4345685 0.9788177 0.4646018 0.5978176 0.3666865 0.6155272 0.2709809 0.6155272 0.3666865 0.7085956 0.256149 0.7329247 0.08708602 0.7329247 0.256149 0.6392526 0.4457801 0.6658694 0.2944491 0.6672092 0.4455322 0.5978176 0.4897499 0.6155272 0.3666865 0.6155272 0.4897499 0.7085956 0.08708602 0.5771163 0.256149 0.5771163 0.08708602 0.3228132 0.9882678 0.3115888 0.9884637 0.3115872 0.9882678 0.5413401 0.1061313 0.5662346 0.1061313 0.5662346 0.2182407 0.5092338 0.2425193 0.5140436 0.2425014 0.5150234 0.2421004 0.4928653 0.3240114 0.4773169 0.3235707 0.5092443 0.3178868 0.4765476 0.2486091 0.4765396 0.2425673 0.4930694 0.2422298 0.2891365 0.988602 0.3003625 0.988511 0.2891567 0.9910948 0.3003625 0.988511 0.3115872 0.9882678 0.3115888 0.9884637 0.4765396 0.2425673 0.4930694 0.2422298 0.470646 0.2421556 0.8079475 0.1890984 0.8079477 0.1633924 0.9755635 0.1633925 0.8079477 0.1633924 0.8079477 0.1376927 0.9755635 0.1376928 0.8079477 0.1376927 0.8079477 0.1119931 0.9755635 0.1119931 0.8079477 0.1119931 0.8079477 0.0862872 0.9755635 0.0862872 0.8079477 0.0862872 0.8079475 0.06058108 0.9755637 0.06058108 0.7844972 0.1773681 0.7821275 0.1774004 0.7812515 0.1248695 0.8079475 0.06058108 0.8079475 0.03488153 0.9755635 0.03488159 0.8079475 0.2405039 0.8079475 0.2148042 0.9755635 0.2148044 0.7083657 0.4702075 0.7174683 0.4793145 0.6863902 0.492183 0.7174683 0.4793145 0.7174683 0.4921905 0.6954928 0.50129 0.7174683 0.4921905 0.7083657 0.5012931 0.6954928 0.50129 0.6954928 0.50129 0.6863902 0.492183 0.7174683 0.4793145 0.6863902 0.492183 0.6863902 0.4793069 0.7083657 0.4702075 0.752103 0.0860567 0.7454346 0.08961957 0.7427616 0.06409007 0.7672207 0.09907633 0.7648097 0.106157 0.7454346 0.08961957 0.7672207 0.09907633 0.7871422 0.09798824 0.7902507 0.10488 0.7871422 0.09798824 0.8008341 0.08344912 0.8079477 0.0862872 0.8009064 0.06339257 0.8079475 0.06058108 0.8079477 0.0862872 0.7869365 0.04835587 0.7904453 0.04160159 0.8079475 0.06058108 0.7825592 0.04685682 0.7623128 0.05024868 0.758449 0.04372411 0.7774953 0.07290655 0.7765908 0.07196456 0.7869365 0.04835587 0.7869365 0.04835587 0.8009064 0.06339257 0.7774953 0.07290655 0.8009064 0.06339257 0.8008341 0.08344912 0.7774953 0.07290655 0.8008341 0.08344912 0.7871422 0.09798824 0.7775136 0.07419937 0.7871422 0.09798824 0.7672207 0.09907633 0.7766337 0.07515001 0.7775136 0.07419937 0.7871422 0.09798824 0.7766337 0.07515001 0.7672207 0.09907633 0.752103 0.0860567 0.7743654 0.07437753 0.752103 0.0860567 0.7501292 0.06618291 0.7742484 0.07308739 0.7501292 0.06618291 0.7623128 0.05024868 0.775052 0.07207447 0.7501292 0.06618291 0.775052 0.07207447 0.7742484 0.07308739 0.7775136 0.07419937 0.7774953 0.07290655 0.8008341 0.08344912 0.752103 0.0860567 0.7742484 0.07308739 0.7743654 0.07437753 0.7672207 0.09907633 0.7743654 0.07437753 0.7753397 0.07523298 0.7623128 0.05024868 0.7501292 0.06618291 0.7427616 0.06409007 0.7763407 0.07189726 0.775052 0.07207447 0.7623128 0.05024868 0.783565 0.1247618 0.7819456 0.1231059 0.7819716 0.1207894 0.7819716 0.1207894 0.7836272 0.1191694 0.7859435 0.1191948 0.7859435 0.1191948 0.7875624 0.1208506 0.7875365 0.1231669 0.7875365 0.1231669 0.7858809 0.1247871 0.783565 0.1247618 0.783565 0.1247618 0.7819716 0.1207894 0.7875365 0.1231669 0.7774354 0.1774369 0.7751075 0.1774688 0.7741852 0.125387 0.7704434 0.1775839 0.7694317 0.1252406 0.7717906 0.1253616 0.7844972 0.1773681 0.783565 0.1247618 0.7858809 0.1247871 0.7821275 0.1774004 0.7797729 0.1774187 0.7789307 0.1250718 0.7797729 0.1774187 0.7774354 0.1774369 0.7765773 0.1252766 0.7727801 0.1775196 0.7717906 0.1253616 0.7741852 0.125387 0.768089 0.1776487 0.7670713 0.1251198 0.7694317 0.1252406 0.7710835 0.2187102 0.7687277 0.2189592 0.768089 0.1776487 0.7758336 0.2183313 0.7734379 0.2184607 0.7727801 0.1775196 0.7782323 0.218375 0.7774354 0.1774369 0.7797729 0.1774187 0.7805939 0.2185403 0.7797729 0.1774187 0.7821275 0.1774004 0.7875624 0.2186197 0.7852446 0.2187466 0.7844972 0.1773681 0.7734379 0.2184607 0.7710835 0.2187102 0.7704434 0.1775839 0.7758336 0.2183313 0.7751075 0.1774688 0.7774354 0.1774369 0.7829235 0.2187037 0.7821275 0.1774004 0.7844972 0.1773681 0.8079475 0.2148042 0.8079475 0.1890984 0.9755635 0.1890985 0.7829852 0.4345685 0.7829852 0.4045352 0.9788177 0.4045352 0.7829852 0.4045352 0.7829851 0.3745093 0.9788177 0.3745093 0.7829851 0.3745093 0.7829851 0.3444833 0.9788177 0.3444833 0.7829851 0.3444833 0.7829852 0.31445 0.9788177 0.3144501 0.7829852 0.31445 0.7829852 0.2844169 0.9788177 0.2844168 0.7383084 0.4333357 0.7417518 0.4332889 0.7430249 0.5096253 0.7829852 0.2844169 0.7829851 0.2543908 0.9788177 0.2543907 0.7829852 0.4946276 0.7829852 0.4646018 0.9788177 0.4646018 0.7055352 0.08060675 0.6982708 0.0733388 0.7230731 0.06306886 0.6982708 0.0733388 0.6982708 0.06306278 0.7158086 0.05580085 0.6982708 0.06306278 0.7055352 0.05579835 0.7158086 0.05580085 0.7158086 0.05580085 0.7230731 0.06306886 0.6982708 0.0733388 0.7230731 0.06306886 0.7230731 0.07334482 0.7055352 0.08060675 0.7177397 0.314181 0.709949 0.3183434 0.7068261 0.2885164 0.7354021 0.3293923 0.7325854 0.3376647 0.709949 0.3183434 0.7354021 0.3293923 0.7586776 0.3281209 0.7623091 0.3361728 0.7586776 0.3281209 0.7746741 0.3111343 0.7829852 0.31445 0.7747586 0.2877015 0.7829852 0.2844169 0.7829852 0.31445 0.7584369 0.2701335 0.7625364 0.2622423 0.7829852 0.2844169 0.7533227 0.2683824 0.7296683 0.2723451 0.7251542 0.2647225 0.7474064 0.298817 0.7463498 0.2977164 0.7584369 0.2701335 0.7584369 0.2701335 0.7747586 0.2877015 0.7474064 0.298817 0.7747586 0.2877015 0.7746741 0.3111343 0.7474064 0.298817 0.7746741 0.3111343 0.7586776 0.3281209 0.7474281 0.3003274 0.7586776 0.3281209 0.7354021 0.3293923 0.7464 0.3014382 0.7474281 0.3003274 0.7586776 0.3281209 0.7464 0.3014382 0.7354021 0.3293923 0.7177397 0.314181 0.7437496 0.3005357 0.7177397 0.314181 0.7154337 0.2909616 0.7436131 0.2990285 0.7154337 0.2909616 0.7296683 0.2723451 0.7445518 0.2978451 0.7154337 0.2909616 0.7445518 0.2978451 0.7436131 0.2990285 0.7474281 0.3003274 0.7474064 0.298817 0.7746741 0.3111343 0.7177397 0.314181 0.7436131 0.2990285 0.7437496 0.3005357 0.7354021 0.3293923 0.7437496 0.3005357 0.7448882 0.3015351 0.7296683 0.2723451 0.7154337 0.2909616 0.7068261 0.2885164 0.7460576 0.2976379 0.7445518 0.2978451 0.7296683 0.2723451 0.739663 0.509782 0.742016 0.5121881 0.7419787 0.5155544 0.7419787 0.5155544 0.7395722 0.5179083 0.736207 0.5178717 0.736207 0.5178717 0.7338538 0.5154657 0.7338913 0.5120993 0.7338913 0.5120993 0.7362975 0.5097453 0.739663 0.509782 0.739663 0.509782 0.7419787 0.5155544 0.7338913 0.5120993 0.7485706 0.4332358 0.7519534 0.4331896 0.7532938 0.5088727 0.7587314 0.4330222 0.7602016 0.5090858 0.7567737 0.50891 0.7383084 0.4333357 0.739663 0.509782 0.7362975 0.5097453 0.7417518 0.4332889 0.7451737 0.4332624 0.7463979 0.5093312 0.7451737 0.4332624 0.7485706 0.4332358 0.7498175 0.5090336 0.7553355 0.4331156 0.7567737 0.50891 0.7532938 0.5088727 0.7621523 0.432928 0.7636319 0.5092612 0.7602016 0.5090858 0.7578008 0.3732584 0.7612244 0.3728963 0.7621523 0.432928 0.7508981 0.3738085 0.7543798 0.3736208 0.7553355 0.4331156 0.7474121 0.373745 0.7485706 0.4332358 0.7451737 0.4332624 0.7439807 0.3735051 0.7451737 0.4332624 0.7417518 0.4332889 0.7338538 0.3733897 0.7372224 0.3732051 0.7383084 0.4333357 0.7543798 0.3736208 0.7578008 0.3732584 0.7587314 0.4330222 0.7508981 0.3738085 0.7519534 0.4331896 0.7485706 0.4332358 0.7405954 0.3732674 0.7417518 0.4332889 0.7383084 0.4333357 0.7829852 0.4646018 0.7829852 0.4345685 0.9788177 0.4345685 0.5978176 0.3666865 0.5978176 0.2709809 0.6155272 0.2709809 0.7085956 0.256149 0.7085956 0.08708602 0.7329247 0.08708602 0.6392526 0.4457801 0.6379127 0.294697 0.6658694 0.2944491 0.5978176 0.4897499 0.5978176 0.3666865 0.6155272 0.3666865 0.7085956 0.08708602 0.7085956 0.256149 0.5771163 0.256149</float_array>
          <technique_common>
            <accessor source="#mesh0_015-mesh-map-0-array" count="1104" stride="2">
              <param name="S" type="float"/>
              <param name="T" type="float"/>
            </accessor>
          </technique_common>
        </source>
        <vertices id="mesh0_015-mesh-vertices">
          <input semantic="POSITION" source="#mesh0_015-mesh-positions"/>
        </vertices>
        <triangles material="Material_004-material" count="368">
          <input semantic="VERTEX" source="#mesh0_015-mesh-vertices" offset="0"/>
          <input semantic="NORMAL" source="#mesh0_015-mesh-normals" offset="1"/>
          <input semantic="TEXCOORD" source="#mesh0_015-mesh-map-0" offset="2" set="0"/>
          <p>17 0 0 8 0 1 18 0 2 3 1 3 22 1 4 24 1 5 7 2 6 23 2 7 25 2 8 21 3 9 5 3 10 25 3 11 40 2 12 15 2 13 18 2 14 7 4 15 1 4 16 3 4 17 34 5 18 2 5 19 12 5 20 39 6 21 12 6 22 17 6 23 33 7 24 11 7 25 4 7 26 8 4 27 21 4 28 20 4 29 12 4 30 22 4 31 2 4 32 10 4 33 24 4 34 23 4 35 11 0 36 18 0 37 15 0 38 36 8 39 53 8 40 41 8 41 26 8 42 43 8 43 27 8 44 27 8 45 50 8 46 37 8 47 35 8 48 6 8 49 13 8 50 26 9 51 18 9 52 8 9 53 36 2 54 4 2 55 14 2 56 32 10 57 19 10 58 11 10 59 37 11 60 0 11 61 15 11 62 27 10 63 8 10 64 0 10 65 41 12 66 14 12 67 19 12 68 38 10 69 13 10 70 16 10 71 29 13 72 9 13 73 2 13 74 30 14 75 16 14 76 10 14 77 31 2 78 10 2 79 6 2 80 28 2 81 17 2 82 9 2 83 28 8 84 45 8 85 29 8 86 39 8 87 44 8 88 28 8 89 32 8 90 47 8 91 33 8 92 34 8 93 51 8 94 39 8 95 29 8 96 48 8 97 34 8 98 37 8 99 52 8 100 40 8 101 40 8 102 42 8 103 26 8 104 33 8 105 49 8 106 36 8 107 41 8 108 46 8 109 32 8 110 20 15 111 17 15 112 12 15 113 19 16 114 23 16 115 10 16 116 24 17 117 7 17 118 3 17 119 21 18 120 1 18 121 5 18 122 40 2 123 37 2 124 15 2 125 7 4 126 5 4 127 1 4 128 34 10 129 29 10 130 2 10 131 39 19 132 34 19 133 12 19 134 33 11 135 32 11 136 11 11 137 8 4 138 0 4 139 21 4 140 12 4 141 20 4 142 22 4 143 24 20 144 22 20 145 9 20 146 22 21 147 2 21 148 9 21 149 13 22 150 6 22 151 24 22 152 16 0 153 19 0 154 10 0 155 13 0 156 24 0 157 9 0 158 16 0 159 13 0 160 9 0 161 16 0 162 9 0 163 17 0 164 16 23 165 17 23 166 19 23 167 1 10 168 20 10 169 99 10 170 19 24 171 17 24 172 18 24 173 25 2 174 5 2 175 7 2 176 25 25 177 4 25 178 11 25 179 11 0 180 19 0 181 18 0 182 21 0 183 25 0 184 15 0 185 25 26 186 11 26 187 15 26 188 15 27 189 0 27 190 21 27 191 36 8 192 49 8 193 53 8 194 26 8 195 42 8 196 43 8 197 27 8 198 43 8 199 50 8 200 35 28 201 31 28 202 6 28 203 26 29 204 40 29 205 18 29 206 36 2 207 33 2 208 4 2 209 32 30 210 41 30 211 19 30 212 37 31 213 27 31 214 0 31 215 27 10 216 26 10 217 8 10 218 41 32 219 36 32 220 14 32 221 38 10 222 35 10 223 13 10 224 29 8 225 28 8 226 9 8 227 30 33 228 38 33 229 16 33 230 31 34 231 30 34 232 10 34 233 28 35 234 39 35 235 17 35 236 28 8 237 44 8 238 45 8 239 39 8 240 51 8 241 44 8 242 32 8 243 46 8 244 47 8 245 34 8 246 48 8 247 51 8 248 29 8 249 45 8 250 48 8 251 37 8 252 50 8 253 52 8 254 40 8 255 52 8 256 42 8 257 33 8 258 47 8 259 49 8 260 41 8 261 53 8 262 46 8 263 62 36 264 57 36 265 56 36 266 63 37 267 61 37 268 60 37 269 64 38 270 59 38 271 58 38 272 65 39 273 55 39 274 54 39 275 60 40 276 54 40 277 56 40 278 62 41 279 65 41 280 66 41 281 66 42 282 59 42 283 64 42 284 63 43 285 64 43 286 61 43 287 57 44 288 66 44 289 63 44 290 56 45 291 54 45 292 62 45 293 54 10 294 55 10 295 62 10 296 60 46 297 56 46 298 63 46 299 56 47 300 57 47 301 63 47 302 58 48 303 60 48 304 64 48 305 60 49 306 61 49 307 64 49 308 54 50 309 58 50 310 65 50 311 58 8 312 59 8 313 65 8 314 60 51 315 58 51 316 54 51 317 62 52 318 55 52 319 65 52 320 66 53 321 65 53 322 59 53 323 63 54 324 66 54 325 64 54 326 57 55 327 62 55 328 66 55 329 70 56 330 76 56 331 88 56 332 70 57 333 92 57 334 67 57 335 80 58 336 69 58 337 84 58 338 84 59 339 70 59 340 88 59 341 79 0 342 87 0 343 75 0 344 74 60 345 97 60 346 73 60 347 67 61 348 94 61 349 68 61 350 69 62 351 91 62 352 70 62 353 68 63 354 93 63 355 69 63 356 76 64 357 82 64 358 78 64 359 82 65 360 77 65 361 78 65 362 84 66 363 82 66 364 80 66 365 82 67 366 85 67 367 81 67 368 84 68 369 90 68 370 86 68 371 86 69 372 89 69 373 85 69 374 76 70 375 90 70 376 88 70 377 78 71 378 89 71 379 90 71 380 81 72 381 89 72 382 77 72 383 67 73 384 80 73 385 76 73 386 72 74 387 91 74 388 71 74 389 71 75 390 93 75 391 73 75 392 74 4 393 93 4 394 94 4 395 74 76 396 92 76 397 72 76 398 95 4 399 98 4 400 96 4 401 71 77 402 96 77 403 72 77 404 72 78 405 98 78 406 74 78 407 73 79 408 95 79 409 71 79 410 70 80 411 67 80 412 76 80 413 70 81 414 91 81 415 92 81 416 80 82 417 68 82 418 69 82 419 84 83 420 69 83 421 70 83 422 79 0 423 83 0 424 87 0 425 74 84 426 98 84 427 97 84 428 67 85 429 92 85 430 94 85 431 69 86 432 93 86 433 91 86 434 68 87 435 94 87 436 93 87 437 76 88 438 80 88 439 82 88 440 82 89 441 81 89 442 77 89 443 84 90 444 86 90 445 82 90 446 82 91 447 86 91 448 85 91 449 84 92 450 88 92 451 90 92 452 86 93 453 90 93 454 89 93 455 76 94 456 78 94 457 90 94 458 78 95 459 77 95 460 89 95 461 81 96 462 85 96 463 89 96 464 67 97 465 68 97 466 80 97 467 72 4 468 92 4 469 91 4 470 71 4 471 91 4 472 93 4 473 74 98 474 73 98 475 93 98 476 74 4 477 94 4 478 92 4 479 95 4 480 97 4 481 98 4 482 71 99 483 95 99 484 96 99 485 72 100 486 96 100 487 98 100 488 73 101 489 97 101 490 95 101 491 14 4 492 25 4 493 4 4 494 1 10 495 99 10 496 3 10 497 117 102 498 102 102 499 100 102 500 116 103 501 104 103 502 102 103 503 118 104 504 106 104 505 104 104 506 119 105 507 108 105 508 106 105 509 120 106 510 110 106 511 108 106 512 141 107 513 132 107 514 134 107 515 121 108 516 112 108 517 110 108 518 122 109 519 114 109 520 112 109 521 110 0 522 112 0 523 114 0 524 124 110 525 117 110 526 125 110 527 126 111 528 116 111 529 124 111 530 126 112 531 119 112 532 118 112 533 127 113 534 120 113 535 119 113 536 129 114 537 120 114 538 128 114 539 130 115 540 121 115 541 129 115 542 130 116 543 123 116 544 122 116 545 105 117 546 107 117 547 126 117 548 131 118 549 117 118 550 123 118 551 113 119 552 131 119 553 130 119 554 133 4 555 138 4 556 136 4 557 143 120 558 138 120 559 139 120 560 144 121 561 137 121 562 145 121 563 141 122 564 135 122 565 146 122 566 140 123 567 133 123 568 132 123 569 147 124 570 139 124 571 133 124 572 145 125 573 138 125 574 142 125 575 146 126 576 136 126 577 144 126 578 109 127 579 146 127 580 144 127 581 113 128 582 145 128 583 142 128 584 115 129 585 147 129 586 101 129 587 101 130 588 140 130 589 103 130 590 107 131 591 141 131 592 146 131 593 111 132 594 144 132 595 145 132 596 113 133 597 143 133 598 115 133 599 103 134 600 141 134 601 105 134 602 123 135 603 100 135 604 114 135 605 165 136 606 150 136 607 148 136 608 164 137 609 152 137 610 150 137 611 166 138 612 154 138 613 152 138 614 167 139 615 156 139 616 154 139 617 168 140 618 158 140 619 156 140 620 189 141 621 180 141 622 182 141 623 169 142 624 160 142 625 158 142 626 170 143 627 162 143 628 160 143 629 158 0 630 160 0 631 162 0 632 172 144 633 165 144 634 173 144 635 174 145 636 164 145 637 172 145 638 174 146 639 167 146 640 166 146 641 175 147 642 168 147 643 167 147 644 177 148 645 168 148 646 176 148 647 178 149 648 169 149 649 177 149 650 178 150 651 171 150 652 170 150 653 153 4 654 155 4 655 174 4 656 179 151 657 165 151 658 171 151 659 161 4 660 179 4 661 178 4 662 181 4 663 186 4 664 184 4 665 191 152 666 186 152 667 187 152 668 192 153 669 185 153 670 193 153 671 189 154 672 183 154 673 194 154 674 188 155 675 181 155 676 180 155 677 195 156 678 187 156 679 181 156 680 193 157 681 186 157 682 190 157 683 194 158 684 184 158 685 192 158 686 157 159 687 194 159 688 192 159 689 161 160 690 193 160 691 190 160 692 163 161 693 195 161 694 149 161 695 149 162 696 188 162 697 151 162 698 155 163 699 189 163 700 194 163 701 159 164 702 192 164 703 193 164 704 161 165 705 191 165 706 163 165 707 151 166 708 189 166 709 153 166 710 171 167 711 148 167 712 162 167 713 197 168 714 198 168 715 196 168 716 199 169 717 202 169 718 198 169 719 203 170 720 200 170 721 202 170 722 201 171 723 196 171 724 200 171 725 203 172 726 197 172 727 201 172 728 3 10 729 99 10 730 22 10 731 7 2 732 24 2 733 23 2 734 10 4 735 6 4 736 24 4 737 20 173 738 8 173 739 17 173 740 19 174 741 14 174 742 23 174 743 21 10 744 20 10 745 1 10 746 20 10 747 22 10 748 99 10 749 14 4 750 23 4 751 25 4 752 117 175 753 116 175 754 102 175 755 116 176 756 118 176 757 104 176 758 118 177 759 119 177 760 106 177 761 119 178 762 120 178 763 108 178 764 120 179 765 121 179 766 110 179 767 141 180 768 140 180 769 132 180 770 121 181 771 122 181 772 112 181 773 122 182 774 123 182 775 114 182 776 114 0 777 100 0 778 108 0 779 100 0 780 102 0 781 106 0 782 102 0 783 104 0 784 106 0 785 106 0 786 108 0 787 100 0 788 108 0 789 110 0 790 114 0 791 124 183 792 116 183 793 117 183 794 126 184 795 118 184 796 116 184 797 126 185 798 127 185 799 119 185 800 127 186 801 128 186 802 120 186 803 129 187 804 121 187 805 120 187 806 130 188 807 122 188 808 121 188 809 130 189 810 131 189 811 123 189 812 111 190 813 113 190 814 130 190 815 130 191 816 129 191 817 111 191 818 129 192 819 128 192 820 111 192 821 128 193 822 127 193 823 109 193 824 127 194 825 126 194 826 107 194 827 109 195 828 127 195 829 107 195 830 126 196 831 124 196 832 103 196 833 124 197 834 125 197 835 101 197 836 125 198 837 131 198 838 115 198 839 125 199 840 115 199 841 101 199 842 109 200 843 111 200 844 128 200 845 124 201 846 101 201 847 103 201 848 126 202 849 103 202 850 105 202 851 131 203 852 125 203 853 117 203 854 113 204 855 115 204 856 131 204 857 134 4 858 132 4 859 133 4 860 133 205 861 139 205 862 138 205 863 138 206 864 137 206 865 136 206 866 136 207 867 135 207 868 134 207 869 134 4 870 133 4 871 136 4 872 143 208 873 142 208 874 138 208 875 144 209 876 136 209 877 137 209 878 141 210 879 134 210 880 135 210 881 140 211 882 147 211 883 133 211 884 147 212 885 143 212 886 139 212 887 145 213 888 137 213 889 138 213 890 146 214 891 135 214 892 136 214 893 109 127 894 107 127 895 146 127 896 113 215 897 111 215 898 145 215 899 115 216 900 143 216 901 147 216 902 101 130 903 147 130 904 140 130 905 107 217 906 105 217 907 141 217 908 111 218 909 109 218 910 144 218 911 113 219 912 142 219 913 143 219 914 103 220 915 140 220 916 141 220 917 123 221 918 117 221 919 100 221 920 165 222 921 164 222 922 150 222 923 164 223 924 166 223 925 152 223 926 166 224 927 167 224 928 154 224 929 167 225 930 168 225 931 156 225 932 168 226 933 169 226 934 158 226 935 189 227 936 188 227 937 180 227 938 169 228 939 170 228 940 160 228 941 170 143 942 171 143 943 162 143 944 162 229 945 148 229 946 156 229 947 148 0 948 150 0 949 154 0 950 150 0 951 152 0 952 154 0 953 154 230 954 156 230 955 148 230 956 156 0 957 158 0 958 162 0 959 172 231 960 164 231 961 165 231 962 174 232 963 166 232 964 164 232 965 174 233 966 175 233 967 167 233 968 175 234 969 176 234 970 168 234 971 177 235 972 169 235 973 168 235 974 178 236 975 170 236 976 169 236 977 178 237 978 179 237 979 171 237 980 159 4 981 161 4 982 178 4 983 178 238 984 177 238 985 159 238 986 177 4 987 176 4 988 159 4 989 176 239 990 175 239 991 157 239 992 175 240 993 174 240 994 155 240 995 157 241 996 175 241 997 155 241 998 174 242 999 172 242 1000 151 242 1001 172 4 1002 173 4 1003 149 4 1004 173 4 1005 179 4 1006 163 4 1007 173 243 1008 163 243 1009 149 243 1010 157 4 1011 159 4 1012 176 4 1013 172 244 1014 149 244 1015 151 244 1016 174 245 1017 151 245 1018 153 245 1019 179 246 1020 173 246 1021 165 246 1022 161 4 1023 163 4 1024 179 4 1025 182 4 1026 180 4 1027 181 4 1028 181 4 1029 187 4 1030 186 4 1031 186 247 1032 185 247 1033 184 247 1034 184 4 1035 183 4 1036 182 4 1037 182 4 1038 181 4 1039 184 4 1040 191 248 1041 190 248 1042 186 248 1043 192 249 1044 184 249 1045 185 249 1046 189 250 1047 182 250 1048 183 250 1049 188 251 1050 195 251 1051 181 251 1052 195 252 1053 191 252 1054 187 252 1055 193 253 1056 185 253 1057 186 253 1058 194 254 1059 183 254 1060 184 254 1061 157 255 1062 155 255 1063 194 255 1064 161 256 1065 159 256 1066 193 256 1067 163 257 1068 191 257 1069 195 257 1070 149 258 1071 195 258 1072 188 258 1073 155 259 1074 153 259 1075 189 259 1076 159 260 1077 157 260 1078 192 260 1079 161 261 1080 190 261 1081 191 261 1082 151 262 1083 188 262 1084 189 262 1085 171 263 1086 165 263 1087 148 263 1088 197 264 1089 199 264 1090 198 264 1091 199 265 1092 203 265 1093 202 265 1094 203 266 1095 201 266 1096 200 266 1097 201 267 1098 197 267 1099 196 267 1100 203 4 1101 199 4 1102 197 4 1103</p>
        </triangles>
      </mesh>
    </geometry>
  </library_geometries>
  <library_visual_scenes>
    <visual_scene id="Scene" name="Scene">
      <node id="Cube_001" name="Cube.001" type="NODE">
        <matrix sid="transform">1 0 0 0 0 1 0 0 0 0 1 0 0 0 0 1</matrix>
        <instance_geometry url="#mesh0_015-mesh" name="Cube.001">
          <bind_material>
            <technique_common>
              <instance_material symbol="Material_004-material" target="#Material_004-material">
                <bind_vertex_input semantic="mesh0_015-mesh-map-0" input_semantic="TEXCOORD" input_set="0"/>
              </instance_material>
            </technique_common>
          </bind_material>
        </instance_geometry>
      </node>
    </visual_scene>
  </library_visual_scenes>
  <scene>
    <instance_visual_scene url="#Scene"/>
  </scene>
</COLLADA>