<?xml version="1.0" encoding="utf-8"?>
<COLLADA xmlns="http://www.collada.org/2005/11/COLLADASchema" version="1.4.1" xmlns:xsi="http://www.w3.org/2001/XMLSchema-instance">
  <asset>
    <contributor>
      <author>Blender User</author>
      <authoring_tool>Blender 2.92.0 commit date:2021-02-24, commit time:16:25, hash:02948a2cab44</authoring_tool>
    </contributor>
    <created>2021-05-14T08:25:58</created>
    <modified>2021-05-14T08:25:58</modified>
    <unit name="meter" meter="1"/>
    <up_axis>Z_UP</up_axis>
  </asset>
  <library_effects>
    <effect id="material0_003-effect">
      <profile_COMMON>
        <technique sid="common">
          <lambert>
            <emission>
              <color sid="emission">0 0 0 1</color>
            </emission>
            <diffuse>
              <color sid="diffuse">0.8 0.8 0.8 1</color>
            </diffuse>
            <index_of_refraction>
              <float sid="ior">1.45</float>
            </index_of_refraction>
          </lambert>
        </technique>
      </profile_COMMON>
    </effect>
  </library_effects>
  <library_images/>
  <library_materials>
    <material id="material0_003-material" name="material0.003">
      <instance_effect url="#material0_003-effect"/>
    </material>
  </library_materials>
  <library_geometries>
    <geometry id="mesh0_003-mesh" name="mesh0.003">
      <mesh>
        <source id="mesh0_003-mesh-positions">
          <float_array id="mesh0_003-mesh-positions-array" count="141">1.255545 0.6737739 -0.6159663 0.9557901 0.6737734 0.990664 -0.6648216 0.6737734 1.202062 -1.366683 0.6737739 -0.2739132 -0.1798281 0.6737673 -1.397528 0.007915019 1.708177 -0.008888363 0.2475359 -2.06202e-4 -1.345757 -0.5796115 -2.06202e-4 -1.237861 1.338371 -2.06202e-4 -0.1935221 0.9801481 -2.06202e-4 -0.9468556 0.5796114 -2.06202e-4 1.199981 1.185382 -2.06202e-4 0.6264957 -0.9801481 -2.06202e-4 0.9089754 -0.2475358 -2.06202e-4 1.307877 -1.185382 -2.06202e-4 -0.6643757 -1.338371 -2.06202e-4 0.1556419 0.632287 0.7958173 -1.18018 1.299789 0.7958195 0.2235672 0.1710262 0.7958168 1.292172 -1.194087 0.7958195 0.5488775 -0.9090137 0.7958173 -0.9791268 0.8277497 1.387816 -0.4125446 -0.1185569 1.387812 -0.9278146 0.6301288 1.387816 0.646667 -0.4383004 1.387816 0.7860367 -0.7903712 1.436389 -0.1275357 0.6248221 1.094317 0.8276546 0.8611767 1.202109 0.479281 1.194787 0.9982476 0.3063358 1.257051 0.6443443 0.5397616 1.123388 0.5240773 0.8745539 0.8204758 0.798275 1.085084 1.206613 1.001326 0.7034313 1.234091 0.9191499 -0.1394062 0.9266205 1.140444 -0.2669263 0.8090355 1.211431 -0.5658205 0.9399505 0.9717654 -0.9327519 1.19709 0.6991564 -0.7943357 1.353651 0.6363808 -0.4271876 1.233115 1.103995 -0.6106127 1.089226 1.073735 0.2017275 0.7794697 1.262928 0.4083276 0.5435338 1.558077 0.1890258 0.5536189 1.573094 -0.1866425 0.7680199 1.362686 -0.3471325 1.087256 1.119886 -0.2301123 0.9542559 1.424638 0.04699653</float_array>
          <technique_common>
            <accessor source="#mesh0_003-mesh-positions-array" count="47" stride="3">
              <param name="X" type="float"/>
              <param name="Y" type="float"/>
              <param name="Z" type="float"/>
            </accessor>
          </technique_common>
        </source>
        <source id="mesh0_003-mesh-normals">
          <float_array id="mesh0_003-mesh-normals-array" count="174">0.6220309 0.5354284 -0.571309 0.7355635 0.5354286 0.4150455 -0.1674231 0.5354287 0.8278199 -0.8025972 0.5910388 0.08069044 -0.3511307 0.535424 -0.7681331 -0.2710713 0.9198955 -0.2833952 -0.5089958 0.7204597 -0.4710214 -0.711137 0.6058679 -0.3566627 -0.3409337 0.9226078 0.1804417 -0.6448923 0.7086608 0.2862057 -0.6044819 0.5354285 0.5898458 0.05194759 0.9158098 0.3982385 0.09233981 0.7002604 0.7078903 0.3741748 0.535429 0.7571718 0.3941824 0.916085 0.07354384 0.7017752 0.700263 0.1309328 0.8357396 0.5354291 -0.121881 0.1885759 0.9189633 -0.3463316 0.341385 0.7002627 -0.6269678 0.1423377 0.5354241 -0.8325029 -0.4856628 0.08190476 -0.8703007 -0.6866848 -0.04839605 -0.7253426 -0.8424294 0.08190929 -0.5325444 -0.9777823 0.08190685 0.192959 -0.9020383 -0.04839372 0.4289347 -0.7668039 0.08190852 0.6366341 -0.1186396 0.0819059 0.9895535 0.1291962 -0.04839277 0.9904375 0.3685118 0.08190584 0.9260079 0.9044563 0.08190828 0.4186285 0.981886 -0.0483936 0.1831884 0.9945623 0.08190649 -0.0643211 0.6776309 0.08190929 -0.7308264 0.4776401 -0.04839652 -0.8772216 0.2461599 0.08190435 -0.9657624 -0.9709649 -0.1562422 -0.1811509 -0.4723277 -0.1562434 0.8674646 0.6790468 -0.1562434 0.717275 0.8920053 -0.1562422 -0.4241639 -0.1277591 -0.1562454 -0.9794208 0.2309337 0.874186 0.4271632 0.5130006 0.8581081 -0.02193009 0.9876624 0.1535783 -0.03060412 0.9322774 -0.03342235 0.3601971 0.6531906 0.1520624 0.7417676 0.2527188 0.7245779 0.6411865 0.4607995 0.826532 0.323278 0.2561643 0.9582787 0.1268145 0.163152 0.8516563 -0.4980593 0.6578155 0.2619341 -0.7061653 0.9215992 0.08940064 -0.3777072 0.9509041 0.2887754 0.1113111 0.6707581 0.4996795 0.5480914 0.4224467 0.7334136 0.5325818 0.3231524 0.9452059 0.04645878 0.5016792 0.786288 -0.3606511 0.642855 0.6496166 -0.4058767 0.9273936 0.3723925 0.0355671</float_array>
          <technique_common>
            <accessor source="#mesh0_003-mesh-normals-array" count="58" stride="3">
              <param name="X" type="float"/>
              <param name="Y" type="float"/>
              <param name="Z" type="float"/>
            </accessor>
          </technique_common>
        </source>
        <source id="mesh0_003-mesh-map-0">
          <float_array id="mesh0_003-mesh-map-0-array" count="348">0.1654891 0.4315361 0.2428025 0.3313853 0.3025984 0.4738681 0.195316 0.6789497 0.174238 0.5559862 0.3184363 0.6052461 0.4020611 0.8308914 0.2942133 0.7578554 0.4360898 0.6796023 0.7054162 0.8073278 0.5423313 0.8185523 0.6026265 0.618588 0.330205 0.2348098 0.4693907 0.2134616 0.399212 0.3736796 0.399212 0.3736796 0.5754799 0.3933722 0.4452248 0.5233181 0.399212 0.3736796 0.4693907 0.2134616 0.5754799 0.3933722 0.4693907 0.2134616 0.6304748 0.1856099 0.5754799 0.3933722 0.6026265 0.618588 0.4360898 0.6796023 0.4452248 0.5233181 0.6026265 0.618588 0.5423313 0.8185523 0.4360898 0.6796023 0.5423313 0.8185523 0.4020611 0.8308914 0.4360898 0.6796023 0.4360898 0.6796023 0.3184363 0.6052461 0.4452248 0.5233181 0.4360898 0.6796023 0.2942133 0.7578554 0.3184363 0.6052461 0.2942133 0.7578554 0.195316 0.6789497 0.3184363 0.6052461 0.3184363 0.6052461 0.3025984 0.4738681 0.4452248 0.5233181 0.3184363 0.6052461 0.174238 0.5559862 0.3025984 0.4738681 0.174238 0.5559862 0.1654891 0.4315361 0.3025984 0.4738681 0.3025984 0.4738681 0.399212 0.3736796 0.4452248 0.5233181 0.3025984 0.4738681 0.2428025 0.3313853 0.399212 0.3736796 0.2428025 0.3313853 0.330205 0.2348098 0.399212 0.3736796 0.3385784 0.05878704 0.4693907 0.2134616 0.330205 0.2348098 0.3385784 0.05878704 0.5211915 0.01803731 0.4693907 0.2134616 0.5211915 0.01803731 0.6304748 0.1856099 0.4693907 0.2134616 0.6390885 0.9960666 0.5423313 0.8185523 0.7054162 0.8073278 0.6390885 0.9960666 0.4520266 0.9998802 0.5423313 0.8185523 0.4520266 0.9998802 0.4020611 0.8308914 0.5423313 0.8185523 0.269343 0.9471636 0.2942133 0.7578554 0.4020611 0.8308914 0.269343 0.9471636 0.118991 0.8340831 0.2942133 0.7578554 0.118991 0.8340831 0.195316 0.6789497 0.2942133 0.7578554 0.02266091 0.6691071 0.174238 0.5559862 0.195316 0.6789497 0.02266091 0.6691071 1.19803e-4 0.4821269 0.174238 0.5559862 1.19803e-4 0.4821269 0.1654891 0.4315361 0.174238 0.5559862 0.05448246 0.2989847 0.2428025 0.3313853 0.1654891 0.4315361 0.05448246 0.2989847 0.1736566 0.1534078 0.2428025 0.3313853 0.1736566 0.1534078 0.330205 0.2348098 0.2428025 0.3313853 0.5211915 0.01803731 0.7054161 1.19803e-4 0.6304748 0.1856099 0.4520266 0.9998802 0.269343 0.9471636 0.4020611 0.8308914 0.118991 0.8340831 0.02266091 0.6691071 0.195316 0.6789497 1.19803e-4 0.4821269 0.05448246 0.2989847 0.1654891 0.4315361 0.1736566 0.1534078 0.3385784 0.05878704 0.330205 0.2348098 0.9741103 0.08460414 0.8148798 0.1638116 0.8293181 0.002932727 0.8293181 0.002932727 0.8148798 0.1638116 0.6878299 0.08575576 0.6878299 0.08575576 0.8148798 0.1638116 0.6865816 0.2490773 0.6865816 0.2490773 0.8148798 0.1638116 0.8280713 0.3341438 0.8280713 0.3341438 0.8148798 0.1638116 0.9741103 0.2524799 0.9741103 0.2524799 0.8148798 0.1638116 0.9741103 0.08460414 0.9706803 0.4340858 0.8201634 0.5089589 0.8338114 0.3568836 0.8338114 0.3568836 0.8201634 0.5089589 0.7000656 0.4351744 0.7000656 0.4351744 0.8201634 0.5089589 0.6988855 0.5895587 0.6988855 0.5895587 0.8201634 0.5089589 0.8326325 0.6699702 0.8326325 0.6699702 0.8201634 0.5089589 0.9706803 0.5927752 0.9706803 0.5927752 0.8201634 0.5089589 0.9706803 0.4340858 0.9876839 0.7610691 0.8400154 0.8345251 0.8534051 0.6853277 0.8534051 0.6853277 0.8400154 0.8345251 0.7221904 0.7621368 0.7221904 0.7621368 0.8400154 0.8345251 0.7210325 0.9135996 0.7210325 0.9135996 0.8400154 0.8345251 0.8522486 0.9924895 0.8522486 0.9924895 0.8400154 0.8345251 0.9876839 0.9167553 0.9876839 0.9167553 0.8400154 0.8345251 0.9876839 0.7610691</float_array>
          <technique_common>
            <accessor source="#mesh0_003-mesh-map-0-array" count="174" stride="2">
              <param name="S" type="float"/>
              <param name="T" type="float"/>
            </accessor>
          </technique_common>
        </source>
        <vertices id="mesh0_003-mesh-vertices">
          <input semantic="POSITION" source="#mesh0_003-mesh-positions"/>
        </vertices>
        <triangles material="material0_003-material" count="58">
          <input semantic="VERTEX" source="#mesh0_003-mesh-vertices" offset="0"/>
          <input semantic="NORMAL" source="#mesh0_003-mesh-normals" offset="1"/>
          <input semantic="TEXCOORD" source="#mesh0_003-mesh-map-0" offset="2" set="0"/>
          <p>0 0 0 16 0 1 21 0 2 1 1 3 17 1 4 23 1 5 2 2 6 18 2 7 24 2 8 3 3 9 19 3 10 25 3 11 4 4 12 20 4 13 22 4 14 22 5 15 25 5 16 5 5 17 22 6 18 20 6 19 25 6 20 20 7 21 3 7 22 25 7 23 25 8 24 24 8 25 5 8 26 25 9 27 19 9 28 24 9 29 19 10 30 2 10 31 24 10 32 24 11 33 23 11 34 5 11 35 24 12 36 18 12 37 23 12 38 18 13 39 1 13 40 23 13 41 23 14 42 21 14 43 5 14 44 23 15 45 17 15 46 21 15 47 17 16 48 0 16 49 21 16 50 21 17 51 22 17 52 5 17 53 21 18 54 16 18 55 22 18 56 16 19 57 4 19 58 22 19 59 7 20 60 20 20 61 4 20 62 7 21 63 14 21 64 20 21 65 14 22 66 3 22 67 20 22 68 15 23 69 19 23 70 3 23 71 15 24 72 12 24 73 19 24 74 12 25 75 2 25 76 19 25 77 13 26 78 18 26 79 2 26 80 13 27 81 10 27 82 18 27 83 10 28 84 1 28 85 18 28 86 11 29 87 17 29 88 1 29 89 11 30 90 8 30 91 17 30 92 8 31 93 0 31 94 17 31 95 9 32 96 16 32 97 0 32 98 9 33 99 6 33 100 16 33 101 6 34 102 4 34 103 16 34 104 14 35 105 15 35 106 3 35 107 12 36 108 13 36 109 2 36 110 10 37 111 11 37 112 1 37 113 8 38 114 9 38 115 0 38 116 6 39 117 7 39 118 4 39 119 26 40 120 32 40 121 27 40 122 27 41 123 32 41 124 28 41 125 28 42 126 32 42 127 29 42 128 29 43 129 32 43 130 30 43 131 30 44 132 32 44 133 31 44 134 31 45 135 32 45 136 26 45 137 33 46 138 39 46 139 34 46 140 34 47 141 39 47 142 35 47 143 35 48 144 39 48 145 36 48 146 36 49 147 39 49 148 37 49 149 37 50 150 39 50 151 38 50 152 38 51 153 39 51 154 33 51 155 40 52 156 46 52 157 41 52 158 41 53 159 46 53 160 42 53 161 42 54 162 46 54 163 43 54 164 43 55 165 46 55 166 44 55 167 44 56 168 46 56 169 45 56 170 45 57 171 46 57 172 40 57 173</p>
        </triangles>
      </mesh>
    </geometry>
  </library_geometries>
  <library_visual_scenes>
    <visual_scene id="Scene" name="Scene">
      <node id="Icosphere_004" name="Icosphere.004" type="NODE">
        <matrix sid="transform">0 1 0 0 -1 0 0 0 0 0 1 0 0 0 0 1</matrix>
        <instance_geometry url="#mesh0_003-mesh" name="Icosphere.004">
          <bind_material>
            <technique_common>
              <instance_material symbol="material0_003-material" target="#material0_003-material">
                <bind_vertex_input semantic="mesh0-mesh-map-0" input_semantic="TEXCOORD" input_set="0"/>
              </instance_material>
            </technique_common>
          </bind_material>
        </instance_geometry>
      </node>
    </visual_scene>
  </library_visual_scenes>
  <scene>
    <instance_visual_scene url="#Scene"/>
  </scene>
</COLLADA>