<?xml version="1.0" encoding="utf-8"?>
<COLLADA xmlns="http://www.collada.org/2005/11/COLLADASchema" version="1.4.1" xmlns:xsi="http://www.w3.org/2001/XMLSchema-instance">
  <asset>
    <contributor>
      <author>Blender User</author>
      <authoring_tool>Blender 2.92.0 commit date:2021-02-24, commit time:16:25, hash:02948a2cab44</authoring_tool>
    </contributor>
    <created>2021-06-02T16:47:13</created>
    <modified>2021-06-02T16:47:13</modified>
    <unit name="meter" meter="1"/>
    <up_axis>Z_UP</up_axis>
  </asset>
  <library_effects>
    <effect id="material0_004-effect">
      <profile_COMMON>
        <technique sid="common">
          <lambert>
            <emission>
              <color sid="emission">0 0 0 1</color>
            </emission>
            <diffuse>
              <color sid="diffuse">0.8 0.8 0.8 1</color>
            </diffuse>
            <index_of_refraction>
              <float sid="ior">1.45</float>
            </index_of_refraction>
          </lambert>
        </technique>
      </profile_COMMON>
    </effect>
  </library_effects>
  <library_images/>
  <library_materials>
    <material id="material0_004-material" name="material0.004">
      <instance_effect url="#material0_004-effect"/>
    </material>
  </library_materials>
  <library_geometries>
    <geometry id="mesh0_007-mesh" name="mesh0.007">
      <mesh>
        <source id="mesh0_007-mesh-positions">
          <float_array id="mesh0_007-mesh-positions-array" count="171">-0.5428346 6.801863 0 -1 8.054827 0 -0.1677451 6.801863 -0.5162664 -0.3090169 8.054827 -0.9510565 0.4391623 6.801863 -0.3190701 0.8090172 8.054827 -0.5877851 0.4391623 6.801863 0.3190702 0.8090171 8.054827 0.5877856 -0.1677451 6.801863 0.5162663 -0.309017 8.054827 0.9510565 -0.5428346 6.61841 0 -0.1677451 6.61841 -0.5162664 0.4391623 6.61841 -0.3190701 0.4391622 6.61841 0.3190702 -0.1677452 6.61841 0.5162663 -0.04313969 8.588406 -0.1327711 -0.1396036 8.588406 0 0.1129419 8.588406 -0.08205693 0.1129419 8.588406 0.08205705 -0.04313981 8.588406 0.1327711 -0.3090168 8.3115 -0.9510565 -0.9999999 8.3115 0 0.8090173 8.3115 -0.5877851 0.8090171 8.3115 0.5877856 -0.309017 8.3115 0.9510565 -0.2345151 8.39921 -0.7217642 -0.7589077 8.399211 0 0.6139695 8.39921 -0.4460746 0.6139695 8.39921 0.446075 -0.2345153 8.39921 0.7217642 -0.02196061 8.936203 -0.0675885 -0.07106667 8.936203 1.62853e-7 0.05749446 8.936203 -0.0417717 0.05749446 8.936203 0.04177212 -0.02196067 8.936203 0.0675888 -0.2345151 8.478341 -0.7217642 -0.7589077 8.478341 0 0.6139695 8.478341 -0.4460746 0.6139695 8.478341 0.446075 -0.2345153 8.478341 0.7217642 -0.04313969 8.667536 -0.1327711 -0.1396036 8.667536 0 0.1129419 8.667536 -0.08205693 0.1129419 8.667536 0.08205705 -0.04313981 8.667536 0.1327711 0.5110252 7.783984 0.1069476 0.5085781 7.819874 -0.09627312 0.5082053 7.626996 -0.09702134 0.5114217 7.591106 0.1074381 1.17319 7.946551 0.1117177 1.170542 7.949927 -0.112177 1.170728 7.724536 -0.1120966 1.173024 7.72116 0.1113801 1.301772 8.061661 0.2271644 1.298631 8.068539 -0.2313901 1.298292 7.609426 -0.2285934 1.301433 7.602549 0.225732</float_array>
          <technique_common>
            <accessor source="#mesh0_007-mesh-positions-array" count="57" stride="3">
              <param name="X" type="float"/>
              <param name="Y" type="float"/>
              <param name="Z" type="float"/>
            </accessor>
          </technique_common>
        </source>
        <source id="mesh0_007-mesh-normals">
          <float_array id="mesh0_007-mesh-normals-array" count="300">-0.7759185 -0.2831071 -0.5637383 0.2963749 -0.2831072 -0.9121472 0.9590883 -0.2831073 -3.14984e-7 0.3090183 0 0.9510561 0.296374 -0.2831072 0.9121474 -0.7759188 -0.2831073 0.563738 0.3090177 0 -0.9510564 0 -1 0 -0.8090175 0 0.5877848 -0.8090173 5.09142e-7 -0.5877849 1 -5.09142e-7 1.40105e-7 0.3090165 0 0.9510567 0.3051632 0.1574357 0.9391962 0.3090189 -1.48155e-7 -0.951056 -0.8090183 0 0.5877835 -0.8090198 0 -0.5877814 1 -3.95077e-7 0 -0.331803 0.9120272 -0.2410669 0.1267359 0.9120256 -0.3900606 0.4101268 0.9120286 0 0.1267356 0.9120253 0.3900614 -0.3317993 0.9120303 0.2410601 0.8090204 0 0.5877806 0.3090204 0 0.9510554 -0.3090196 0 -0.9510557 1 0 0 -1 0 0 0 1 0 0.3051656 0.1574375 -0.9391952 -0.7989277 0.1574363 0.5804554 0.9875292 0.1574365 0 -0.7989277 0.1574368 -0.5804554 -0.2857995 0.9355225 -0.2076446 0.109166 0.935522 -0.3359783 0.3532676 0.9355224 0 0.1091656 0.9355221 0.3359783 -0.2857995 0.935522 0.2076473 -0.8090119 0 -0.5877923 0.8090195 0 -0.587782 -0.8090132 0 0.5877905 -0.3090183 0 0.9510561 0.3090179 0 -0.9510562 -0.2360513 0.9564426 0.1717479 -0.02332538 0.003923237 -0.9997203 0.1909768 -0.9662964 -0.1726244 -0.006455302 0.00252968 0.999976 -0.6753857 -0.7374361 -0.006493985 0.9999762 -7.8045e-4 -0.006861388 -0.6714444 0.7408885 0.01571059 -0.6677688 -6.23494e-4 0.7443685 -0.6747538 -8.19938e-4 -0.7380425 -0.7759187 -0.2831072 -0.5637379 0.2963746 -0.2831072 -0.9121472 0.9590883 -0.2831073 3.10485e-7 0.3090157 0 0.951057 0.2963742 -0.2831072 0.9121473 -0.7759187 -0.2831072 0.563738 0.3090159 0 -0.951057 0 -1 1.23121e-6 0 -1 5.93323e-7 -0.8090166 2.54571e-7 0.5877858 -0.8090147 2.5457e-7 -0.5877884 1 0 1.40106e-7 0.309018 0 0.9510563 0.3051638 0.1574365 0.9391958 0.3090141 0 -0.9510575 -0.8090153 3.95076e-7 0.5877876 -0.8090139 3.95075e-7 -0.5877897 1 0 0 -0.3318002 0.9120296 -0.2410616 0.1267368 0.9120321 -0.3900452 0.4101273 0.9120284 -2.95404e-7 0.1267367 0.9120321 0.3900454 -0.3318029 0.9120268 0.2410686 0.8090211 -1.43431e-7 0.5877797 0.3090175 0 0.9510564 -0.3090112 0 -0.9510585 0 1 -1.79585e-5 0 1 2.2198e-5 0.3051641 0.1574368 -0.9391958 -0.7989281 0.1574364 0.5804549 0.9875292 0.1574365 0 -0.7989271 0.1574369 -0.580456 -0.2857993 0.935522 -0.2076471 0.1091658 0.9355227 -0.3359766 0.1091656 0.9355222 0.335978 -0.2857995 0.9355224 0.2076452 -0.8090197 0 -0.5877817 0.8090167 -1.43431e-7 -0.5877857 -0.8090102 8.443e-7 0.5877947 -0.3090174 0 0.9510565 -0.1923577 0.9811764 0.01707309 -0.02394461 -3.76363e-4 -0.9997133 0.1452697 -0.9892555 -0.01643913 -0.006837069 -0.001492738 0.9999756 -0.6720837 -0.7404628 -0.004285395 0.9999758 -7.17194e-4 -0.006924033 -0.6763423 0.7363396 0.01911312 -0.6659925 -0.001835227 0.7459562 -0.6793121 -0.003968596 -0.7338388</float_array>
          <technique_common>
            <accessor source="#mesh0_007-mesh-normals-array" count="100" stride="3">
              <param name="X" type="float"/>
              <param name="Y" type="float"/>
              <param name="Z" type="float"/>
            </accessor>
          </technique_common>
        </source>
        <source id="mesh0_007-mesh-map-0">
          <float_array id="mesh0_007-mesh-map-0-array" count="624">0.05880916 0.3634678 0.3597705 0.4683908 0.2731705 0.5095729 0.3020429 0.2125114 0.4807564 0.5308487 0.3597705 0.4683908 0.5511283 0.9447633 0.3593934 0.6362524 0.4753739 0.5793385 0.5412757 0.3532862 0.6817854 0.5135577 0.6736969 0.532524 0.2277101 0.9171389 0.2789615 0.5928007 0.3593934 0.6362524 0.009435713 0.6743777 0.2731705 0.5095729 0.2789615 0.5928007 0.4807564 0.5308487 0.3591038 0.4900848 0.3597705 0.4683908 0.3591038 0.4900848 0.3580422 0.6180411 0.2922534 0.582187 0.2731705 0.5095729 0.2922534 0.582187 0.2789615 0.5928007 0.3597705 0.4683908 0.2890189 0.5177546 0.2731705 0.5095729 0.3593934 0.6362524 0.4645535 0.5576252 0.4753739 0.5793385 0.2789615 0.5928007 0.3580422 0.6180411 0.3593934 0.6362524 0.766332 0.3591173 0.7742108 0.3469623 0.7741465 0.3474811 0.9947364 0.3557836 0.9395353 0.1334272 0.9575625 0.1304531 0.6736969 0.532524 0.8705516 0.5069039 0.8810375 0.5233705 0.8810375 0.5233705 0.9771327 0.3526199 0.9947364 0.3557836 0.6029334 0.08505207 0.5638263 0.3486736 0.5412757 0.3532862 0.9334297 0.3426327 0.8705516 0.5069039 0.8525051 0.4700976 0.8960102 0.1740409 0.9771327 0.3526199 0.9334297 0.3426327 0.6064389 0.3428487 0.628657 0.09124678 0.6646647 0.1325481 0.7027595 0.4765377 0.5638263 0.3486736 0.6064389 0.3428487 0.8525051 0.4700976 0.6817854 0.5135577 0.7027595 0.4765377 0.7894663 0.342839 0.7916272 0.3691628 0.7833267 0.3587459 0.6064389 0.3428487 0.7086257 0.4620896 0.7027595 0.4765377 0.766332 0.3591173 0.7422546 0.3404908 0.7591677 0.3424618 0.6646647 0.1325481 0.6256527 0.3399884 0.6064389 0.3428487 0.7591677 0.3424618 0.7703549 0.3051162 0.7735401 0.3287332 0.7741465 0.3474811 0.7742203 0.34697 0.7747753 0.3467587 0.7735401 0.3287332 0.775011 0.3472906 0.7747882 0.3467553 0.766332 0.3591173 0.7746685 0.3477144 0.7833267 0.3587459 0.7591677 0.3424618 0.7747753 0.3467584 0.7742108 0.3469623 0.7833267 0.3587459 0.775011 0.3472906 0.7894663 0.342839 0.803659 0.3382837 0.8438596 0.4578986 0.7916272 0.3691628 0.7703549 0.3051162 0.9197539 0.3410326 0.803659 0.3382837 0.7422546 0.3404908 0.6875563 0.1388314 0.7703549 0.3051162 0.7422546 0.3404908 0.7086257 0.4620896 0.6256527 0.3399884 0.7916272 0.3691628 0.7086257 0.4620896 0.7598805 0.3713641 0.8525051 0.4700976 0.9197539 0.3410326 0.9334297 0.3426327 0.7833267 0.3587459 0.7598805 0.3713641 0.766332 0.3591173 0.7027595 0.4765377 0.8438596 0.4578986 0.8525051 0.4700976 0.7735401 0.3287332 0.803659 0.3382837 0.7894663 0.342839 0.9334297 0.3426327 0.8830605 0.1768411 0.8960102 0.1740409 0.8982819 0.8408991 0.8278986 0.9707199 0.805401 0.9489521 0.8278986 0.9707199 0.9323527 0.9373541 0.8553313 0.9889993 0.7615454 0.9133903 0.8432822 0.8208058 0.7797573 0.9396814 0.8432822 0.8208058 0.805401 0.9489521 0.7797573 0.9396814 0.8432822 0.8208058 0.7544732 0.8001391 0.8534098 0.7743514 0.9303133 0.8133618 0.8924201 0.6974478 0.9693237 0.7364582 0.930898 0.8847386 0.9303133 0.8133618 0.9693237 0.8813034 0.8432822 0.8208058 0.9303133 0.8133618 0.8982819 0.8408991 0.930898 0.8847386 0.9559497 0.9576272 0.9323527 0.9373541 0.05880916 0.3634678 0.3020429 0.2125114 0.3597705 0.4683908 0.3020429 0.2125114 0.5511283 0.2233064 0.4807564 0.5308487 0.5511283 0.9447633 0.2277101 0.9171389 0.3593934 0.6362524 0.5412757 0.3532862 0.5638263 0.3486736 0.6817854 0.5135577 0.2277101 0.9171389 0.009435713 0.6743777 0.2789615 0.5928007 0.009435713 0.6743777 0.05880916 0.3634678 0.2731705 0.5095729 0.4807564 0.5308487 0.4645535 0.5576252 0.3591038 0.4900848 0.2922534 0.582187 0.2890189 0.5177546 0.3591038 0.4900848 0.3591038 0.4900848 0.4645535 0.5576252 0.3580422 0.6180411 0.2731705 0.5095729 0.2890189 0.5177546 0.2922534 0.582187 0.3597705 0.4683908 0.3591038 0.4900848 0.2890189 0.5177546 0.3593934 0.6362524 0.3580422 0.6180411 0.4645535 0.5576252 0.2789615 0.5928007 0.2922534 0.582187 0.3580422 0.6180411 0.766332 0.3591173 0.7591677 0.3424618 0.7742108 0.3469623 0.9947364 0.3557836 0.9771327 0.3526199 0.9395353 0.1334272 0.6736969 0.532524 0.6817854 0.5135577 0.8705516 0.5069039 0.8810375 0.5233705 0.8705516 0.5069039 0.9771327 0.3526199 0.6029334 0.08505207 0.628657 0.09124678 0.5638263 0.3486736 0.9334297 0.3426327 0.9771327 0.3526199 0.8705516 0.5069039 0.8960102 0.1740409 0.9395353 0.1334272 0.9771327 0.3526199 0.6064389 0.3428487 0.5638263 0.3486736 0.628657 0.09124678 0.7027595 0.4765377 0.6817854 0.5135577 0.5638263 0.3486736 0.8525051 0.4700976 0.8705516 0.5069039 0.6817854 0.5135577 0.7894663 0.342839 0.803659 0.3382837 0.7916272 0.3691628 0.6064389 0.3428487 0.6256527 0.3399884 0.7086257 0.4620896 0.766332 0.3591173 0.7598805 0.3713641 0.7422546 0.3404908 0.6646647 0.1325481 0.6875563 0.1388314 0.6256527 0.3399884 0.7591677 0.3424618 0.7422546 0.3404908 0.7703549 0.3051162 0.7747753 0.3467587 0.7749971 0.3472892 0.7746685 0.3477144 0.7746685 0.3477144 0.7741465 0.3474811 0.7747753 0.3467587 0.7735401 0.3287332 0.7894663 0.342839 0.775011 0.3472906 0.766332 0.3591173 0.7741465 0.3474811 0.7746685 0.3477144 0.7591677 0.3424618 0.7735401 0.3287332 0.7747753 0.3467584 0.7833267 0.3587459 0.7746685 0.3477144 0.775011 0.3472906 0.803659 0.3382837 0.9197539 0.3410326 0.8438596 0.4578986 0.7703549 0.3051162 0.8830605 0.1768411 0.9197539 0.3410326 0.7422546 0.3404908 0.6256527 0.3399884 0.6875563 0.1388314 0.7422546 0.3404908 0.7598805 0.3713641 0.7086257 0.4620896 0.7916272 0.3691628 0.8438596 0.4578986 0.7086257 0.4620896 0.8525051 0.4700976 0.8438596 0.4578986 0.9197539 0.3410326 0.7833267 0.3587459 0.7916272 0.3691628 0.7598805 0.3713641 0.7027595 0.4765377 0.7086257 0.4620896 0.8438596 0.4578986 0.7735401 0.3287332 0.7703549 0.3051162 0.803659 0.3382837 0.9334297 0.3426327 0.9197539 0.3410326 0.8830605 0.1768411 0.8982819 0.8408991 0.930898 0.8847386 0.8278986 0.9707199 0.8278986 0.9707199 0.930898 0.8847386 0.9323527 0.9373541 0.7615454 0.9133903 0.7891806 0.8301168 0.8432822 0.8208058 0.8432822 0.8208058 0.8982819 0.8408991 0.805401 0.9489521 0.8432822 0.8208058 0.7891806 0.8301168 0.7544732 0.8001391 0.9303133 0.8133618 0.8534098 0.7743514 0.8924201 0.6974478 0.930898 0.8847386 0.8982819 0.8408991 0.9303133 0.8133618 0.8432822 0.8208058 0.8534098 0.7743514 0.9303133 0.8133618 0.930898 0.8847386 0.9693237 0.8813034 0.9559497 0.9576272</float_array>
          <technique_common>
            <accessor source="#mesh0_007-mesh-map-0-array" count="312" stride="2">
              <param name="S" type="float"/>
              <param name="T" type="float"/>
            </accessor>
          </technique_common>
        </source>
        <vertices id="mesh0_007-mesh-vertices">
          <input semantic="POSITION" source="#mesh0_007-mesh-positions"/>
        </vertices>
        <triangles material="material0_004-material" count="104">
          <input semantic="VERTEX" source="#mesh0_007-mesh-vertices" offset="0"/>
          <input semantic="NORMAL" source="#mesh0_007-mesh-normals" offset="1"/>
          <input semantic="TEXCOORD" source="#mesh0_007-mesh-map-0" offset="2" set="0"/>
          <p>1 0 0 2 0 1 0 0 2 3 1 3 4 1 4 2 1 5 5 2 6 6 2 7 4 2 8 7 3 9 24 3 10 9 3 11 7 4 12 8 4 13 6 4 14 9 5 15 0 5 16 8 5 17 4 6 18 11 6 19 2 6 20 11 7 21 13 7 22 14 7 23 0 8 24 14 8 25 8 8 26 2 9 27 10 9 28 0 9 29 6 10 30 12 10 31 4 10 32 8 11 33 13 11 34 6 11 35 19 12 36 33 12 37 34 12 38 3 13 39 22 13 40 5 13 41 9 14 42 21 14 43 1 14 44 1 15 45 20 15 46 3 15 47 5 16 48 23 16 49 7 16 50 25 17 51 21 17 52 26 17 53 27 18 54 20 18 55 25 18 56 28 19 57 22 19 58 27 19 59 29 20 60 23 20 61 28 20 62 26 21 63 24 21 64 29 21 65 15 22 66 41 22 67 16 22 68 28 23 69 39 23 70 29 23 71 19 24 72 43 24 73 18 24 74 27 25 75 38 25 76 28 25 77 18 26 78 42 26 79 17 26 80 34 27 81 33 27 82 32 27 83 17 28 84 30 28 85 32 28 86 19 29 87 31 29 88 16 29 89 18 30 90 32 30 91 33 30 92 16 31 93 30 31 94 15 31 95 40 32 96 36 32 97 41 32 98 42 33 99 35 33 100 40 33 101 43 34 102 37 34 103 42 34 104 43 35 105 39 35 106 38 35 107 41 36 108 39 36 109 44 36 110 26 37 111 35 37 112 25 37 113 16 38 114 44 38 115 19 38 116 29 39 117 36 39 118 26 39 119 17 40 120 40 40 121 15 40 122 25 41 123 37 41 124 27 41 125 49 42 126 46 42 127 45 42 128 46 43 129 51 43 130 47 43 131 47 44 132 52 44 133 48 44 134 52 45 135 45 45 136 48 45 137 52 46 138 55 46 139 56 46 140 53 47 141 55 47 142 54 47 143 50 48 144 53 48 145 54 48 146 52 49 147 53 49 148 49 49 149 50 50 150 55 50 151 51 50 152 1 51 153 3 51 154 2 51 155 3 52 156 5 52 157 4 52 158 5 53 159 7 53 160 6 53 161 7 54 162 23 54 163 24 54 164 7 55 165 9 55 166 8 55 167 9 56 168 1 56 169 0 56 170 4 57 171 12 57 172 11 57 173 14 58 174 10 58 175 11 58 176 11 59 177 12 59 178 13 59 179 0 60 180 10 60 181 14 60 182 2 61 183 11 61 184 10 61 185 6 62 186 13 62 187 12 62 188 8 63 189 14 63 190 13 63 191 19 64 192 18 64 193 33 64 194 3 65 195 20 65 196 22 65 197 9 66 198 24 66 199 21 66 200 1 67 201 21 67 202 20 67 203 5 68 204 22 68 205 23 68 206 25 69 207 20 69 208 21 69 209 27 70 210 22 70 211 20 70 212 28 71 213 23 71 214 22 71 215 29 72 216 24 72 217 23 72 218 26 73 219 21 73 220 24 73 221 15 74 222 40 74 223 41 74 224 28 75 225 38 75 226 39 75 227 19 76 228 44 76 229 43 76 230 27 25 231 37 25 232 38 25 233 18 26 234 43 26 235 42 26 236 32 77 237 30 77 238 31 77 239 31 78 240 34 78 241 32 78 242 17 79 243 15 79 244 30 79 245 19 80 246 34 80 247 31 80 248 18 81 249 17 81 250 32 81 251 16 82 252 31 82 253 30 82 254 40 83 255 35 83 256 36 83 257 42 84 258 37 84 259 35 84 260 43 34 261 38 34 262 37 34 263 43 85 264 44 85 265 39 85 266 41 86 267 36 86 268 39 86 269 26 87 270 36 87 271 35 87 272 16 88 273 41 88 274 44 88 275 29 89 276 39 89 277 36 89 278 17 90 279 42 90 280 40 90 281 25 41 282 35 41 283 37 41 284 49 91 285 50 91 286 46 91 287 46 92 288 50 92 289 51 92 290 47 93 291 51 93 292 52 93 293 52 94 294 49 94 295 45 94 296 52 95 297 51 95 298 55 95 299 53 96 300 56 96 301 55 96 302 50 97 303 49 97 304 53 97 305 52 98 306 56 98 307 53 98 308 50 99 309 54 99 310 55 99 311</p>
        </triangles>
      </mesh>
    </geometry>
  </library_geometries>
  <library_visual_scenes>
    <visual_scene id="Scene" name="Scene">
      <node id="Cylinder_001" name="Cylinder.001" type="NODE">
        <matrix sid="transform">1 0 0 0 0 1 0 0 0 0 1 0 0 0 0 1</matrix>
        <instance_geometry url="#mesh0_007-mesh" name="Cylinder.001">
          <bind_material>
            <technique_common>
              <instance_material symbol="material0_004-material" target="#material0_004-material">
                <bind_vertex_input semantic="mesh0_004-mesh-map-0" input_semantic="TEXCOORD" input_set="0"/>
              </instance_material>
            </technique_common>
          </bind_material>
        </instance_geometry>
      </node>
    </visual_scene>
  </library_visual_scenes>
  <scene>
    <instance_visual_scene url="#Scene"/>
  </scene>
</COLLADA>