<?xml version="1.0" encoding="utf-8"?>
<COLLADA xmlns="http://www.collada.org/2005/11/COLLADASchema" version="1.4.1" xmlns:xsi="http://www.w3.org/2001/XMLSchema-instance">
  <asset>
    <contributor>
      <author>Blender User</author>
      <authoring_tool>Blender 2.93.1 commit date:2021-06-22, commit time:05:57, hash:1b8d33b18c2f</authoring_tool>
    </contributor>
    <created>2021-08-14T02:14:48</created>
    <modified>2021-08-14T02:14:48</modified>
    <unit name="meter" meter="1"/>
    <up_axis>Z_UP</up_axis>
  </asset>
  <library_effects>
    <effect id="Material_013-effect">
      <profile_COMMON>
        <technique sid="common">
          <lambert>
            <emission>
              <color sid="emission">0 0 0 1</color>
            </emission>
            <diffuse>
              <color sid="diffuse">0.2576753 0.02731289 0.3298915 1</color>
            </diffuse>
            <index_of_refraction>
              <float sid="ior">1.45</float>
            </index_of_refraction>
          </lambert>
        </technique>
      </profile_COMMON>
    </effect>
  </library_effects>
  <library_images/>
  <library_materials>
    <material id="Material_013-material" name="Material.013">
      <instance_effect url="#Material_013-effect"/>
    </material>
  </library_materials>
  <library_geometries>
    <geometry id="Cylinder_033-mesh" name="Cylinder.033">
      <mesh>
        <source id="Cylinder_033-mesh-positions">
          <float_array id="Cylinder_033-mesh-positions-array" count="765">-0.4793687 -0.2191446 -0.1715247 -0.2524983 0.3485302 -0.2333283 -0.4747457 -0.217445 -0.1472816 -0.4835644 -0.2047173 -0.09863317 -0.2560709 0.3536865 -0.2136199 -0.5138235 -0.1827346 -0.06058621 -0.2683294 0.362592 -0.1982065 -0.5574149 -0.157387 -0.04333555 -0.2859891 0.3728608 -0.191218 -0.6026585 -0.1354663 -0.05150353 -0.304318 0.3817412 -0.194527 -0.2644853 0.1773885 -0.24379 -0.2657918 0.175834 -0.2157095 -0.2758767 0.1898356 -0.1634671 -0.3080291 0.213194 -0.1230394 -0.3543483 0.2401278 -0.1047093 -0.4024229 0.2634201 -0.1133884 -0.3243966 0.06790083 -0.2176607 -0.2997383 0.1086141 -0.2009494 -0.3111277 0.1226309 -0.1523059 -0.3430231 0.1458025 -0.1122012 -0.3889722 0.1725211 -0.09401774 -0.4366625 0.1956273 -0.1026276 -0.2415233 0.269423 -0.2313523 -0.2495423 0.2809965 -0.1871157 -0.2770573 0.3009856 -0.1525193 -0.3166953 0.3240345 -0.1368329 -0.3578358 0.3439671 -0.1442602 -0.2354564 0.3062549 -0.23201 -0.242053 0.3157756 -0.1956195 -0.2646874 0.3322191 -0.1671596 -0.2972949 0.3511797 -0.1542557 -0.3311382 0.3675769 -0.1603657 -0.2263827 0.1303043 -0.2936349 -0.2455305 0.1086963 -0.3012061 -0.2247318 0.1675145 -0.284329 -0.2421113 0.1797664 -0.2630921 -0.2641982 0.09781658 -0.2905578 -0.3008036 0.08067786 -0.2690092 -0.2853413 0.09834873 -0.219332 -0.2201106 0.1526262 -0.2926919 -0.2878434 0.08750617 -0.2312886 -0.2509132 0.1144449 -0.2576646 -0.2335948 0.1239756 -0.2750076 -0.247945 0.1333269 -0.246526 -0.2313245 0.1426315 -0.2666594 -0.244714 0.1589401 -0.2421541 -0.283272 0.1412431 -0.2081361 -0.2299278 0.1623366 -0.2634803 -0.280065 0.08931398 -0.2813885 -0.2666594 0.1275116 -0.227903 -0.2664853 0.1041041 -0.243034 -0.2596783 0.1610735 -0.2263213 -0.3337429 0.0650978 -0.2496439 -0.6352854 -0.1233617 -0.07966613 -0.3189979 0.3869963 -0.2081406 -0.259611 0.3487554 -0.2536221 -0.4872279 -0.2187362 -0.1930619 -0.5036442 -0.2133136 -0.2081248 -0.2751733 0.3539767 -0.2675155 -0.5234989 -0.2057345 -0.2207866 -0.5692279 -0.184141 -0.2277878 -0.2936989 0.3627247 -0.2703518 -0.612591 -0.1590107 -0.2094981 -0.3112661 0.3729055 -0.2629423 -0.6419691 -0.1370772 -0.1708179 -0.3231676 0.3817911 -0.2472721 -0.6494903 -0.1242173 -0.1221117 -0.3262146 0.3870009 -0.2275405 -0.4389645 0.2767322 -0.1461375 -0.281997 0.1794452 -0.2657479 -0.2951751 0.1847602 -0.290061 -0.3213423 0.1891773 -0.2994629 -0.370647 0.2125994 -0.3063524 -0.4167234 0.2393023 -0.2869179 -0.4479398 0.2626084 -0.2458175 -0.4559318 0.2762729 -0.1940637 -0.3585584 0.0761063 -0.2691665 -0.3579627 0.1225996 -0.2887346 -0.4045284 0.1450657 -0.2931264 -0.4502367 0.1715552 -0.2738474 -0.4812038 0.194675 -0.2330753 -0.4891316 0.2082303 -0.1817351 -0.4724965 0.2088018 -0.1347193 -0.2561718 0.2696123 -0.2749183 -0.2897863 0.2810158 -0.3041182 -0.3313681 0.3006508 -0.3104844 -0.3707987 0.3235022 -0.2938533 -0.3975124 0.3434467 -0.2586811 -0.4043515 0.3551403 -0.214392 -0.3574088 0.3770795 -0.1842437 -0.2477548 0.3064702 -0.2682225 -0.275655 0.3159107 -0.2926174 -0.3098613 0.332063 -0.2978544 -0.3422979 0.3508613 -0.2841731 -0.3642734 0.3672681 -0.2552395 -0.3698995 0.3768875 -0.2188061 -0.2315452 0.1299643 -0.3070938 -0.2416176 0.1339637 -0.3166046 -0.2440159 0.1721466 -0.3134039 -0.2330713 0.1689332 -0.2998732 -0.2684186 0.1860853 -0.3027556 -0.2538952 0.1826291 -0.2838796 -0.3370493 0.1107689 -0.2972924 -0.2270581 0.1534488 -0.3063286 -0.2367461 0.1566221 -0.317773 -0.3287887 0.09734123 -0.2930218 -0.28627 0.1229376 -0.3109717 -0.2622753 0.1308647 -0.3182491 -0.2924442 0.1440156 -0.3136176 -0.2662351 0.151017 -0.319294 -0.2914172 0.1701581 -0.3125686 -0.3401716 0.1549103 -0.2939236 -0.265713 0.1709322 -0.3174336 -0.3176198 0.1397523 -0.3047358 -0.3072281 0.1138905 -0.304462 -0.3114217 0.1735022 -0.3043349 -0.3894693 0.3554462 -0.1728323 -0.2871731 0.1851565 -0.2938575 -0.2720696 0.18057 -0.2721533 0.4743464 -0.2196832 -0.1724042 0.2475183 0.3480138 -0.234159 0.469729 -0.2179831 -0.1481602 0.4785596 -0.2052564 -0.09951353 0.2510957 0.3531698 -0.2144514 0.5088288 -0.1832765 -0.06147325 0.2633582 0.362074 -0.1990406 0.5524265 -0.1579331 -0.04423177 0.2810205 0.3723411 -0.1920558 0.5976705 -0.1360169 -0.05240964 0.2993496 0.3812198 -0.1953688 0.2594863 0.176871 -0.2446232 0.2607989 0.1753164 -0.2165431 0.2708961 0.189317 -0.1643028 0.3030598 0.2126721 -0.1238821 0.3493854 0.2396014 -0.1055619 0.3974605 0.262889 -0.1142514 0.3193927 0.06737726 -0.218507 0.2947418 0.1080932 -0.2017903 0.3061431 0.1221088 -0.1531492 0.3380495 0.1452773 -0.1130515 0.384005 0.1719913 -0.09487783 0.4316959 0.1950929 -0.1034978 0.232478 0.2563568 -0.2278257 0.2409051 0.2685022 -0.1814013 0.2697915 0.2894778 -0.1450988 0.3113976 0.3136634 -0.1286453 0.3545745 0.3345783 -0.1364493 0.2304726 0.3057402 -0.2328369 0.237078 0.3152602 -0.1964479 0.2597203 0.3317015 -0.167993 0.2923322 0.350659 -0.1550961 0.3261758 0.3670529 -0.1612132 0.2213686 0.1297904 -0.2944601 0.2405126 0.1081806 -0.3020352 0.2197231 0.1670008 -0.2851538 0.2371084 0.179251 -0.2639204 0.2591814 0.09729903 -0.291391 0.2957898 0.0801568 -0.2698504 0.2803398 0.09782916 -0.2201699 0.2150987 0.152113 -0.2935156 0.2828385 0.08698636 -0.2321268 0.2459051 0.1139286 -0.2584949 0.2285839 0.1234611 -0.2758341 0.2429413 0.1328109 -0.2473557 0.2263172 0.1421172 -0.2674854 0.2397136 0.1584244 -0.2429832 0.2782773 0.1407237 -0.2089735 0.2249232 0.1618224 -0.2643061 0.2750494 0.08879494 -0.2822252 0.2616592 0.1269938 -0.2287366 0.2614794 0.1035863 -0.2438676 0.2546815 0.1605563 -0.2271535 0.3287317 0.06457352 -0.2504921 0.6302923 -0.1239156 -0.08057928 0.3140269 0.3864733 -0.2089856 0.2546267 0.3482383 -0.2544543 0.4822012 -0.2192755 -0.1939432 0.4986146 -0.2138546 -0.2090096 0.2701865 0.3534582 -0.2683511 0.5184674 -0.2062774 -0.2216758 0.5641971 -0.1846883 -0.2286868 0.2887123 0.3622043 -0.2711914 0.6075665 -0.1595622 -0.2104063 0.3062821 0.3723831 -0.2637856 0.6369553 -0.1376317 -0.1717325 0.3181878 0.3812677 -0.2481181 0.644488 -0.1247724 -0.123028 0.3212397 0.3864772 -0.2283871 0.4339964 0.2761974 -0.1470085 0.2769935 0.1789259 -0.2665849 0.290167 0.1842396 -0.2909009 0.3163325 0.1886542 -0.3003084 0.365638 0.2120715 -0.3072085 0.4117214 0.2387698 -0.287784 0.4429488 0.2620729 -0.2466902 0.4509531 0.2757366 -0.1949381 0.3535441 0.07557964 -0.2700201 0.3529489 0.1220729 -0.289588 0.3995156 0.1445345 -0.2939898 0.4452307 0.1710194 -0.2747206 0.4762087 0.1941363 -0.2339552 0.484149 0.2076908 -0.1826168 0.467524 0.2082639 -0.1355975 0.2478418 0.256554 -0.2735513 0.2831143 0.2685183 -0.3042039 0.3267549 0.289121 -0.3108946 0.368143 0.3130992 -0.2934494 0.396189 0.3340281 -0.2565425 0.4033777 0.3462997 -0.2100628 0.3524422 0.3765528 -0.1850971 0.2427631 0.3059543 -0.2690523 0.270659 0.315392 -0.293453 0.3048658 0.331541 -0.2986974 0.3373073 0.350336 -0.2850231 0.3592905 0.3667407 -0.2560942 0.3649253 0.3763595 -0.219662 0.226528 0.1294499 -0.3079199 0.2365989 0.1334483 -0.3174329 0.2390015 0.1716311 -0.3142327 0.2280596 0.1684187 -0.3006997 0.2634077 0.1855674 -0.3035897 0.2488881 0.1821125 -0.2847106 0.3320323 0.1102442 -0.2981412 0.2220433 0.1529349 -0.3071538 0.2317291 0.1561071 -0.3186003 0.3237713 0.09681743 -0.2938688 0.2812513 0.1224179 -0.3118098 0.2572558 0.1303473 -0.3190819 0.2874271 0.1434953 -0.3144568 0.2612174 0.1504992 -0.3201276 0.2864026 0.1696379 -0.3134075 0.3351597 0.1543853 -0.2947732 0.2606976 0.1704146 -0.3182671 0.312604 0.1392296 -0.3055804 0.30221 0.1133687 -0.3053044 0.3064093 0.17298 -0.3051783 0.3877684 0.3466223 -0.1664427 0.2820583 0.184642 -0.294746 0.2505201 0.1778244 -0.2523552 0.2670649 0.1800517 -0.2729882 -0.2555465 0.1783385 -0.2515016 -0.2608791 0.2406455 -0.1771255 -0.2913936 0.2628139 -0.1387573 -0.3353531 0.2883756 -0.1213608 -0.3809788 0.3104814 -0.1295979 -0.4158492 0.323161 -0.1609655 -0.2516287 0.2275716 -0.2264598 -0.3512021 0.262341 -0.3133054 -0.3949314 0.2876836 -0.2948612 -0.4245575 0.3098025 -0.2558544 -0.4321422 0.3227709 -0.2067371 -0.267418 0.2294765 -0.2743402 -0.3047297 0.2403265 -0.3065201 -0.2330196 0.2988865 -0.2510893</float_array>
          <technique_common>
            <accessor source="#Cylinder_033-mesh-positions-array" count="255" stride="3">
              <param name="X" type="float"/>
              <param name="Y" type="float"/>
              <param name="Z" type="float"/>
            </accessor>
          </technique_common>
        </source>
        <source id="Cylinder_033-mesh-normals">
          <float_array id="Cylinder_033-mesh-normals-array" count="1428">0.8840037 0.3534907 -0.3059117 0.9244794 0.3748403 0.06951642 0.8026202 0.4707252 0.3663585 0.5726116 0.6186026 0.5380026 0.2824559 0.7872322 0.5481644 -0.008186101 0.9259694 0.37751 -0.5312276 0.3887581 0.7527713 -0.08135694 0.1962023 0.9771826 0.3515838 -0.03209799 0.9356061 0.6847655 -0.2452066 0.6862725 0.8817413 -0.3849032 0.2727305 0.8108229 -0.4993281 -0.3053486 0.8635005 -0.4871693 -0.1305105 0.8701363 -0.4147083 0.2662326 0.6835668 -0.2474976 0.686645 0.3501062 -0.03495389 0.9360576 -0.08316576 0.1926671 0.9777336 -0.5201079 0.3789497 0.7654313 -0.4130954 0.5894641 0.6941789 0.02181816 0.3883144 0.9212687 0.4396688 0.1538942 0.8848773 0.7653228 -0.05627632 0.6411818 0.9526228 -0.2036039 0.2259539 0.9147207 -0.2607543 -0.308696 -0.2842522 0.7384992 0.6114079 0.08378231 0.4951524 0.8647571 0.4659011 0.2175133 0.8576853 0.7785503 -0.01424431 0.6274205 0.9641675 -0.1549739 0.2153235 0.9354763 -0.1597203 -0.3152359 0.8630039 -0.2233496 -0.4531437 0.4541976 0.8804242 -0.1362282 0.7651563 -0.5803366 -0.2788286 0.7779282 0.5364889 0.3271201 0.5471122 -0.8149721 0.1910207 0.7954054 0.4689546 -0.3839425 0.7372753 -0.6732068 0.05672746 0.604793 -0.7764022 0.1772717 0.6893845 -0.60253 0.4021278 0.9250419 -0.2711635 0.266022 0.7975921 -0.3245735 0.5084278 0.9708268 -0.103693 0.2162019 0.8236887 -0.1467472 0.5477246 0.6991556 -0.2032314 0.6854767 0.6896739 -0.1765546 0.7022667 0.6361326 -0.7683024 0.07104152 0.7092665 -0.3789616 0.5944149 0.6672037 -0.2180879 0.7122339 0.5467228 -0.6740078 0.4967975 0.7094424 -0.2098332 0.6728012 0.9371892 0.343158 0.06260234 0.7029368 -0.1786609 0.6884476 0.4681141 -0.5630627 0.6810504 0.5842068 0.6670872 0.4622738 0.4341872 -0.9007159 0.01386994 0.6762999 0.3995365 -0.6188611 0.3605076 0.5103089 -0.7807812 0.05691975 0.6498402 -0.7579367 -0.1690457 0.7967468 -0.580188 -0.2698568 0.9198965 -0.2845485 -0.2114762 0.9748002 0.07101082 -0.8376622 0.4623638 0.2907606 -0.8888448 0.3901619 -0.2402681 -0.7111501 0.2231703 -0.6666788 -0.3830462 0.01127994 -0.9236604 0.04989141 -0.1850923 -0.9814539 -0.3012146 0.776207 -0.5538705 0.5283786 -0.4314858 -0.7311882 0.3928968 -0.3741305 -0.8400349 0.04355621 -0.2234719 -0.9737368 -0.3841906 0.008975684 -0.9232102 -0.7125647 0.2202996 -0.6661229 -0.8905778 0.3866055 -0.2395986 -0.8460963 0.4572512 0.273939 -0.704643 0.6658666 0.2451528 -0.7608782 0.5887045 -0.2729312 -0.5928949 0.418815 -0.6878006 -0.273662 0.2107859 -0.9384447 0.1465876 0.004556417 -0.9891873 -0.5092005 0.8424307 0.176141 -0.5369989 0.7914733 -0.2918944 -0.3910102 0.6410129 -0.6604646 -0.1202573 0.4401224 -0.8898486 0.245153 0.2124795 -0.9459136 0.6528599 -0.01478159 -0.7573345 0.7228271 -0.1896719 -0.664489 0.4317812 0.8858089 -0.1700223 0.0155974 0.9804143 0.1963276 0.474443 -0.5105123 -0.717134 0.09205621 0.7012351 -0.7069619 -0.07186985 -0.6662908 -0.7422206 0.7330242 0.4839408 -0.4779925 0.1461248 -0.5312169 -0.8345395 -0.03081661 -0.6237331 -0.7810298 -0.3662552 -0.1568766 -0.9171952 0.06373101 -0.06505209 -0.9958447 -0.1649264 -0.1702609 -0.9714992 -0.001691102 0.2701755 -0.9628097 -0.1879052 0.09623777 -0.9774609 -0.3705253 0.05370527 -0.9272685 -0.3856635 0.08174127 -0.9190115 0.001063883 -0.8209811 -0.5709545 -0.2508012 -0.1109574 -0.9616586 -0.4096567 0.04057264 -0.9113372 -0.328512 -0.4637789 -0.8227935 -0.3558885 0.0460599 -0.9333927 0.3672732 0.4800555 -0.7966538 -0.3681663 0.07861548 -0.9264304 -0.5107254 -0.3279454 -0.7947398 -0.08886528 0.828758 -0.5525065 0.1041183 -0.8038623 -0.5856321 0.6121001 -0.1793336 -0.7701772 0.4240931 0.8949325 -0.1387119 -0.3012228 0.7762061 -0.5538672 0.01559436 0.980414 0.1963292 -0.8840353 0.3535782 -0.3057191 -0.9244279 0.374931 0.06971359 -0.8024964 0.4708035 0.3665291 -0.5724378 0.6186544 0.538128 -0.2822566 0.7872611 0.5482257 0.008360862 0.9259709 0.3775025 0.5314341 0.3887068 0.7526519 0.08158439 0.1961922 0.9771657 -0.3513877 -0.03206521 0.9356808 -0.68464 -0.2451398 0.6864216 -0.8817241 -0.3848133 0.2729129 -0.4928205 0.5854795 0.6436938 -0.8109354 -0.4992489 -0.3051791 -0.8635782 -0.4870836 -0.130317 -0.8666735 -0.4211018 0.2674888 -0.6834427 -0.2474305 0.6867928 -0.3499104 -0.03492087 0.9361321 0.0833978 0.1926602 0.9777151 0.5203121 0.3788992 0.7653175 0.4672913 0.5043773 0.7261147 0.02267873 0.3080657 0.9510949 -0.4047643 0.07639151 0.9112246 -0.7357129 -0.1353533 0.663631 -0.9232337 -0.2870842 0.2553867 -0.7239927 -0.3264162 -0.60769 0.2966449 0.7294412 0.6163744 -0.1105877 0.5396987 0.8345631 -0.5022321 0.3165312 0.804718 -0.8092818 0.1188793 0.5752658 -0.9827074 -0.02124291 0.1839429 -0.945623 -0.06825178 -0.3180234 -0.8631232 -0.2232659 -0.4529578 -0.4541406 0.8804686 -0.1361306 0.02859187 0.9911133 0.1299121 -0.7652713 -0.5802643 -0.2786633 -0.7778047 0.5365647 0.3272895 -0.5471469 -0.814921 0.1911385 -0.795436 0.4690394 -0.3837755 -0.7373284 -0.6731351 0.05688589 -0.6048315 -0.776343 0.1773993 -0.6612698 -0.4036459 0.6322913 -0.917576 -0.2700688 0.2917484 -0.7889795 -0.3993185 0.4669649 -0.9707891 -0.1035976 0.2164166 -0.8201708 -0.1951627 0.5378025 -0.6990242 -0.2031592 0.6856322 -0.6895368 -0.1764879 0.7024181 -0.6361917 -0.7682408 0.07117837 -0.7542855 -0.3523245 0.5540044 -0.6670689 -0.2180205 0.7123807 -0.546682 -0.6739532 0.4969164 -0.7093205 -0.2097616 0.6729521 -0.9371411 0.3432519 0.06280666 -0.7212978 -0.181486 0.6684253 -0.4680226 -0.5630173 0.6811509 -0.584042 0.6671436 0.4624009 -0.4342718 -0.9006738 0.01396381 -0.6763902 0.3996037 -0.618719 -0.3606254 0.5103426 -0.7807047 -0.05702143 0.6498484 -0.7579219 0.1689957 0.7967315 -0.5802236 0.2698863 0.9198704 -0.2846049 0.211587 0.9747796 0.07096302 0.8377704 0.462279 0.2905837 0.8888314 0.390074 -0.2404603 0.7110287 0.2230998 -0.6668318 0.3828495 0.01124411 -0.9237424 -0.05012047 -0.1850861 -0.9814434 0.3011895 0.7761688 -0.5539378 -0.5285804 -0.4314349 -0.7310723 -0.39398 -0.3723996 -0.8402966 -0.04378718 -0.2234672 -0.9737275 0.3839944 0.008939445 -0.9232922 0.7124412 0.2202285 -0.6662785 0.8905643 0.3865193 -0.239788 0.8461997 0.4571682 0.2737581 0.7714262 0.5774228 0.2673664 0.825554 0.5008951 -0.2599323 0.6519162 0.3301802 -0.6826319 0.3259707 0.1196358 -0.9377796 -0.09667295 -0.08856564 -0.9913681 0.5705444 0.7969738 0.1982727 0.6333959 0.7183859 -0.2876307 0.4819177 0.5528976 -0.6797497 0.1799274 0.3564625 -0.916821 -0.2234429 0.1611123 -0.9613096 -0.6561896 0.001262664 -0.7545951 -0.7229909 -0.1896118 -0.6643279 -0.4317307 0.885852 -0.1699264 -0.0421316 0.9805957 0.1914606 -0.4746454 -0.5104641 -0.7170343 -0.09213691 0.7012435 -0.706943 0.07164549 -0.6663019 -0.7422323 -0.7330827 0.4840133 -0.4778293 -0.1463622 -0.5312023 -0.8345072 0.0305857 -0.6237362 -0.7810364 0.3660485 -0.1569128 -0.9172714 -0.05928826 -0.04010272 -0.9974351 0.1881954 -0.08775651 -0.9782032 -0.1541988 0.3338648 -0.9299231 0.1869189 0.04670977 -0.9812642 0.370329 0.05367034 -0.9273489 0.3854715 0.08170282 -0.9190955 -0.001265823 -0.82098 -0.5709557 0.309172 -0.1343109 -0.941474 0.4094615 0.04053145 -0.9114267 0.3282811 -0.4638169 -0.8228642 0.3556864 0.04602336 -0.9334715 -0.3673995 0.4800876 -0.7965762 0.3679701 0.07857942 -0.9265114 0.5105182 -0.3279976 -0.7948515 0.08882796 0.8287477 -0.5525276 -0.1043232 -0.803852 -0.5856097 -0.3071738 -0.1734046 -0.9357218 -0.4240425 0.894971 -0.1386185 0.1374126 0.7873274 -0.6010271 -0.6139795 0.5934315 0.5204501 0.02858924 0.9911135 0.1299105 -0.01539623 0.9804357 0.1962367 -0.02848601 0.9911203 0.1298807 0.4930097 0.5854314 0.6435927 0.4930078 0.5854306 0.6435949 -0.02848899 0.9911196 0.129886 0.2957948 -0.2241879 -0.9285717 0.06334841 -0.1565652 -0.9856339 -0.379229 0.01892852 -0.9251093 -0.7159529 0.2133436 -0.6647527 -0.8891797 0.3894754 -0.2401427 -0.8194677 0.4970372 0.2853536 0.7269538 -0.3164911 -0.6094026 0.9480218 -0.2098101 0.2392373 0.7660936 -0.05396342 0.6404597 0.4324805 0.137286 0.8911303 -0.01055693 0.3299362 0.9439442 -0.4854909 0.4741939 0.7344649 -0.3606295 0.5103393 -0.7807049 0.1689955 0.7967291 -0.580227 0.2045946 0.9758721 0.07625484 -0.8881249 0.348751 -0.2993444 -0.8024939 0.470804 0.3665341 -0.2822594 0.7872607 0.5482246 -0.6812227 0.4022885 -0.6116367 -0.05700802 0.6498479 -0.7579234 0.2698826 0.9198689 -0.2846133 -0.9244282 0.3749305 0.06971251 -0.4408886 0.8846958 -0.1514286 -0.4455201 0.8817574 -0.1549698 -0.4489607 0.8795437 -0.1575988 -0.4536971 0.8764492 -0.1612318 -0.4489569 0.8795464 -0.1575945 -0.453698 0.8764496 -0.1612275 -0.4718716 0.8640729 -0.1752579 -0.4455191 0.8817593 -0.1549627 -0.4408864 0.8846983 -0.1514208 0.01019591 0.9291823 0.3694812 -0.5724381 0.6186543 0.5381278 -0.6834428 -0.2474308 0.6867925 -0.7357179 -0.1353524 0.6636256 -0.9827085 -0.02124011 0.1839376 -0.6846397 -0.2451357 0.6864234 -0.9229871 -0.2966411 0.2451508 -0.8606346 -0.3988054 0.3166425 -0.8595889 -0.4007949 0.3169707 -0.8092776 0.1188886 0.5752698 -0.8691369 -0.483519 -0.1039736 -0.7520977 -0.34317 0.5626575 -0.4559292 -0.8882991 -0.05525684 -0.6613881 -0.1020585 -0.7430679 -0.8471397 -0.4695426 0.2487652 -0.930184 -0.238063 0.2794349 -0.9223783 -0.1647412 -0.3493977 -0.6979119 -0.4419901 0.563528 -0.3679152 -0.3647082 -0.8553516 -0.03121906 -0.8038702 -0.593985 -0.4532361 -0.3955554 -0.7988198 -0.5688451 -0.803283 0.176499 -0.6078059 -0.7890545 0.08924806 -0.3989824 -0.9165016 0.02894574 0.04804217 -0.6551227 -0.7539936 -0.04856485 -0.6547392 -0.7542932 -0.07926893 -0.6344844 -0.7688603 -0.9444413 -0.07092094 -0.3209374 -0.9448195 -0.3265514 0.02608525 -0.9183253 -0.2466046 -0.3096206 -0.6119604 -0.1730254 -0.7717296 -0.7925404 -0.3428792 -0.5042953 -0.657972 -0.002118766 -0.7530394 -0.1044645 -0.1000561 -0.9894827 0.1799284 0.3564632 -0.9168205 -0.2234435 0.1611118 -0.9613096 0.3259679 0.1196357 -0.9377805 0.3828501 0.01124507 -0.9237421 -0.04921329 -0.1855563 -0.9814005 -9.40665e-5 -0.192125 -0.9813705 9.08715e-4 -0.1941269 -0.9809761 0.3839951 0.008939325 -0.9232919 0.4819216 0.5528972 -0.6797473 0.7124418 0.2202293 -0.6662776 0.8255555 0.5008941 -0.2599296 0.8905639 0.3865188 -0.23979 0.8888326 0.3900712 -0.2404603 0.6519156 0.3301771 -0.6826339 0.7110301 0.2231 -0.6668304 0.6333957 0.7183852 -0.287633 0.7687645 0.5793624 0.2708145 0.8377111 0.461537 0.2919312 0.469071 0.5073843 0.7228649 0.5327365 0.3882902 0.7519459 0.5714164 0.7954319 0.2019194 0.2927738 0.7302618 0.6172531 0.8391647 0.4594086 0.2911122 0.5328843 0.3858479 0.7530974 -0.3513897 -0.03206461 0.9356801 -0.110587 0.5397009 0.8345618 -0.3499076 -0.03491872 0.9361333 0.02268248 0.3080656 0.9510947 -0.5022377 0.3165316 0.8047143 0.083395 0.192659 0.9777157 0.08158528 0.1961939 0.9771652 -0.404762 0.0763964 0.9112252 -0.6972175 -0.2051185 0.6868873 -0.7953544 -0.1509819 0.5870401 -0.577839 0.3881115 0.7179635 -0.7310398 0.4791417 -0.4858025 -0.4520027 0.8771112 -0.1623876 -0.9098222 0.05129933 0.4118157 -0.4541662 0.876591 -0.1591269 -0.8011333 0.4623082 -0.3800746 -0.008209407 0.9912446 0.1317828 -0.02686828 0.9867653 0.1599133 0.01511764 0.9943473 0.1050945 -0.01539498 0.9804356 0.1962375 0.2350474 0.09648907 -0.9671828 -0.08988994 -0.07050347 -0.9934532 0.3628336 0.614042 -0.700931 0.227885 -0.1867813 -0.9556052 -0.03403264 0.09208101 -0.9951699 0.2179411 -0.1842215 -0.9584175 0.3397412 0.05100685 -0.9391348 -0.04594635 -0.2771187 -0.9597365 0.4409365 0.8846563 -0.1515205 0.4469764 0.8812465 -0.1536774 0.4410535 0.8842622 -0.1534675 0.4455813 0.8817096 -0.1550655 0.4490109 0.8795018 -0.157689 0.4537493 0.8764042 -0.1613296 0.4537526 0.8764026 -0.1613298 0.4719112 0.8640338 -0.1753441 0.4490073 0.8795033 -0.1576911 0.3605095 0.5103071 -0.7807815 -0.169045 0.7967497 -0.5801842 0.6811283 0.4022204 -0.6117869 -0.2698541 0.9198959 -0.2845531 -0.01002258 0.9291834 0.3694834 -0.2044842 0.9758918 0.07629919 0.05692344 0.6498408 -0.7579358 0.8880933 0.3486638 -0.2995393 0.2824517 0.7872329 0.5481656 0.9244796 0.3748404 0.06951564 0.8026214 0.4707251 0.3663564 0.5726134 0.6186002 0.5380034 0.7785519 -0.01424175 0.6274187 -0.2841071 0.7416055 0.6077043 0.9641676 -0.1549736 0.2153234 0.08378297 0.4951528 0.8647566 -0.5060223 0.8439143 0.1781861 0.4658992 0.2175198 0.8576847 -0.120258 0.4401232 -0.8898481 0.2451527 0.2124798 -0.9459137 -0.5370019 0.7914718 -0.2918928 -0.3910092 0.6410119 -0.6604663 0.9350569 -0.1556745 -0.3184873 0.6557581 -0.01261812 -0.7548658 0.1492723 -0.004470586 -0.9887861 0.6090038 -0.1817665 -0.7720592 0.9146286 -0.2573007 -0.3118509 -0.2736619 0.2107858 -0.9384448 -0.7608792 0.5887044 -0.2729291 -0.5928947 0.4188138 -0.6878015 -0.8891808 0.3894736 -0.2401414 -0.8888459 0.3901571 -0.2402719 -0.7111505 0.2231699 -0.6666785 -0.379224 0.01893115 -0.9251114 -0.3830479 0.01128447 -0.9236596 -0.7159532 0.2133449 -0.6647518 -0.8376035 0.4616169 0.2921135 -0.817861 0.4988037 0.2868771 -0.01056009 0.3299351 0.9439445 -0.08135497 0.1961984 0.9771836 -0.4861164 0.4760667 0.7328379 -0.4102824 0.5906386 0.6948485 0.0218181 0.3883172 0.9212676 0.4324822 0.1372834 0.8911299 -0.5325375 0.388341 0.7520608 0.4396666 0.1538936 0.8848785 0.7653216 -0.05627155 0.6411836 0.7660934 -0.0539633 0.64046 0.3515872 -0.03209733 0.9356048 0.6847652 -0.2452043 0.6862736 0.6282281 -0.1196917 -0.7687675 0.8017573 -0.3202861 -0.5045813 0.9656636 -0.2579818 0.03064906 0.9398197 -0.1319349 -0.3151701 0.9475634 -0.2165093 0.2350478 0.9496409 -0.2090058 0.2334495 0.860664 -0.3988891 0.3164569 0.8690674 -0.4836034 -0.1041611 -1.3642e-4 -0.1921261 -0.9813703 -0.890578 0.386606 -0.239597 0.06626689 -0.1634967 -0.9843158 -0.001139104 -0.194127 -0.9809758 -0.3841916 0.008976221 -0.9232099 -0.7125642 0.2202976 -0.6661241 -0.5326789 0.3858978 0.7532173 -0.8390586 0.4594901 0.2912898 -0.08316862 0.1926684 0.9777331 0.683568 -0.2474982 0.6866437 0.3501036 -0.03495216 0.9360587 0.856229 -0.4072548 0.3178293 0.8472076 -0.4902818 -0.2046055 0.4530236 -0.3956005 -0.7989181 0.3717818 -0.364156 -0.8539138 -0.2948941 -0.2035738 -0.9335926 0.03101563 -0.8038744 -0.5939899 0.04834139 -0.6547424 -0.7543047 0.04571074 -0.2771201 -0.9597474 0.0790441 -0.6344902 -0.7688787 -0.2581978 -0.1005542 -0.9608449 -0.04827171 -0.6551196 -0.7539816 -0.33994 0.05103808 -0.9390612 -0.2236233 0.04785013 -0.9735005 0.08452659 -0.03502547 -0.9958055 0.6612201 -0.1021218 -0.7432087 0.4520534 0.8770672 -0.1624838 0.4542118 0.8765489 -0.1592293 0.8010907 0.4622395 -0.3802479 0.1772084 0.08693546 -0.9803262 0.7309805 0.4790725 -0.48596 0.02699798 0.9867629 0.1599069 0.04227447 0.9805914 0.1914506 0.008337557 0.9912439 0.1317809 -0.01500356 0.9943482 0.1051029 0.7745531 -0.3392966 0.5338028 0.9207996 -0.2470967 0.3017803 0.7538715 -0.417686 0.5071651 0.7469829 -0.420978 0.5145815 0.7216624 -0.2039474 0.6615201 0.9099144 0.05121517 0.4116222 0.7988578 -0.1977379 0.5680899 0.9222868 -0.1648289 -0.3495979 0.4558284 -0.8883451 -0.05534863 0.60775 -0.7891124 0.08911657 0.3988982 -0.9165411 0.02885955 0.5688016 -0.8033403 0.1763786 -0.1571407 0.6724951 -0.7232269 0.6889371 0.4692693 0.5524057 0.8812739 -0.3854749 0.273433 -0.7053606 0.6641637 0.2476958 0.04898428 -0.1855621 -0.9814109 -0.8472986 -0.490199 -0.2044263 -0.8812522 -0.3853923 0.2736193</float_array>
          <technique_common>
            <accessor source="#Cylinder_033-mesh-normals-array" count="476" stride="3">
              <param name="X" type="float"/>
              <param name="Y" type="float"/>
              <param name="Z" type="float"/>
            </accessor>
          </technique_common>
        </source>
        <source id="Cylinder_033-mesh-map-0">
          <float_array id="Cylinder_033-mesh-map-0-array" count="2856">0.1296517 0.2152265 0.08948737 0.219903 0.08732122 0.1987184 0.1250165 0.1907756 0.08732122 0.1987184 0.1166657 0.1669448 0.1166657 0.1669448 0.08190572 0.1795086 0.07377773 0.1608453 0.1047732 0.1418837 0.07377773 0.1608453 0.08850419 0.1165283 0.08850419 0.1165283 0.0611602 0.1450592 0.04562133 0.1325685 0.05857366 0.3819159 0.04051119 0.3412868 0.08475202 0.3624072 0.2316594 0.4695599 0.176512 0.4162545 0.236096 0.4293993 0.2387812 0.05251222 0.1805814 0.06597727 0.2323361 0.009386181 0.2453963 0.09411817 0.1805814 0.06597727 0.2387812 0.05251222 0.2510877 0.1325655 0.2020028 0.1420072 0.2453963 0.09411817 0.2323251 0.1684388 0.2020028 0.1420072 0.2541993 0.1666342 0.5188595 0.2050343 0.2837504 0.2065793 0.5190811 0.1892809 0.5190811 0.1892809 0.2819657 0.1830943 0.5193801 0.1717314 0.5193801 0.1717314 0.2510877 0.1325655 0.520356 0.1342564 0.520356 0.1342564 0.2453963 0.09411817 0.5211674 0.09367191 0.5211674 0.09367191 0.2453963 0.09411817 0.5216421 0.0527842 0.5216421 0.0527842 0.2323361 0.009386181 0.5219843 0.01346862 0.5219843 0.4651119 0.2316594 0.4695599 0.5213862 0.4303505 0.1184595 0.4341357 0.08556586 0.4084407 0.1109125 0.3798289 0.1399507 0.07846301 0.11008 0.0956 0.1200419 0.04004025 0.1557207 0.1156301 0.1274035 0.1280703 0.11008 0.0956 0.1675339 0.1508485 0.1401756 0.1590228 0.1557207 0.1156301 0.1755913 0.1833987 0.1488264 0.1879404 0.1401756 0.1590228 0.1781186 0.2138668 0.1533919 0.2159217 0.1488264 0.1879404 0.08556586 0.4084407 0.05857366 0.3819159 0.1109125 0.3798289 0.11008 0.0956 0.06513649 0.09214973 0.08738529 0.06246888 0.1274035 0.1280703 0.1047732 0.1418837 0.11008 0.0956 0.1401756 0.1590228 0.1047732 0.1418837 0.1274035 0.1280703 0.1488264 0.1879404 0.1250165 0.1907756 0.1401756 0.1590228 0.1533919 0.2159217 0.1250165 0.1907756 0.1488264 0.1879404 0.2273913 0.2081579 0.2270741 0.2058994 0.2306559 0.2057415 0.2181414 0.2085621 0.2185432 0.2021368 0.2242848 0.2051904 0.235052 0.2078576 0.2309099 0.2080151 0.2306559 0.2057415 0.2185432 0.2021368 0.2236644 0.2009145 0.2242848 0.2051904 0.2408637 0.2076495 0.237222 0.1971359 0.2474174 0.2074283 0.2244898 0.2082788 0.2242848 0.2051904 0.2273913 0.2081579 0.2306559 0.2057415 0.2324839 0.2020822 0.235052 0.2078576 0.2324839 0.2020822 0.237222 0.1971359 0.235052 0.2078576 0.2565113 0.1882665 0.2439548 0.1918591 0.2528226 0.1808174 0.2270741 0.2058994 0.2324839 0.2020822 0.2306559 0.2057415 0.2281853 0.2002453 0.2313215 0.1927635 0.2324839 0.2020822 0.2242848 0.2051904 0.2236644 0.2009145 0.2281853 0.2002453 0.2236644 0.2009145 0.2217823 0.1929219 0.2281853 0.2002453 0.2323251 0.1684388 0.2184571 0.183151 0.2097504 0.1757719 0.2323251 0.1684388 0.235765 0.1833076 0.2184571 0.183151 0.2474174 0.2074283 0.2439548 0.1918591 0.2565113 0.1882665 0.235765 0.1833076 0.2439548 0.1918591 0.2313215 0.1927635 0.2323251 0.1684388 0.2528226 0.1808174 0.235765 0.1833076 0.2819657 0.1830943 0.2565113 0.1882665 0.2528226 0.1808174 0.2528226 0.1808174 0.2323251 0.1684388 0.2541993 0.1666342 0.2097504 0.1757719 0.2184571 0.183151 0.2079133 0.1939752 0.2184571 0.183151 0.235765 0.1833076 0.2217823 0.1929219 0.2541993 0.1666342 0.2819657 0.1830943 0.2528226 0.1808174 0.2079133 0.1939752 0.2184571 0.183151 0.2217823 0.1929219 0.2837504 0.2065793 0.2582955 0.207111 0.2565113 0.1882665 0.1296517 0.2152265 0.1306934 0.2400029 0.09218358 0.2409335 0.1306934 0.2400029 0.1280952 0.2647467 0.09218358 0.2409335 0.1280952 0.2647467 0.1225156 0.2903931 0.08853214 0.2808328 0.1225156 0.2903931 0.1140855 0.3159753 0.08853214 0.2808328 0.1140855 0.3159753 0.1023368 0.3402816 0.07106208 0.3161762 0.1023368 0.3402816 0.08475202 0.3624072 0.07106208 0.3161762 0.242076 0.3915919 0.236096 0.4293993 0.176512 0.4162545 0.2476944 0.3533824 0.242076 0.3915919 0.1968564 0.3441635 0.2522186 0.3154062 0.2476944 0.3533824 0.1968564 0.3441635 0.2555416 0.2792435 0.2522186 0.3154062 0.2087035 0.2742112 0.2087035 0.2742112 0.2352496 0.24643 0.256303 0.2467072 0.2097374 0.2234748 0.2135122 0.2200596 0.2231467 0.2236825 0.5188595 0.2050343 0.5192294 0.2207769 0.2837504 0.2065793 0.5192294 0.2207769 0.5196843 0.2382823 0.2827913 0.2300243 0.5196843 0.2382823 0.5207945 0.2757099 0.256303 0.2467072 0.5207945 0.2757099 0.5215682 0.3161542 0.2522186 0.3154062 0.5215682 0.3161542 0.5218078 0.3568373 0.2522186 0.3154062 0.5218078 0.3568373 0.5216684 0.3959144 0.242076 0.3915919 0.5216684 0.3959144 0.5213862 0.4303505 0.242076 0.3915919 0.1538887 0.3652771 0.1394195 0.3967988 0.1109125 0.3798289 0.1640546 0.3346542 0.1538887 0.3652771 0.1277248 0.3532841 0.1718566 0.3037898 0.1640546 0.3346542 0.1470999 0.2980524 0.177286 0.273143 0.1718566 0.3037898 0.1470999 0.2980524 0.1801543 0.2432936 0.177286 0.273143 0.1547685 0.2431229 0.1277248 0.3532841 0.1109125 0.3798289 0.1023368 0.3402816 0.1392923 0.3259243 0.1277248 0.3532841 0.1023368 0.3402816 0.1470999 0.2980524 0.1392923 0.3259243 0.1225156 0.2903931 0.1524045 0.2702248 0.1470999 0.2980524 0.1225156 0.2903931 0.1547685 0.2431229 0.1524045 0.2702248 0.1306934 0.2400029 0.1533919 0.2159217 0.1547685 0.2431229 0.1306934 0.2400029 0.2273913 0.2081579 0.2308361 0.2103002 0.2272617 0.2104327 0.2181414 0.2085621 0.2245495 0.2113705 0.2191159 0.2149037 0.2054356 0.2093045 0.2105056 0.2089316 0.2135122 0.2200596 0.235052 0.2078576 0.2308361 0.2103002 0.2309099 0.2080151 0.2191159 0.2149037 0.2245495 0.2113705 0.2243035 0.2156665 0.2408637 0.2076495 0.2474174 0.2074283 0.2379894 0.2183251 0.2244898 0.2082788 0.2273913 0.2081579 0.2245495 0.2113705 0.2308361 0.2103002 0.235052 0.2078576 0.2329411 0.2137903 0.2329411 0.2137903 0.235052 0.2078576 0.2379894 0.2183251 0.2575045 0.2258585 0.2375229 0.2319238 0.2449715 0.2230398 0.2272617 0.2104327 0.2308361 0.2103002 0.2288281 0.2159401 0.2288281 0.2159401 0.2379894 0.2183251 0.232505 0.2230458 0.2245495 0.2113705 0.2272617 0.2104327 0.2288281 0.2159401 0.2243035 0.2156665 0.2288281 0.2159401 0.2231467 0.2236825 0.2352496 0.24643 0.2128226 0.2412238 0.2206931 0.2333548 0.2352496 0.24643 0.2206931 0.2333548 0.2375229 0.2319238 0.2474174 0.2074283 0.2582955 0.207111 0.2575045 0.2258585 0.2375229 0.2319238 0.2379894 0.2183251 0.2449715 0.2230398 0.2352496 0.24643 0.2375229 0.2319238 0.254254 0.2332853 0.2827913 0.2300243 0.254254 0.2332853 0.2575045 0.2258585 0.254254 0.2332853 0.256303 0.2467072 0.2352496 0.24643 0.2128226 0.2412238 0.2097374 0.2234748 0.2206931 0.2333548 0.2206931 0.2333548 0.2231467 0.2236825 0.2375229 0.2319238 0.256303 0.2467072 0.254254 0.2332853 0.2827913 0.2300243 0.2097374 0.2234748 0.2231467 0.2236825 0.2206931 0.2333548 0.2837504 0.2065793 0.2827913 0.2300243 0.2575045 0.2258585 0.1801543 0.2432936 0.1547685 0.2431229 0.1781186 0.2138668 0.08948737 0.219903 0.09218358 0.2409335 0.076164 0.2033938 0.2231467 0.2236825 0.2135122 0.2200596 0.2191159 0.2149037 0.2135122 0.2200596 0.2105056 0.2089316 0.2181414 0.2085621 0.1639643 0.8990411 0.1593903 0.9453063 0.1790758 0.9372053 0.1396021 0.9107471 0.1163464 0.9287214 0.1593903 0.9453063 0.1163464 0.9287214 0.1310376 0.9741862 0.14344 0.9575279 0.3856677 0.9616346 0.3629964 0.9340057 0.346849 0.9803574 0.3629964 0.9340057 0.3183516 0.9500035 0.3344544 0.9629747 0.3398965 0.9152631 0.3163001 0.902947 0.3183516 0.9500035 0.3904751 0.7718766 0.3535401 0.7666845 0.3436235 0.8190881 0.4328745 0.7789506 0.3904751 0.7718766 0.4173339 0.8404012 0.4805626 0.7863699 0.4328745 0.7789506 0.4173339 0.8404012 0.04656976 0.7749993 1.56471e-4 0.7821482 0.06274139 0.8353731 0.08654004 0.7693384 0.06274139 0.8353731 0.0906586 0.7949125 0.1236872 0.8198335 0.1278123 0.8127044 0.1204596 0.8042157 0.123757 0.4830423 0.1070786 0.4830271 0.1302084 0.7335814 0.1070786 0.4830271 0.08847928 0.4829004 0.1043092 0.7366929 0.08847928 0.4829004 0.04897439 0.4821059 0.08654004 0.7693384 0.04897439 0.4821059 0.006274223 0.4812644 1.56471e-4 0.7821482 0.4805626 0.4804282 0.4369505 0.4804102 0.4805626 0.7863699 0.4369505 0.4804102 0.3956615 0.480277 0.3904751 0.7718766 0.3956615 0.480277 0.3597555 0.4801191 0.3904751 0.7718766 0.3775216 0.8274768 0.3436235 0.8190881 0.3566253 0.8838222 0.4173339 0.8404012 0.3566253 0.8838222 0.3873023 0.9025287 0.4658086 0.8587078 0.4173339 0.8404012 0.4225977 0.930928 0.06274139 0.8353731 0.01491606 0.8537392 0.05776327 0.9250825 0.1023219 0.8205456 0.06274139 0.8353731 0.1242283 0.8792558 0.1415877 0.8200128 0.1236872 0.8198335 0.1534515 0.8678351 0.3566253 0.8838222 0.3163001 0.902947 0.3398965 0.9152631 0.3873023 0.9025287 0.3566253 0.8838222 0.3629964 0.9340057 0.4225977 0.930928 0.3873023 0.9025287 0.3629964 0.9340057 0.09293735 0.8974052 0.05776327 0.9250825 0.1163464 0.9287214 0.1242283 0.8792558 0.09293735 0.8974052 0.1163464 0.9287214 0.1534515 0.8678351 0.1242283 0.8792558 0.1639643 0.8990411 0.1368402 0.7957248 0.1337248 0.792406 0.134365 0.7963781 0.1385998 0.8059455 0.133946 0.7995862 0.1313468 0.8064754 0.1415877 0.8200128 0.1402341 0.814531 0.1278123 0.8127044 0.1355479 0.7872531 0.1337248 0.792406 0.1362284 0.7918358 0.1313468 0.8064754 0.133946 0.7995862 0.1292313 0.8008776 0.1346437 0.7808285 0.1337137 0.7735986 0.1232931 0.7860242 0.1373697 0.798926 0.1368402 0.7957248 0.133946 0.7995862 0.1337248 0.792406 0.1355479 0.7872531 0.1294034 0.7908102 0.1294034 0.7908102 0.1355479 0.7872531 0.1232931 0.7860242 0.1114023 0.7650767 0.1076812 0.7892669 0.1165961 0.778966 0.134365 0.7963781 0.1337248 0.792406 0.1278705 0.7958773 0.1278705 0.7958773 0.1232931 0.7860242 0.119034 0.7932605 0.133946 0.7995862 0.1278705 0.7958773 0.1292313 0.8008776 0.1292313 0.8008776 0.119034 0.7932605 0.1204596 0.8042157 0.0906586 0.7949125 0.1023219 0.8205456 0.1096886 0.8092948 0.0906586 0.7949125 0.1096886 0.8092948 0.1076812 0.7892669 0.1337137 0.7735986 0.1114023 0.7650767 0.1165961 0.778966 0.1076812 0.7892669 0.1232931 0.7860242 0.1165961 0.778966 0.0906586 0.7949125 0.1076812 0.7892669 0.1031701 0.7698634 0.1043092 0.7366929 0.1031701 0.7698634 0.1114023 0.7650767 0.1031701 0.7698634 0.08654004 0.7693384 0.0906586 0.7949125 0.1023219 0.8205456 0.1236872 0.8198335 0.1096886 0.8092948 0.1096886 0.8092948 0.119034 0.7932605 0.1076812 0.7892669 0.08654004 0.7693384 0.1031701 0.7698634 0.1043092 0.7366929 0.1236872 0.8198335 0.1204596 0.8042157 0.1096886 0.8092948 0.1302084 0.7335814 0.1114023 0.7650767 0.1323862 0.7616041 0.1639643 0.8990411 0.1989753 0.9298616 0.1889172 0.8920445 0.1889172 0.8920445 0.1989753 0.9298616 0.2142849 0.8891571 0.2142849 0.8891571 0.239427 0.9246038 0.2406688 0.8888302 0.2406688 0.8888302 0.239427 0.9246038 0.2669597 0.8906741 0.2669597 0.8906741 0.279904 0.932869 0.2921445 0.8949558 0.2921445 0.8949558 0.279904 0.932869 0.3163001 0.902947 0.3182079 0.7623115 0.3436235 0.8190881 0.3535401 0.7666845 0.2817354 0.7594053 0.2779905 0.8081822 0.3182079 0.7623115 0.2445982 0.7581376 0.2779905 0.8081822 0.2817354 0.7594053 0.2080596 0.7582433 0.2085283 0.806045 0.2445982 0.7581376 0.1747347 0.7608227 0.1765941 0.7825808 0.2085283 0.806045 0.1559522 0.8126892 0.1543319 0.7983131 0.151911 0.8090134 0.123757 0.4830423 0.1302084 0.7335814 0.1403899 0.4824268 0.1403899 0.4824268 0.1747347 0.7608227 0.1588471 0.4816706 0.1588471 0.4816706 0.1747347 0.7608227 0.1983759 0.4802842 0.1983759 0.4802842 0.2445982 0.7581376 0.2408818 0.4793453 0.2408818 0.4793453 0.2445982 0.7581376 0.2834237 0.4791026 0.2834237 0.4791026 0.3182079 0.7623115 0.3241004 0.4794455 0.3241004 0.4794455 0.3182079 0.7623115 0.3597555 0.4801191 0.31139 0.8124136 0.3006398 0.8641467 0.3436235 0.8190881 0.2779905 0.8081822 0.3006398 0.8641467 0.31139 0.8124136 0.2432891 0.8060721 0.2416137 0.858175 0.2779905 0.8081822 0.2085283 0.806045 0.2416137 0.858175 0.2432891 0.8060721 0.1741297 0.8064872 0.1816556 0.8611013 0.2085283 0.806045 0.3006398 0.8641467 0.3163001 0.902947 0.3280808 0.8719363 0.2717214 0.8598549 0.2669597 0.8906741 0.3006398 0.8641467 0.2416137 0.858175 0.2669597 0.8906741 0.2717214 0.8598549 0.2113001 0.8581754 0.2142849 0.8891571 0.2416137 0.858175 0.1816556 0.8611013 0.2142849 0.8891571 0.2113001 0.8581754 0.1534515 0.8678351 0.1639643 0.8990411 0.1816556 0.8611013 0.1368402 0.7957248 0.1393808 0.7955627 0.1387684 0.791634 0.1385998 0.8059455 0.1454383 0.8038325 0.1407908 0.7984183 0.1415877 0.8200128 0.1559522 0.8126892 0.151911 0.8090134 0.1355479 0.7872531 0.1362284 0.7918358 0.1387684 0.791634 0.1454383 0.8038325 0.1455261 0.7980845 0.1407908 0.7984183 0.1346437 0.7808285 0.1466489 0.7828394 0.1337137 0.7735986 0.1373697 0.798926 0.1407908 0.7984183 0.1368402 0.7957248 0.1387684 0.791634 0.1423299 0.7888979 0.1355479 0.7872531 0.1423299 0.7888979 0.1466489 0.7828394 0.1355479 0.7872531 0.1529411 0.7610244 0.1509667 0.7747685 0.1612532 0.7818434 0.1393808 0.7955627 0.1452061 0.7931135 0.1423299 0.7888979 0.1452061 0.7931135 0.1523855 0.7882502 0.1423299 0.7888979 0.1407908 0.7984183 0.1455261 0.7980845 0.1393808 0.7955627 0.1455261 0.7980845 0.1543319 0.7983131 0.1523855 0.7882502 0.1765941 0.7825808 0.1648328 0.7994924 0.1741297 0.8064872 0.1765941 0.7825808 0.1612532 0.7818434 0.1648328 0.7994924 0.1337137 0.7735986 0.1529411 0.7610244 0.1323862 0.7616041 0.1612532 0.7818434 0.1509667 0.7747685 0.1523855 0.7882502 0.1765941 0.7825808 0.1610324 0.7639949 0.1612532 0.7818434 0.1560292 0.7334246 0.1529411 0.7610244 0.1610324 0.7639949 0.1610324 0.7639949 0.1765941 0.7825808 0.1747347 0.7608227 0.1741297 0.8064872 0.1648328 0.7994924 0.1559522 0.8126892 0.1648328 0.7994924 0.1612532 0.7818434 0.1543319 0.7983131 0.1747347 0.7608227 0.1560292 0.7334246 0.1610324 0.7639949 0.1559522 0.8126892 0.1648328 0.7994924 0.1543319 0.7983131 0.1302084 0.7335814 0.1529411 0.7610244 0.1560292 0.7334246 0.1741297 0.8064872 0.1559522 0.8126892 0.1816556 0.8611013 0.2020667 0.9659219 0.209493 0.9852793 0.2058889 0.9455443 0.1543319 0.7983131 0.1455261 0.7980845 0.1517295 0.808842 0.1278123 0.8127044 0.1292313 0.8008776 0.1204596 0.8042157 0.1402341 0.814531 0.1385998 0.8059455 0.1278123 0.8127044 0.151911 0.8090134 0.1385998 0.8059455 0.1402341 0.814531 0.2054356 0.2093045 0.2135517 0.1983398 0.2105056 0.2089316 0.2185432 0.2021368 0.2135517 0.1983398 0.2217823 0.1929219 0.2217823 0.1929219 0.2135517 0.1983398 0.2079133 0.1939752 0.2105056 0.2089316 0.2135517 0.1983398 0.2181414 0.2085621 0.2128226 0.2412238 0.1801543 0.2432936 0.2097374 0.2234748 0.2128226 0.2412238 0.2087035 0.2742112 0.1801543 0.2432936 0.2087035 0.2742112 0.2038698 0.308601 0.1718566 0.3037898 0.2038698 0.308601 0.1968564 0.3441635 0.1718566 0.3037898 0.1968564 0.3441635 0.1875913 0.3798772 0.1538887 0.3652771 0.1875913 0.3798772 0.176512 0.4162545 0.1538887 0.3652771 0.2054356 0.2093045 0.1781186 0.2138668 0.2079133 0.1939752 0.2097504 0.1757719 0.1721532 0.1695092 0.2020028 0.1420072 0.2020028 0.1420072 0.1557207 0.1156301 0.1927272 0.1052389 0.1927272 0.1052389 0.1557207 0.1156301 0.1805814 0.06597727 0.1805814 0.06597727 0.1200419 0.04004025 0.1660751 0.02364951 0.1640634 0.4582 0.1184595 0.4341357 0.176512 0.4162545 0.1989753 0.9298616 0.2188497 0.9262763 0.2142849 0.8891571 0.239427 0.9246038 0.2599916 0.9278252 0.2669597 0.8906741 0.279904 0.932869 0.2991587 0.9411928 0.3163001 0.902947 0.1593903 0.9453063 0.1639643 0.8990411 0.1396021 0.9107471 0.1310376 0.9741862 0.1163464 0.9287214 0.0936163 0.9553822 0.3183516 0.9500035 0.3629964 0.9340057 0.3398965 0.9152631 0.1989753 0.9298616 0.1639643 0.8990411 0.1790758 0.9372053 0.239427 0.9246038 0.2142849 0.8891571 0.2188497 0.9262763 0.279904 0.932869 0.2669597 0.8906741 0.2599916 0.9278252 0.1163464 0.9287214 0.14344 0.9575279 0.1593903 0.9453063 0.209493 0.9852793 0.2256052 0.9970266 0.2196245 0.9310896 0.2256052 0.9970266 0.2462515 0.9998436 0.239427 0.9246038 0.2462515 0.9998436 0.2599916 0.9278252 0.239427 0.9246038 0.2599916 0.9278252 0.2659008 0.9929745 0.2758087 0.9398898 0.2659008 0.9929745 0.2599916 0.9278252 0.2462515 0.9998436 0.2659008 0.9929745 0.2792891 0.9782609 0.2758087 0.9398898 0.2792891 0.9782609 0.2827343 0.9586051 0.2758087 0.9398898 0.239427 0.9246038 0.2196245 0.9310896 0.2256052 0.9970266 0.2196245 0.9310896 0.2058889 0.9455443 0.209493 0.9852793 0.3163001 0.902947 0.2991587 0.9411928 0.3183516 0.9500035 0.3629964 0.9340057 0.3344544 0.9629747 0.346849 0.9803574 1.56471e-4 0.7821482 0.04656976 0.7749993 0.04897439 0.4821059 0.05776327 0.9250825 0.09293735 0.8974052 0.06274139 0.8353731 0.1163464 0.9287214 0.1396021 0.9107471 0.1242283 0.8792558 1.56471e-4 0.7821482 0.01491606 0.8537392 0.06274139 0.8353731 0.06274139 0.8353731 0.09293735 0.8974052 0.1242283 0.8792558 0.06274139 0.8353731 0.08654004 0.7693384 0.04656976 0.7749993 0.04897439 0.4821059 0.04656976 0.7749993 0.08654004 0.7693384 0.05776327 0.9250825 0.0936163 0.9553822 0.1163464 0.9287214 0.08847928 0.4829004 0.08654004 0.7693384 0.1043092 0.7366929 0.1232931 0.7860242 0.1278705 0.7958773 0.1294034 0.7908102 0.1114023 0.7650767 0.1302084 0.7335814 0.1043092 0.7366929 0.1387684 0.791634 0.1362284 0.7918358 0.1368402 0.7957248 0.1076812 0.7892669 0.1114023 0.7650767 0.1031701 0.7698634 0.1337248 0.792406 0.1294034 0.7908102 0.1278705 0.7958773 0.1337248 0.792406 0.1368402 0.7957248 0.1362284 0.7918358 0.1232931 0.7860242 0.1076812 0.7892669 0.119034 0.7932605 0.1747347 0.7608227 0.1403899 0.4824268 0.1560292 0.7334246 0.1529411 0.7610244 0.1302084 0.7335814 0.1323862 0.7616041 0.1302084 0.7335814 0.1560292 0.7334246 0.1403899 0.4824268 0.1355479 0.7872531 0.1346437 0.7808285 0.1232931 0.7860242 0.1337137 0.7735986 0.1165961 0.778966 0.1232931 0.7860242 0.1114023 0.7650767 0.1337137 0.7735986 0.1323862 0.7616041 0.1466489 0.7828394 0.1346437 0.7808285 0.1355479 0.7872531 0.1466489 0.7828394 0.1509667 0.7747685 0.1337137 0.7735986 0.1529411 0.7610244 0.1337137 0.7735986 0.1509667 0.7747685 0.1242283 0.8792558 0.1396021 0.9107471 0.1639643 0.8990411 0.1236872 0.8198335 0.1023219 0.8205456 0.1242283 0.8792558 0.1242283 0.8792558 0.1534515 0.8678351 0.1236872 0.8198335 0.1559522 0.8126892 0.1534515 0.8678351 0.1816556 0.8611013 0.1534515 0.8678351 0.1559522 0.8126892 0.1415877 0.8200128 0.1639643 0.8990411 0.1889172 0.8920445 0.1816556 0.8611013 0.1816556 0.8611013 0.2113001 0.8581754 0.2085283 0.806045 0.2142849 0.8891571 0.2406688 0.8888302 0.2416137 0.858175 0.2142849 0.8891571 0.1816556 0.8611013 0.1889172 0.8920445 0.2416137 0.858175 0.2085283 0.806045 0.2113001 0.8581754 0.2085283 0.806045 0.2432891 0.8060721 0.2445982 0.7581376 0.1765941 0.7825808 0.1741297 0.8064872 0.2085283 0.806045 0.2085283 0.806045 0.2080596 0.7582433 0.1747347 0.7608227 0.1747347 0.7608227 0.2080596 0.7582433 0.1983759 0.4802842 0.2445982 0.7581376 0.1983759 0.4802842 0.2080596 0.7582433 0.2669597 0.8906741 0.2416137 0.858175 0.2406688 0.8888302 0.2445982 0.7581376 0.2817354 0.7594053 0.2834237 0.4791026 0.3006398 0.8641467 0.2779905 0.8081822 0.2717214 0.8598549 0.3182079 0.7623115 0.2834237 0.4791026 0.2817354 0.7594053 0.2779905 0.8081822 0.31139 0.8124136 0.3182079 0.7623115 0.2416137 0.858175 0.2717214 0.8598549 0.2779905 0.8081822 0.2779905 0.8081822 0.2445982 0.7581376 0.2432891 0.8060721 0.2669597 0.8906741 0.2921445 0.8949558 0.3006398 0.8641467 0.3006398 0.8641467 0.3280808 0.8719363 0.3436235 0.8190881 0.3436235 0.8190881 0.3182079 0.7623115 0.31139 0.8124136 0.3436235 0.8190881 0.3280808 0.8719363 0.3566253 0.8838222 0.3436235 0.8190881 0.3775216 0.8274768 0.3904751 0.7718766 0.3163001 0.902947 0.3006398 0.8641467 0.2921445 0.8949558 0.3163001 0.902947 0.3566253 0.8838222 0.3280808 0.8719363 0.3182079 0.7623115 0.3535401 0.7666845 0.3597555 0.4801191 0.3597555 0.4801191 0.3535401 0.7666845 0.3904751 0.7718766 0.4173339 0.8404012 0.4658086 0.8587078 0.4805626 0.7863699 0.3566253 0.8838222 0.3398965 0.9152631 0.3629964 0.9340057 0.4369505 0.4804102 0.4328745 0.7789506 0.4805626 0.7863699 0.3566253 0.8838222 0.4173339 0.8404012 0.3775216 0.8274768 0.3629964 0.9340057 0.3856677 0.9616346 0.4225977 0.930928 0.3904751 0.7718766 0.4328745 0.7789506 0.4369505 0.4804102 0.3904751 0.7718766 0.3775216 0.8274768 0.4173339 0.8404012 0.4173339 0.8404012 0.3873023 0.9025287 0.4225977 0.930928 0.119034 0.7932605 0.1096886 0.8092948 0.1204596 0.8042157 0.119034 0.7932605 0.1292313 0.8008776 0.1278705 0.7958773 0.1292313 0.8008776 0.1278123 0.8127044 0.1313468 0.8064754 0.1407908 0.7984183 0.1393808 0.7955627 0.1368402 0.7957248 0.133946 0.7995862 0.1385998 0.8059455 0.1373697 0.798926 0.1278705 0.7958773 0.133946 0.7995862 0.134365 0.7963781 0.1407908 0.7984183 0.1373697 0.798926 0.1385998 0.8059455 0.1368402 0.7957248 0.134365 0.7963781 0.133946 0.7995862 0.1385998 0.8059455 0.1313468 0.8064754 0.1278123 0.8127044 0.1385998 0.8059455 0.1517295 0.808842 0.1454383 0.8038325 0.1278123 0.8127044 0.1236872 0.8198335 0.1415877 0.8200128 0.151911 0.8090134 0.1402341 0.814531 0.1415877 0.8200128 0.1523855 0.7882502 0.1452061 0.7931135 0.1455261 0.7980845 0.1423299 0.7888979 0.1387684 0.791634 0.1393808 0.7955627 0.1455261 0.7980845 0.1454383 0.8038325 0.1517295 0.808842 0.1523855 0.7882502 0.1466489 0.7828394 0.1423299 0.7888979 0.1455261 0.7980845 0.1452061 0.7931135 0.1393808 0.7955627 0.1509667 0.7747685 0.1466489 0.7828394 0.1523855 0.7882502 0.1612532 0.7818434 0.1523855 0.7882502 0.1543319 0.7983131 0.1612532 0.7818434 0.1610324 0.7639949 0.1529411 0.7610244 0.076164 0.2033938 0.09218358 0.2409335 0.0567792 0.1970279 0.0567792 0.1970279 0.09218358 0.2409335 0.03579044 0.2007838 0.03579044 0.2007838 0.09218358 0.2409335 0.08336055 0.259337 0.08336055 0.259337 0.06612199 0.2718877 0.03579044 0.2007838 0.03579044 0.2007838 0.06612199 0.2718877 0.01882106 0.2136564 0.01882106 0.2136564 0.04508489 0.2752267 0.01041698 0.2321965 0.01041698 0.2321965 0.04508489 0.2752267 0.0258857 0.2684603 0.0258857 0.2684603 0.01324945 0.2524189 0.01041698 0.2321965 0.04508489 0.2752267 0.01882106 0.2136564 0.06612199 0.2718877 0.09218358 0.2409335 0.1280952 0.2647467 0.09143853 0.2608336 0.08853214 0.2808328 0.1140855 0.3159753 0.08087235 0.299367 0.09218358 0.2409335 0.08948737 0.219903 0.1296517 0.2152265 0.07106208 0.3161762 0.08087235 0.299367 0.1140855 0.3159753 0.08475202 0.3624072 0.04051119 0.3412868 0.05743831 0.3303627 0.07106208 0.3161762 0.08475202 0.3624072 0.05743831 0.3303627 0.08853214 0.2808328 0.09143853 0.2608336 0.1280952 0.2647467 0.08732122 0.1987184 0.1250165 0.1907756 0.1296517 0.2152265 0.04562133 0.1325685 0.06513649 0.09214973 0.08850419 0.1165283 0.1166657 0.1669448 0.08732122 0.1987184 0.08190572 0.1795086 0.07377773 0.1608453 0.1047732 0.1418837 0.1166657 0.1669448 0.08850419 0.1165283 0.07377773 0.1608453 0.0611602 0.1450592 0.1047732 0.1418837 0.1401756 0.1590228 0.1166657 0.1669448 0.1109125 0.3798289 0.05857366 0.3819159 0.08475202 0.3624072 0.1401756 0.1590228 0.1250165 0.1907756 0.1166657 0.1669448 0.06513649 0.09214973 0.11008 0.0956 0.08850419 0.1165283 0.1023368 0.3402816 0.1109125 0.3798289 0.08475202 0.3624072 0.11008 0.0956 0.1047732 0.1418837 0.08850419 0.1165283 0.1225156 0.2903931 0.1280952 0.2647467 0.1524045 0.2702248 0.1306934 0.2400029 0.1524045 0.2702248 0.1280952 0.2647467 0.1023368 0.3402816 0.1140855 0.3159753 0.1392923 0.3259243 0.1225156 0.2903931 0.1392923 0.3259243 0.1140855 0.3159753 0.1250165 0.1907756 0.1533919 0.2159217 0.1296517 0.2152265 0.1306934 0.2400029 0.1296517 0.2152265 0.1533919 0.2159217 0.1547685 0.2431229 0.177286 0.273143 0.1524045 0.2702248 0.1781186 0.2138668 0.1547685 0.2431229 0.1533919 0.2159217 0.1488264 0.1879404 0.1758325 0.1863059 0.1781186 0.2138668 0.1470999 0.2980524 0.1524045 0.2702248 0.177286 0.273143 0.1277248 0.3532841 0.1392923 0.3259243 0.1640546 0.3346542 0.1470999 0.2980524 0.1640546 0.3346542 0.1392923 0.3259243 0.1538887 0.3652771 0.1640546 0.3346542 0.1968564 0.3441635 0.1968564 0.3441635 0.242076 0.3915919 0.1875913 0.3798772 0.1968564 0.3441635 0.2038698 0.308601 0.2522186 0.3154062 0.1718566 0.3037898 0.177286 0.273143 0.2087035 0.2742112 0.2087035 0.2742112 0.2522186 0.3154062 0.2038698 0.308601 0.1718566 0.3037898 0.1968564 0.3441635 0.1640546 0.3346542 0.176512 0.4162545 0.1875913 0.3798772 0.242076 0.3915919 0.1538887 0.3652771 0.176512 0.4162545 0.1394195 0.3967988 0.1200419 0.04004025 0.1805814 0.06597727 0.1399507 0.07846301 0.2323361 0.009386181 0.1805814 0.06597727 0.1660751 0.02364951 0.176512 0.4162545 0.1184595 0.4341357 0.1394195 0.3967988 0.1109125 0.3798289 0.1394195 0.3967988 0.1184595 0.4341357 0.1200419 0.04004025 0.11008 0.0956 0.08738529 0.06246888 0.1805814 0.06597727 0.1557207 0.1156301 0.1399507 0.07846301 0.176512 0.4162545 0.2316594 0.4695599 0.1640634 0.4582 0.11008 0.0956 0.1399507 0.07846301 0.1557207 0.1156301 0.1557207 0.1156301 0.1401756 0.1590228 0.1274035 0.1280703 0.1557207 0.1156301 0.2020028 0.1420072 0.1675339 0.1508485 0.1805814 0.06597727 0.2453963 0.09411817 0.1927272 0.1052389 0.2453963 0.09411817 0.2020028 0.1420072 0.1927272 0.1052389 0.2097374 0.2234748 0.1801543 0.2432936 0.1781186 0.2138668 0.1781186 0.2138668 0.2054356 0.2093045 0.2097374 0.2234748 0.2079133 0.1939752 0.1755913 0.1833987 0.2097504 0.1757719 0.1758325 0.1863059 0.2079133 0.1939752 0.1781186 0.2138668 0.2020028 0.1420072 0.1721532 0.1695092 0.1675339 0.1508485 0.1721532 0.1695092 0.1401756 0.1590228 0.1675339 0.1508485 0.2534279 0.1581881 0.2020028 0.1420072 0.2510877 0.1325655 0.5193801 0.1717314 0.2819657 0.1830943 0.2541993 0.1666342 0.2087035 0.2742112 0.256303 0.2467072 0.2555416 0.2792435 0.242076 0.3915919 0.2476944 0.3533824 0.5218078 0.3568373 0.1801543 0.2432936 0.2087035 0.2742112 0.177286 0.273143 0.256303 0.2467072 0.5207945 0.2757099 0.2555416 0.2792435 0.2522186 0.3154062 0.2555416 0.2792435 0.5207945 0.2757099 0.2522186 0.3154062 0.5218078 0.3568373 0.2476944 0.3533824 0.5213862 0.4303505 0.2316594 0.4695599 0.236096 0.4293993 0.242076 0.3915919 0.5213862 0.4303505 0.236096 0.4293993 0.2323361 0.009386181 0.5216421 0.0527842 0.2387812 0.05251222 0.2453963 0.09411817 0.520356 0.1342564 0.2510877 0.1325655 0.5216421 0.0527842 0.2453963 0.09411817 0.2387812 0.05251222 0.2510877 0.1325655 0.5193801 0.1717314 0.2534279 0.1581881 0.5190811 0.1892809 0.2837504 0.2065793 0.2819657 0.1830943 0.2837504 0.2065793 0.5192294 0.2207769 0.2827913 0.2300243 0.2827913 0.2300243 0.5196843 0.2382823 0.256303 0.2467072 0.2379894 0.2183251 0.2375229 0.2319238 0.232505 0.2230458 0.2575045 0.2258585 0.2582955 0.207111 0.2837504 0.2065793 0.2379894 0.2183251 0.2474174 0.2074283 0.2449715 0.2230398 0.2375229 0.2319238 0.2575045 0.2258585 0.254254 0.2332853 0.2575045 0.2258585 0.2449715 0.2230398 0.2474174 0.2074283 0.2379894 0.2183251 0.2288281 0.2159401 0.2329411 0.2137903 0.2379894 0.2183251 0.235052 0.2078576 0.2408637 0.2076495 0.2375229 0.2319238 0.2231467 0.2236825 0.232505 0.2230458 0.2231467 0.2236825 0.2288281 0.2159401 0.232505 0.2230458 0.2288281 0.2159401 0.2308361 0.2103002 0.2329411 0.2137903 0.2308361 0.2103002 0.2273913 0.2081579 0.2309099 0.2080151 0.2242848 0.2051904 0.2244898 0.2082788 0.2181414 0.2085621 0.2245495 0.2113705 0.2181414 0.2085621 0.2244898 0.2082788 0.2273913 0.2081579 0.2242848 0.2051904 0.2270741 0.2058994 0.2288281 0.2159401 0.2243035 0.2156665 0.2245495 0.2113705 0.2245495 0.2113705 0.2273913 0.2081579 0.2272617 0.2104327 0.2181414 0.2085621 0.2191159 0.2149037 0.2135122 0.2200596 0.2135122 0.2200596 0.2097374 0.2234748 0.2054356 0.2093045 0.2181414 0.2085621 0.2135517 0.1983398 0.2185432 0.2021368 0.2135517 0.1983398 0.2054356 0.2093045 0.2079133 0.1939752 0.2528226 0.1808174 0.2439548 0.1918591 0.235765 0.1833076 0.2324839 0.2020822 0.2270741 0.2058994 0.2281853 0.2002453 0.2313215 0.1927635 0.2439548 0.1918591 0.237222 0.1971359 0.2324839 0.2020822 0.2313215 0.1927635 0.237222 0.1971359 0.2217823 0.1929219 0.235765 0.1833076 0.2313215 0.1927635 0.2281853 0.2002453 0.2270741 0.2058994 0.2242848 0.2051904 0.2281853 0.2002453 0.2217823 0.1929219 0.2313215 0.1927635 0.2306559 0.2057415 0.2309099 0.2080151 0.2273913 0.2081579 0.2565113 0.1882665 0.2819657 0.1830943 0.2837504 0.2065793 0.2474174 0.2074283 0.237222 0.1971359 0.2439548 0.1918591 0.2565113 0.1882665 0.2582955 0.207111 0.2474174 0.2074283 0.235052 0.2078576 0.237222 0.1971359 0.2408637 0.2076495 0.2191159 0.2149037 0.2243035 0.2156665 0.2231467 0.2236825 0.2217823 0.1929219 0.2236644 0.2009145 0.2185432 0.2021368 0.2323251 0.1684388 0.2097504 0.1757719 0.2020028 0.1420072 0.1109125 0.3798289 0.1277248 0.3532841 0.1538887 0.3652771 0.2087035 0.2742112 0.2128226 0.2412238 0.2352496 0.24643 0.1070786 0.4830271 0.1043092 0.7366929 0.1302084 0.7335814 0.06274139 0.8353731 0.1023219 0.8205456 0.0906586 0.7949125</float_array>
          <technique_common>
            <accessor source="#Cylinder_033-mesh-map-0-array" count="1428" stride="2">
              <param name="S" type="float"/>
              <param name="T" type="float"/>
            </accessor>
          </technique_common>
        </source>
        <vertices id="Cylinder_033-mesh-vertices">
          <input semantic="POSITION" source="#Cylinder_033-mesh-positions"/>
        </vertices>
        <triangles material="Material_013-material" count="476">
          <input semantic="VERTEX" source="#Cylinder_033-mesh-vertices" offset="0"/>
          <input semantic="NORMAL" source="#Cylinder_033-mesh-normals" offset="1"/>
          <input semantic="TEXCOORD" source="#Cylinder_033-mesh-map-0" offset="2" set="0"/>
          <p>91 0 0 56 0 1 1 0 2 28 1 3 1 1 4 29 1 5 29 2 6 4 2 7 6 2 8 30 3 9 6 3 10 31 3 11 31 4 12 8 4 13 10 4 14 32 5 15 10 5 16 90 5 17 22 6 18 69 6 19 83 6 20 21 7 21 15 7 22 22 7 23 20 8 24 15 8 25 21 8 26 19 9 27 13 9 28 20 9 29 47 10 30 13 10 31 18 10 32 57 11 33 53 11 34 0 11 35 0 12 36 17 12 37 2 12 38 2 13 39 19 13 40 3 13 41 3 14 42 20 14 43 5 14 44 5 15 45 20 15 46 7 15 47 7 16 48 22 16 49 9 16 50 9 17 51 22 17 52 54 17 53 245 18 54 27 18 55 117 18 56 244 19 57 26 19 58 245 19 59 243 20 60 25 20 61 26 20 62 242 21 63 24 21 64 243 21 65 247 22 66 23 22 67 24 22 68 252 23 69 84 23 70 23 23 71 27 24 72 32 24 73 117 24 74 26 25 75 32 25 76 27 25 77 25 26 78 30 26 79 26 26 80 24 27 81 30 27 82 25 27 83 23 28 84 28 28 85 24 28 86 84 29 87 28 29 88 23 29 89 104 30 90 40 30 91 33 30 92 102 31 93 36 31 94 35 31 95 34 32 96 97 32 97 33 32 98 36 33 99 48 33 100 35 33 101 37 34 102 42 34 103 49 34 104 100 35 105 35 35 106 104 35 107 33 36 108 43 36 109 34 36 110 43 37 111 42 37 112 34 37 113 41 38 114 51 38 115 39 38 116 40 39 117 43 39 118 33 39 119 45 40 120 44 40 121 43 40 122 35 41 123 48 41 124 45 41 125 48 42 126 46 42 127 45 42 128 47 43 129 52 43 130 12 43 131 47 44 132 50 44 133 52 44 134 49 45 135 51 45 136 41 45 137 50 46 138 51 46 139 44 46 140 47 47 141 39 47 142 50 47 143 17 48 144 41 48 145 39 48 146 39 49 147 47 49 148 18 49 149 12 50 150 52 50 151 11 50 152 52 51 153 50 51 154 46 51 155 18 52 156 17 52 157 39 52 158 11 53 159 52 53 160 46 53 161 53 54 162 38 54 163 41 54 164 91 55 165 92 55 166 59 55 167 92 56 168 93 56 169 59 56 170 93 57 171 94 57 172 64 57 173 94 58 174 95 58 175 64 58 176 95 59 177 96 59 178 68 59 179 96 60 180 90 60 181 68 60 182 82 61 183 83 61 184 69 61 185 81 62 186 82 62 187 75 62 188 80 63 189 81 63 190 75 63 191 79 64 192 80 64 193 73 64 194 73 65 195 112 65 196 78 65 197 71 66 198 118 66 199 111 66 200 57 67 201 58 67 202 53 67 203 58 68 204 60 68 205 77 68 206 60 69 207 61 69 208 78 69 209 61 70 210 63 70 211 80 70 212 63 71 213 65 71 214 80 71 215 65 72 216 67 72 217 82 72 218 67 73 219 54 73 220 82 73 221 251 74 222 246 74 223 117 74 224 250 75 225 251 75 226 89 75 227 249 76 228 250 76 229 87 76 230 248 77 231 249 77 232 87 77 233 253 78 234 248 78 235 85 78 236 89 79 237 117 79 238 96 79 239 88 80 240 89 80 241 96 80 242 87 81 243 88 81 244 94 81 245 86 82 246 87 82 247 94 82 248 85 83 249 86 83 250 92 83 251 84 84 252 85 84 253 92 84 254 104 85 255 98 85 256 105 85 257 102 86 258 99 86 259 101 86 260 70 87 261 119 87 262 118 87 263 34 88 264 98 88 265 97 88 266 101 89 267 99 89 268 113 89 269 37 90 270 49 90 271 107 90 272 100 91 273 104 91 274 99 91 275 98 92 276 34 92 277 108 92 278 108 93 279 34 93 280 107 93 281 106 94 282 114 94 283 115 94 284 105 95 285 98 95 286 110 95 287 110 96 288 107 96 289 109 96 290 99 97 291 105 97 292 110 97 293 113 98 294 110 98 295 111 98 296 112 99 297 72 99 298 116 99 299 112 100 300 116 100 301 114 100 302 49 101 303 38 101 304 106 101 305 114 102 306 107 102 307 115 102 308 112 103 309 114 103 310 103 103 311 77 104 312 103 104 313 106 104 314 103 105 315 78 105 316 112 105 317 72 106 318 71 106 319 116 106 320 116 107 321 111 107 322 114 107 323 78 108 324 103 108 325 77 108 326 71 109 327 111 109 328 116 109 329 53 110 330 77 110 331 106 110 332 253 111 333 85 111 334 252 111 335 56 112 336 59 112 337 1 112 338 111 113 339 118 113 340 101 113 341 118 114 342 119 114 343 102 114 344 211 115 345 121 115 346 176 115 347 148 116 348 149 116 349 121 116 350 149 117 351 126 117 352 124 117 353 150 118 354 151 118 355 126 118 356 151 119 357 130 119 358 128 119 359 152 120 360 210 120 361 130 120 362 142 121 363 203 121 364 189 121 365 141 122 366 142 122 367 135 122 368 140 123 369 141 123 370 135 123 371 139 124 372 140 124 373 133 124 374 138 125 375 133 125 376 167 125 377 131 126 378 239 126 379 166 126 380 177 127 381 120 127 382 173 127 383 120 128 384 122 128 385 137 128 386 122 129 387 123 129 388 138 129 389 123 130 390 125 130 391 140 130 392 125 131 393 127 131 394 140 131 395 127 132 396 129 132 397 142 132 398 129 133 399 174 133 400 142 133 401 136 134 402 189 134 403 147 134 404 135 135 405 147 135 406 146 135 407 134 136 408 135 136 409 145 136 410 133 137 411 134 137 412 145 137 413 132 138 414 133 138 415 143 138 416 190 139 417 131 139 418 204 139 419 147 140 420 210 140 421 152 140 422 146 141 423 147 141 424 151 141 425 145 142 426 146 142 427 151 142 428 144 143 429 145 143 430 149 143 431 143 144 432 144 144 433 149 144 434 204 145 435 143 145 436 211 145 437 224 146 438 153 146 439 160 146 440 222 147 441 155 147 442 156 147 443 190 148 444 240 148 445 239 148 446 154 149 447 153 149 448 217 149 449 156 150 450 155 150 451 168 150 452 157 151 453 169 151 454 162 151 455 220 152 456 224 152 457 155 152 458 153 153 459 154 153 460 163 153 461 163 154 462 154 154 463 162 154 464 161 155 465 170 155 466 171 155 467 160 156 468 153 156 469 165 156 470 165 157 471 162 157 472 164 157 473 155 158 474 165 158 475 168 158 476 168 159 477 164 159 478 166 159 479 167 160 480 132 160 481 172 160 482 167 161 483 172 161 484 170 161 485 169 162 486 161 162 487 171 162 488 170 163 489 162 163 490 171 163 491 167 164 492 170 164 493 159 164 494 137 165 495 159 165 496 161 165 497 159 166 498 138 166 499 167 166 500 132 167 501 131 167 502 172 167 503 172 168 504 164 168 505 170 168 506 138 169 507 159 169 508 137 169 509 131 170 510 166 170 511 172 170 512 173 171 513 161 171 514 158 171 515 211 172 516 179 172 517 212 172 518 212 173 519 179 173 520 213 173 521 213 174 522 184 174 523 214 174 524 214 175 525 184 175 526 215 175 527 215 176 528 188 176 529 216 176 530 216 177 531 188 177 532 210 177 533 202 178 534 189 178 535 203 178 536 201 179 537 195 179 538 202 179 539 200 180 540 195 180 541 201 180 542 199 181 543 193 181 544 200 181 545 198 182 546 232 182 547 193 182 548 191 183 549 231 183 550 238 183 551 177 184 552 173 184 553 178 184 554 178 185 555 198 185 556 180 185 557 180 186 558 198 186 559 181 186 560 181 187 561 200 187 562 183 187 563 183 188 564 200 188 565 185 188 566 185 189 567 202 189 568 187 189 569 187 190 570 202 190 571 174 190 572 196 191 573 209 191 574 189 191 575 195 192 576 209 192 577 196 192 578 194 193 579 207 193 580 195 193 581 193 194 582 207 194 583 194 194 584 192 195 585 205 195 586 193 195 587 209 196 588 210 196 589 237 196 590 208 197 591 215 197 592 209 197 593 207 198 594 215 198 595 208 198 596 206 199 597 213 199 598 207 199 599 205 200 600 213 200 601 206 200 602 204 201 603 211 201 604 205 201 605 224 202 606 225 202 607 218 202 608 222 203 609 221 203 610 219 203 611 190 204 612 191 204 613 238 204 614 154 205 615 217 205 616 218 205 617 221 206 618 233 206 619 219 206 620 157 207 621 227 207 622 169 207 623 220 208 624 219 208 625 224 208 626 218 209 627 228 209 628 154 209 629 228 210 630 227 210 631 154 210 632 226 211 633 235 211 634 234 211 635 225 212 636 230 212 637 228 212 638 230 213 639 229 213 640 228 213 641 219 214 642 233 214 643 225 214 644 233 215 645 231 215 646 229 215 647 232 216 648 236 216 649 192 216 650 232 217 651 234 217 652 236 217 653 169 218 654 226 218 655 158 218 656 234 219 657 235 219 658 229 219 659 232 220 660 223 220 661 234 220 662 197 221 663 226 221 664 223 221 665 223 222 666 232 222 667 198 222 668 192 223 669 236 223 670 191 223 671 236 224 672 234 224 673 231 224 674 198 225 675 197 225 676 223 225 677 191 226 678 236 226 679 231 226 680 173 227 681 226 227 682 197 227 683 192 228 684 191 228 685 205 228 686 176 229 687 121 229 688 179 229 689 231 230 690 233 230 691 238 230 692 239 231 693 168 231 694 166 231 695 240 232 696 222 232 697 239 232 698 238 233 699 222 233 700 240 233 701 70 234 702 241 234 703 119 234 704 36 235 705 241 235 706 46 235 707 46 236 708 241 236 709 11 236 710 119 237 711 241 237 712 102 237 713 72 238 714 253 238 715 71 238 716 72 239 717 73 239 718 253 239 719 73 240 720 74 240 721 249 240 722 74 241 723 75 241 724 249 241 725 75 242 726 76 242 727 251 242 728 76 243 729 69 243 730 251 243 731 70 244 732 252 244 733 11 244 734 12 245 735 247 245 736 13 245 737 13 246 738 243 246 739 14 246 740 14 247 741 243 247 742 15 247 743 15 248 744 245 248 745 16 248 746 16 249 747 245 249 748 69 249 749 179 250 750 182 250 751 213 250 752 184 251 753 186 251 754 215 251 755 188 252 756 175 252 757 210 252 758 121 253 759 211 253 760 148 253 761 126 254 762 149 254 763 150 254 764 130 255 765 151 255 766 152 255 767 179 256 768 211 256 769 176 256 770 184 257 771 213 257 772 182 257 773 188 258 774 215 258 775 186 258 776 149 259 777 124 259 778 121 259 779 121 260 780 124 260 781 182 260 782 124 261 783 126 261 784 184 261 785 126 262 786 186 262 787 184 262 788 186 263 789 128 263 790 188 263 791 128 264 792 186 264 793 126 264 794 128 265 795 130 265 796 188 265 797 130 266 798 175 266 799 188 266 800 184 267 801 182 267 802 124 267 803 182 268 804 179 268 805 121 268 806 210 269 807 175 269 808 130 269 809 151 270 810 128 270 811 126 270 812 140 271 813 139 271 814 123 271 815 145 272 816 144 272 817 133 272 818 149 273 819 148 273 820 143 273 821 140 274 822 134 274 823 133 274 824 133 275 825 144 275 826 143 275 827 133 276 828 138 276 829 139 276 830 123 277 831 139 277 832 138 277 833 145 278 834 150 278 835 149 278 836 122 279 837 138 279 838 137 279 839 162 280 840 165 280 841 163 280 842 161 281 843 173 281 844 137 281 845 218 282 846 217 282 847 224 282 848 170 283 849 161 283 850 159 283 851 153 284 852 163 284 853 165 284 854 153 285 855 224 285 856 217 285 857 162 286 858 170 286 859 164 286 860 198 287 861 178 287 862 197 287 863 226 288 864 173 288 865 158 288 866 173 289 867 197 289 868 178 289 869 154 290 870 157 290 871 162 290 872 169 291 873 171 291 874 162 291 875 161 292 876 169 292 877 158 292 878 227 293 879 157 293 880 154 293 881 227 294 882 235 294 883 169 294 884 226 295 885 169 295 886 235 295 887 143 296 888 148 296 889 211 296 890 131 297 891 132 297 892 143 297 893 143 298 894 204 298 895 131 298 896 191 299 897 204 299 898 205 299 899 204 300 900 191 300 901 190 300 902 211 301 903 212 301 904 205 301 905 205 302 906 206 302 907 193 302 908 213 303 909 214 303 910 207 303 911 213 304 912 205 304 913 212 304 914 207 305 915 193 305 916 206 305 917 193 306 918 194 306 919 200 306 920 232 307 921 192 307 922 193 307 923 193 308 924 199 308 925 198 308 926 198 309 927 199 309 928 181 309 929 200 310 930 181 310 931 199 310 932 215 311 933 207 311 934 214 311 935 200 312 936 201 312 937 185 312 938 209 313 939 195 313 940 208 313 941 202 314 942 185 314 943 201 314 944 195 315 945 196 315 946 202 315 947 207 316 948 208 316 949 195 316 950 195 317 951 200 317 952 194 317 953 215 318 954 216 318 955 209 318 956 209 319 957 237 319 958 189 319 959 189 320 960 202 320 961 196 320 962 189 321 963 237 321 964 147 321 965 189 322 966 136 322 967 142 322 968 210 323 969 209 323 970 216 323 971 210 324 972 147 324 973 237 324 974 202 325 975 203 325 976 174 325 977 174 326 978 203 326 979 142 326 980 135 327 981 134 327 982 140 327 983 147 328 984 152 328 985 151 328 986 127 329 987 141 329 988 140 329 989 147 330 990 135 330 991 136 330 992 151 331 993 150 331 994 145 331 995 142 332 996 141 332 997 127 332 998 142 333 999 136 333 1000 135 333 1001 135 334 1002 146 334 1003 145 334 1004 164 335 1005 172 335 1006 166 335 1007 164 336 1008 168 336 1009 165 336 1010 168 337 1011 239 337 1012 156 337 1013 219 338 1014 225 338 1015 224 338 1016 155 339 1017 222 339 1018 220 339 1019 165 340 1020 155 340 1021 160 340 1022 219 341 1023 220 341 1024 222 341 1025 224 342 1026 160 342 1027 155 342 1028 222 343 1029 156 343 1030 239 343 1031 222 344 1032 238 344 1033 221 344 1034 239 345 1035 131 345 1036 190 345 1037 238 346 1038 240 346 1039 190 346 1040 229 347 1041 230 347 1042 233 347 1043 228 348 1044 218 348 1045 225 348 1046 233 349 1047 221 349 1048 238 349 1049 229 350 1050 227 350 1051 228 350 1052 233 351 1053 230 351 1054 225 351 1055 235 352 1056 227 352 1057 229 352 1058 234 353 1059 229 353 1060 231 353 1061 234 354 1062 223 354 1063 226 354 1064 1 355 1065 59 355 1066 4 355 1067 4 356 1068 59 356 1069 6 356 1070 6 357 1071 59 357 1072 62 357 1073 62 358 1074 64 358 1075 6 358 1076 6 359 1077 64 359 1078 8 359 1079 8 360 1080 66 360 1081 10 360 1082 10 361 1083 66 361 1084 68 361 1085 68 362 1086 55 362 1087 10 362 1088 66 363 1089 8 363 1090 64 363 1091 59 364 1092 93 364 1093 62 364 1094 64 365 1095 95 365 1096 66 365 1097 59 366 1098 56 366 1099 91 366 1100 68 367 1101 66 367 1102 95 367 1103 90 368 1104 10 368 1105 55 368 1106 68 369 1107 90 369 1108 55 369 1109 64 370 1110 62 370 1111 93 370 1112 1 371 1113 28 371 1114 91 371 1115 10 372 1116 32 372 1117 31 372 1118 29 373 1119 1 373 1120 4 373 1121 6 374 1122 30 374 1123 29 374 1124 31 375 1125 6 375 1126 8 375 1127 30 376 1128 24 376 1129 29 376 1130 117 377 1131 32 377 1132 90 377 1133 24 378 1134 28 378 1135 29 378 1136 32 379 1137 26 379 1138 31 379 1139 96 380 1140 117 380 1141 90 380 1142 26 381 1143 30 381 1144 31 381 1145 94 382 1146 93 382 1147 86 382 1148 92 383 1149 86 383 1150 93 383 1151 96 384 1152 95 384 1153 88 384 1154 94 385 1155 88 385 1156 95 385 1157 28 386 1158 84 386 1159 91 386 1160 92 387 1161 91 387 1162 84 387 1163 85 388 1164 248 388 1165 86 388 1166 252 389 1167 85 389 1168 84 389 1169 23 390 1170 247 390 1171 252 390 1172 87 391 1173 86 391 1174 248 391 1175 89 392 1176 88 392 1177 250 392 1178 87 393 1179 250 393 1180 88 393 1181 251 394 1182 250 394 1183 75 394 1184 75 395 1185 82 395 1186 76 395 1187 75 396 1188 74 396 1189 80 396 1190 249 397 1191 248 397 1192 73 397 1193 73 398 1194 80 398 1195 74 398 1196 249 399 1197 75 399 1198 250 399 1199 69 400 1200 76 400 1201 82 400 1202 251 401 1203 69 401 1204 246 401 1205 245 402 1206 15 402 1207 244 402 1208 22 403 1209 15 403 1210 16 403 1211 69 404 1212 245 404 1213 246 404 1214 117 405 1215 246 405 1216 245 405 1217 245 406 1218 26 406 1219 27 406 1220 15 407 1221 243 407 1222 244 407 1223 69 408 1224 22 408 1225 16 408 1226 26 409 1227 244 409 1228 243 409 1229 243 410 1230 24 410 1231 25 410 1232 243 411 1233 13 411 1234 242 411 1235 15 412 1236 20 412 1237 14 412 1238 20 413 1239 13 413 1240 14 413 1241 71 414 1242 253 414 1243 252 414 1244 252 415 1245 70 415 1246 71 415 1247 11 416 1248 247 416 1249 12 416 1250 247 417 1251 11 417 1252 252 417 1253 13 418 1254 247 418 1255 242 418 1256 247 419 1257 24 419 1258 242 419 1259 18 420 1260 13 420 1261 19 420 1262 2 421 1263 17 421 1264 18 421 1265 73 422 1266 78 422 1267 79 422 1268 82 423 1269 81 423 1270 65 423 1271 253 424 1272 73 424 1273 248 424 1274 78 425 1275 61 425 1276 79 425 1277 80 426 1278 79 426 1279 61 426 1280 80 427 1281 65 427 1282 81 427 1283 54 428 1284 22 428 1285 83 428 1286 82 429 1287 54 429 1288 83 429 1289 22 430 1290 7 430 1291 21 430 1292 20 431 1293 3 431 1294 19 431 1295 7 432 1296 20 432 1297 21 432 1298 19 433 1299 2 433 1300 18 433 1301 0 434 1302 53 434 1303 17 434 1304 53 435 1305 58 435 1306 77 435 1307 77 436 1308 60 436 1309 78 436 1310 107 437 1311 114 437 1312 109 437 1313 106 438 1314 38 438 1315 53 438 1316 107 439 1317 49 439 1318 115 439 1319 114 440 1320 106 440 1321 103 440 1322 106 441 1323 115 441 1324 49 441 1325 107 442 1326 110 442 1327 108 442 1328 107 443 1329 34 443 1330 37 443 1331 114 444 1332 111 444 1333 109 444 1334 111 445 1335 110 445 1336 109 445 1337 110 446 1338 98 446 1339 108 446 1340 98 447 1341 104 447 1342 97 447 1343 35 448 1344 100 448 1345 102 448 1346 99 449 1347 102 449 1348 100 449 1349 104 450 1350 35 450 1351 40 450 1352 110 451 1353 113 451 1354 99 451 1355 99 452 1356 104 452 1357 105 452 1358 102 453 1359 101 453 1360 118 453 1361 118 454 1362 71 454 1363 70 454 1364 102 455 1365 241 455 1366 36 455 1367 241 456 1368 70 456 1369 11 456 1370 39 457 1371 51 457 1372 50 457 1373 43 458 1374 40 458 1375 45 458 1376 44 459 1377 51 459 1378 42 459 1379 43 460 1380 44 460 1381 42 460 1382 46 461 1383 50 461 1384 44 461 1385 45 462 1386 40 462 1387 35 462 1388 45 463 1389 46 463 1390 44 463 1391 33 464 1392 97 464 1393 104 464 1394 41 465 1395 17 465 1396 53 465 1397 49 466 1398 42 466 1399 51 466 1400 41 467 1401 38 467 1402 49 467 1403 34 468 1404 42 468 1405 37 468 1406 101 469 1407 113 469 1408 111 469 1409 46 470 1410 48 470 1411 36 470 1412 47 471 1413 12 471 1414 13 471 1415 117 472 1416 89 472 1417 251 472 1418 73 473 1419 72 473 1420 112 473 1421 120 474 1422 137 474 1423 173 474 1424 133 475 1425 132 475 1426 167 475 1427</p>
        </triangles>
      </mesh>
    </geometry>
  </library_geometries>
  <library_controllers>
    <controller id="NHAND_001_Manin1_007-skin" name="NHAND_001">
      <skin source="#Cylinder_033-mesh">
        <bind_shape_matrix>1 0 0 0 0 1 0 0 0 0 1 0 0 0 0 1</bind_shape_matrix>
        <source id="NHAND_001_Manin1_007-skin-joints">
          <Name_array id="NHAND_001_Manin1_007-skin-joints-array" count="11">Root Wrist_R HandBtm_R HandMid_R TmbBtm_R TmbHi_R Wrist_L HandBtm_L HandMid_L TmbBtm_L TmbHi_L</Name_array>
          <technique_common>
            <accessor source="#NHAND_001_Manin1_007-skin-joints-array" count="11" stride="1">
              <param name="JOINT" type="name"/>
            </accessor>
          </technique_common>
        </source>
        <source id="NHAND_001_Manin1_007-skin-bind_poses">
          <float_array id="NHAND_001_Manin1_007-skin-bind_poses-array" count="176">-0.005390107 -0.4142332 -0.9101549 -0.1937439 -1.57626e-7 0.9101682 -0.4142392 0.4141746 0.9999855 -0.002232611 -0.004905998 0.001442074 0 0 0 1 0.03948456 -0.2021622 -0.9785559 -0.1502526 0.4551134 0.8754797 -0.1625038 0.3871719 0.8895577 -0.4389375 0.1265747 0.4513418 0 0 0 1 0.02631247 -0.0840342 -0.9961155 -0.1748082 0.3840008 0.9208592 -0.06754207 0.02374702 0.9229577 -0.3807319 0.0564993 0.4436189 0 0 0 1 0.03680789 -0.2472314 -0.9682571 -0.1286361 0.4626294 0.8630493 -0.2027813 -0.06079715 0.8857874 -0.4404804 0.1461436 0.4613418 0 0 0 1 -0.3092675 -0.2323841 -0.9221451 -0.3174239 0.892704 0.263275 -0.3657401 0.1787053 0.3277698 -0.9363142 0.1260279 0.2560123 0 0 0 1 -0.3885649 -0.2495474 -0.8869858 -0.3298034 0.8630748 0.2385339 -0.4452002 0.1108903 0.3226747 -0.9385244 0.1226923 0.2538256 0 0 0 1 0.03948616 0.2021622 0.9785557 0.1504487 -0.4551134 0.8754802 -0.1625031 0.3849088 -0.8895577 -0.438937 0.126576 0.4469184 0 0 0 1 0.0263136 0.08403533 0.9961153 0.1749389 -0.3840008 0.9208596 -0.06754279 0.02183729 -0.9229578 -0.3807315 0.05650073 0.4390295 0 0 0 1 0.03680944 0.2472308 0.968257 0.1288192 -0.4626302 0.8630495 -0.20278 -0.06309717 -0.8857868 -0.4404806 0.1461447 0.4569371 0 0 0 1 -0.3092672 0.2323855 0.9221447 0.3158861 -0.8927043 0.2632748 -0.3657401 0.1742659 -0.3277696 -0.9363142 0.1260293 0.2543826 0 0 0 1 -0.3885598 0.2495475 0.8869878 0.3278706 -0.8630769 0.2385364 -0.4451954 0.1065998 -0.3226757 -0.9385241 0.122693 0.2522214 0 0 0 1</float_array>
          <technique_common>
            <accessor source="#NHAND_001_Manin1_007-skin-bind_poses-array" count="11" stride="16">
              <param name="TRANSFORM" type="float4x4"/>
            </accessor>
          </technique_common>
        </source>
        <source id="NHAND_001_Manin1_007-skin-weights">
          <float_array id="NHAND_001_Manin1_007-skin-weights-array" count="382">1 1 1 1 1 1 1 1 1 1 1 1 0 1 1 1 1 1 1 1 1 1 1 1 1 1 1 1 2.26142e-4 0.9997739 1 1 1 1 1 1 1 0.001467883 0.9985321 4.27663e-4 0.4997853 0.499787 1 1 1 6.2086e-4 0.9993792 1 1 1 5.83203e-6 0.9999942 1 9.03727e-4 0.9990963 1 1 1 0.1522938 0.8477062 1.47468e-4 0.9998525 1 0 1 1 1 1 1 1 1 1 1 1 1 1 1 1 1 1 1 1 0 0.9999986 1.40686e-6 1 1 1 1 1 1 1 1 1 1 1 1 0.01359719 0.9864028 9.95749e-7 0.9999991 0 1 3.24476e-7 0.9999997 1.22468e-4 0.9998775 0.001128971 0.998871 1 1 1 1 1 1 1 6.19238e-5 0.9999381 8.42285e-4 0.9991577 0.001825034 0.9981749 2.61232e-4 0.9997388 3.74447e-4 0.4996528 0.4999727 0.01811665 0.4874415 0.4944418 1 0.00262916 0.9973707 1.90184e-5 0.9999809 1 2.53568e-6 0.9999974 0.007284522 0.9927155 0.004166007 0.9958339 0 1 0.001590549 0.9984095 1 0 1 0.5000032 0.4999968 0 1 0.9623066 0.03769344 1.68569e-7 0.9999999 0.5002211 0.4997789 0.4974844 0.5025156 1 1 1 1 1 1 1 1 1 1 1 0.9993417 6.58383e-4 0 0.9980481 0.001951873 0 1 2.23013e-4 0.999777 1 0.01928216 0.9807178 1 0 0.9993713 6.28675e-4 0 0.9845647 0.01543533 1 1 1 1 1 1 1 1 1 1 1 1 1 9.78795e-6 2.48677e-4 0.9997416 5.55853e-4 0.9994441 2.53362e-6 0.9999974 0.5004045 0.4995955 0.9999988 1.20613e-6 1 0 0.01800411 0.9819741 2.17199e-5 0 1 1 0 1 0 0.002636492 0.9973635 1 0 1.86345e-5 0.9999814 1 0 0.9999982 1.81402e-6 0.02800327 0.9719967 1 0 1 0 1 0 0.9964069 0.003593027 0 0.9727615 0.02723848 0 1 1 1 1 1 1 1 1 1 1 1 1 1 1 1 0.001615107 0.9983848 0.9687982 0.03120177 0 0.9979866 0.002013385 0 0.9998774 1.22595e-4 1.96414e-4 0.9998036 2.33491e-6 0.9999976 1.48431e-7 0.9999999 0.00632137 0.9936787 0.9930031 0.00699687 0.9999992 7.92496e-7 1 1 1 1 1 1 1 1 1 1 1 1 1 1 1 1 1 1 0 7.24189e-4 0.9992758 3.47024e-5 0.02617967 0.9737856 0.001156806 0.9988432 2.67079e-4 0.9997329 0.5003264 0.4996736 0.4999797 0.5000203 0.01237893 0.987621 0 0 1 0.001371502 0.9986285 1 0 1 0.002649605 0.001135885 0.9962145 1 0 0.006735801 1.81673e-4 0.9930825 1 0 0.9613518 0.03864812 0.002027332 1.76686e-6 0.9979709 1 0 1 0 1 0 1 0.02088886 0.9790274 8.37097e-5 1 0 0.0178098 0.9821901 0 0.4999969 0.5000031 1 1 0.02145361 0.9785464 2.5044e-5 0.9999749 0.00110054 0.9988995 1 0.002578854 0.9974212 0.002121031 0.9978789 2.08963e-5 0.9999791 3.43227e-4 0.9996567 0 1 6.05169e-6 0.999994</float_array>
          <technique_common>
            <accessor source="#NHAND_001_Manin1_007-skin-weights-array" count="382" stride="1">
              <param name="WEIGHT" type="float"/>
            </accessor>
          </technique_common>
        </source>
        <joints>
          <input semantic="JOINT" source="#NHAND_001_Manin1_007-skin-joints"/>
          <input semantic="INV_BIND_MATRIX" source="#NHAND_001_Manin1_007-skin-bind_poses"/>
        </joints>
        <vertex_weights count="255">
          <input semantic="JOINT" source="#NHAND_001_Manin1_007-skin-joints" offset="0"/>
          <input semantic="WEIGHT" source="#NHAND_001_Manin1_007-skin-weights" offset="1"/>
          <vcount>1 1 1 1 1 1 1 1 1 1 1 2 1 1 1 1 1 1 1 1 1 1 1 1 1 1 1 2 1 1 1 1 1 1 1 2 3 1 1 1 2 1 1 1 2 1 2 1 1 1 2 2 2 1 1 1 1 1 1 1 1 1 1 1 1 1 1 1 1 1 2 2 1 1 1 1 1 1 1 1 1 1 1 1 2 2 2 2 2 2 1 1 1 1 1 1 1 2 2 2 2 3 3 1 2 2 1 2 2 2 2 2 1 2 2 2 2 2 2 2 1 1 1 1 1 1 1 1 1 1 1 3 3 1 2 1 2 2 3 2 1 1 1 1 1 1 1 1 1 1 1 1 1 3 2 2 2 2 2 3 2 2 2 2 2 2 2 2 2 2 2 2 3 3 1 1 1 1 1 1 1 1 1 1 1 1 1 1 1 2 3 3 2 2 2 2 2 2 2 1 1 1 1 1 1 1 1 1 1 1 1 1 1 1 1 1 1 3 3 2 2 2 2 3 2 2 2 1 3 2 3 2 2 3 2 2 2 1 3 2 3 2 1 1 2 2 2 1 2 2 2 2 2 2 0 </vcount>
          <v>1 0 3 1 1 2 1 3 3 4 1 5 3 6 1 7 3 8 1 9 3 10 2 11 4 12 2 13 2 14 2 15 2 16 2 17 2 18 2 19 2 20 2 21 2 22 2 23 3 24 3 25 3 26 3 27 2 28 3 29 3 30 3 31 3 32 3 33 3 34 5 35 5 36 2 37 5 38 2 39 4 40 5 41 4 42 2 43 2 44 2 45 5 46 2 47 4 48 5 49 2 50 4 51 5 52 2 53 4 54 2 55 5 56 4 57 2 58 4 59 2 60 4 61 2 62 4 63 2 64 1 65 3 66 3 67 1 68 1 69 3 70 1 71 1 72 3 73 1 74 3 75 1 76 3 77 1 78 3 79 2 80 2 81 4 82 2 83 4 84 2 85 2 86 2 87 2 88 2 89 2 90 2 91 2 92 2 93 2 94 2 95 2 96 2 97 3 98 2 99 3 100 2 101 3 102 2 103 3 104 2 105 3 106 2 107 3 108 3 109 3 110 3 111 3 112 3 113 3 114 3 115 2 116 5 117 2 118 5 119 2 120 5 121 2 122 5 123 2 124 4 125 5 126 2 127 4 128 5 129 2 130 2 131 5 132 2 133 5 134 2 135 2 136 4 137 2 138 5 139 2 140 4 141 2 142 5 143 2 144 4 145 2 146 2 147 5 148 2 149 4 150 2 151 4 152 2 153 4 154 2 155 3 156 2 157 4 158 2 159 4 160 6 161 8 162 6 163 6 164 8 165 6 166 8 167 6 168 8 169 6 170 8 171 7 172 9 173 10 174 7 175 9 176 10 177 8 178 7 179 8 180 8 181 7 182 8 183 7 184 10 185 7 186 9 187 10 188 7 189 9 190 7 191 7 192 7 193 8 194 8 195 8 196 8 197 8 198 8 199 8 200 8 201 8 202 8 203 5 204 9 205 10 206 9 207 10 208 9 209 10 210 9 211 10 212 9 213 10 214 9 215 10 216 7 217 9 218 10 219 5 220 10 221 9 222 10 223 9 224 10 225 9 226 10 227 9 228 10 229 9 230 10 231 9 232 10 233 7 234 9 235 9 236 10 237 9 238 10 239 9 240 10 241 9 242 10 243 7 244 9 245 10 246 7 247 9 248 10 249 6 250 8 251 8 252 6 253 6 254 8 255 6 256 6 257 8 258 6 259 8 260 6 261 8 262 6 263 8 264 7 265 8 266 7 267 9 268 10 269 7 270 9 271 10 272 7 273 9 274 7 275 8 276 7 277 8 278 7 279 8 280 7 281 8 282 7 283 9 284 7 285 9 286 7 287 7 288 7 289 7 290 7 291 8 292 8 293 8 294 8 295 8 296 8 297 8 298 8 299 8 300 8 301 8 302 8 303 8 304 5 305 9 306 10 307 5 308 9 309 10 310 5 311 10 312 5 313 10 314 9 315 10 316 9 317 10 318 7 319 9 320 10 321 5 322 10 323 5 324 10 325 9 326 10 327 9 328 5 329 9 330 10 331 9 332 10 333 5 334 9 335 10 336 9 337 10 338 7 339 9 340 5 341 9 342 10 343 9 344 10 345 9 346 10 347 9 348 10 349 8 350 7 351 9 352 10 353 9 354 10 355 7 356 9 357 10 358 2 359 4 360 3 361 3 362 2 363 3 364 2 365 3 366 2 367 3 368 3 369 2 370 3 371 2 372 3 373 2 374 3 375 2 376 3 377 2 378 3 379 2 380 3 381</v>
        </vertex_weights>
      </skin>
    </controller>
  </library_controllers>
  <library_visual_scenes>
    <visual_scene id="___" name="   ">
      <node id="NHAND_001" name="NHAND_001" type="NODE">
        <matrix sid="transform">1 0 0 0 0 1 0 0 0 0 1 0 0 0 0 1</matrix>
        <node id="NHAND_001_Root" name="Root" sid="Root" type="JOINT">
          <matrix sid="transform">-0.005390144 -1.78814e-7 0.9999855 -0.002486336 -0.4142332 0.910168 -0.002232671 -0.4572203 -0.9101548 -0.4142392 -0.004906014 -0.00476253 0 0 0 1</matrix>
          <node id="NHAND_001_Wrist_R" name="Wrist_R" sid="Wrist_R" type="JOINT">
            <matrix sid="transform">0.9741668 -0.2172022 0.06182503 0.008817583 0.2213545 0.8641488 -0.4519391 0.3168386 0.04473617 0.4539493 0.8899038 -0.5692433 0 0 0 1</matrix>
            <node id="NHAND_001_HandBtm_R" name="HandBtm_R" sid="HandBtm_R" type="JOINT">
              <matrix sid="transform">0.992782 -0.1049072 0.05812451 7.45058e-9 0.1002774 0.991933 0.077546 0.3467449 -0.06579074 -0.07115771 0.9952931 -2.98023e-8 0 0 0 1</matrix>
              <node id="NHAND_001_HandMid_R" name="HandMid_R" sid="HandMid_R" type="JOINT">
                <matrix sid="transform">0.9862403 0.1416408 -0.08525318 1.49012e-8 -0.148133 0.9860929 -0.07534797 0.09940465 0.07339521 0.08694001 0.9935062 0 0 0 0 1</matrix>
                <extra>
                  <technique profile="blender">
                    <connect sid="connect" type="bool">1</connect>
                    <layer sid="layer" type="string">0</layer>
                    <roll sid="roll" type="float">1.472438</roll>
                    <tip_x sid="tip_x" type="float">0.04382807</tip_x>
                    <tip_y sid="tip_y" type="float">0.08176261</tip_y>
                    <tip_z sid="tip_z" type="float">-0.01921087</tip_z>
                  </technique>
                </extra>
              </node>
              <node id="NHAND_001_TmbBtm_R" name="TmbBtm_R" sid="TmbBtm_R" type="JOINT">
                <matrix sid="transform">0.9299533 0.3656844 -0.03823142 0.06481916 -0.2704685 0.6099411 -0.7448615 0.01958787 -0.2490653 0.703027 0.6661228 0.06838942 0 0 0 1</matrix>
                <node id="NHAND_001_TmbHi_R" name="TmbHi_R" sid="TmbHi_R" type="JOINT">
                  <matrix sid="transform">0.9960906 0.08818653 0.005165294 -7.45058e-9 -0.08816692 0.9960981 -0.003910329 0.04016247 -0.00548999 0.003439691 0.999979 -1.49012e-8 0 0 0 1</matrix>
                  <extra>
                    <technique profile="blender">
                      <connect sid="connect" type="bool">1</connect>
                      <layer sid="layer" type="string">0</layer>
                      <roll sid="roll" type="float">1.787147</roll>
                      <tip_x sid="tip_x" type="float">0.03715097</tip_x>
                      <tip_y sid="tip_y" type="float">0.01026767</tip_y>
                      <tip_z sid="tip_z" type="float">-0.0191636</tip_z>
                    </technique>
                  </extra>
                </node>
                <extra>
                  <technique profile="blender">
                    <layer sid="layer" type="string">0</layer>
                    <roll sid="roll" type="float">1.716361</roll>
                  </technique>
                </extra>
              </node>
              <extra>
                <technique profile="blender">
                  <connect sid="connect" type="bool">1</connect>
                  <layer sid="layer" type="string">0</layer>
                  <roll sid="roll" type="float">1.527671</roll>
                </technique>
              </extra>
            </node>
            <extra>
              <technique profile="blender">
                <layer sid="layer" type="string">0</layer>
                <roll sid="roll" type="float">1.482138</roll>
              </technique>
            </extra>
          </node>
          <node id="NHAND_001_Wrist_L" name="Wrist_L" sid="Wrist_L" type="JOINT">
            <matrix sid="transform">-0.9745924 -0.2122967 0.07141332 0.002681248 -0.2213546 0.8641486 -0.451939 0.3168386 0.03423345 -0.4562637 -0.8891857 0.5693052 0 0 0 1</matrix>
            <node id="NHAND_001_HandBtm_L" name="HandBtm_L" sid="HandBtm_L" type="JOINT">
              <matrix sid="transform">0.9927822 0.1049059 -0.05812446 0 -0.1002761 0.9919331 0.07754589 0.3467449 0.06579062 -0.07115769 0.9952931 0 0 0 0 1</matrix>
              <node id="NHAND_001_HandMid_L" name="HandMid_L" sid="HandMid_L" type="JOINT">
                <matrix sid="transform">0.9862407 -0.141639 0.08525284 1.49012e-8 0.1481311 0.9860932 -0.07534885 0.09940463 -0.07339488 0.08694073 0.9935062 0 0 0 0 1</matrix>
                <extra>
                  <technique profile="blender">
                    <connect sid="connect" type="bool">1</connect>
                    <layer sid="layer" type="string">0</layer>
                    <roll sid="roll" type="float">-1.472436</roll>
                    <tip_x sid="tip_x" type="float">-0.04382812</tip_x>
                    <tip_y sid="tip_y" type="float">0.08176261</tip_y>
                    <tip_z sid="tip_z" type="float">-0.01921075</tip_z>
                  </technique>
                </extra>
              </node>
              <node id="NHAND_001_TmbBtm_L" name="TmbBtm_L" sid="TmbBtm_L" type="JOINT">
                <matrix sid="transform">0.9299532 -0.3656852 0.03823135 -0.0648192 0.2704688 0.6099408 -0.7448617 0.0195879 0.2490661 0.7030268 0.6661227 0.06838936 0 0 0 1</matrix>
                <node id="NHAND_001_TmbHi_L" name="TmbHi_L" sid="TmbHi_L" type="JOINT">
                  <matrix sid="transform">0.9960912 -0.08818099 -0.005165368 -2.23517e-8 0.08816132 0.9960986 -0.003908936 0.04016244 0.005489923 0.003438264 0.9999791 1.49012e-8 0 0 0 1</matrix>
                  <extra>
                    <technique profile="blender">
                      <connect sid="connect" type="bool">1</connect>
                      <layer sid="layer" type="string">0</layer>
                      <roll sid="roll" type="float">-1.787142</roll>
                      <tip_x sid="tip_x" type="float">-0.03715097</tip_x>
                      <tip_y sid="tip_y" type="float">0.01026773</tip_y>
                      <tip_z sid="tip_z" type="float">-0.01916337</tip_z>
                    </technique>
                  </extra>
                </node>
                <extra>
                  <technique profile="blender">
                    <layer sid="layer" type="string">0</layer>
                    <roll sid="roll" type="float">-1.71636</roll>
                  </technique>
                </extra>
              </node>
              <extra>
                <technique profile="blender">
                  <connect sid="connect" type="bool">1</connect>
                  <layer sid="layer" type="string">0</layer>
                  <roll sid="roll" type="float">-1.52767</roll>
                </technique>
              </extra>
            </node>
            <extra>
              <technique profile="blender">
                <layer sid="layer" type="string">0</layer>
                <roll sid="roll" type="float">-1.482136</roll>
              </technique>
            </extra>
          </node>
          <extra>
            <technique profile="blender">
              <layer sid="layer" type="string">0</layer>
              <roll sid="roll" type="float">1.576187</roll>
              <tip_x sid="tip_x" type="float">0</tip_x>
              <tip_y sid="tip_y" type="float">0.1042082</tip_y>
              <tip_z sid="tip_z" type="float">-0.04742765</tip_z>
            </technique>
          </extra>
        </node>
        <node id="Manin1_007" name="Manin1.007" type="NODE">
          <matrix sid="transform">1 0 0 0 0 1 0 0 0 0 1 0 0 0 0 1</matrix>
          <instance_controller url="#NHAND_001_Manin1_007-skin">
            <skeleton>#NHAND_001_Root</skeleton>
            <bind_material>
              <technique_common>
                <instance_material symbol="Material_013-material" target="#Material_013-material">
                  <bind_vertex_input semantic="UVMap" input_semantic="TEXCOORD" input_set="0"/>
                </instance_material>
              </technique_common>
            </bind_material>
          </instance_controller>
        </node>
      </node>
    </visual_scene>
  </library_visual_scenes>
  <scene>
    <instance_visual_scene url="#___"/>
  </scene>
</COLLADA>