<?xml version="1.0" encoding="utf-8"?>
<COLLADA xmlns="http://www.collada.org/2005/11/COLLADASchema" version="1.4.1" xmlns:xsi="http://www.w3.org/2001/XMLSchema-instance">
  <asset>
    <contributor>
      <author>Blender User</author>
      <authoring_tool>Blender 2.92.0 commit date:2021-02-24, commit time:16:25, hash:02948a2cab44</authoring_tool>
    </contributor>
    <created>2021-05-20T16:18:21</created>
    <modified>2021-05-20T16:18:21</modified>
    <unit name="meter" meter="1"/>
    <up_axis>Z_UP</up_axis>
  </asset>
  <library_effects>
    <effect id="material0_004-effect">
      <profile_COMMON>
        <technique sid="common">
          <lambert>
            <emission>
              <color sid="emission">0 0 0 1</color>
            </emission>
            <diffuse>
              <color sid="diffuse">0.8 0.8 0.8 1</color>
            </diffuse>
            <index_of_refraction>
              <float sid="ior">1.45</float>
            </index_of_refraction>
          </lambert>
        </technique>
      </profile_COMMON>
    </effect>
  </library_effects>
  <library_images/>
  <library_materials>
    <material id="material0_004-material" name="material0.004">
      <instance_effect url="#material0_004-effect"/>
    </material>
  </library_materials>
  <library_geometries>
    <geometry id="mesh0_006-mesh" name="mesh0.006">
      <mesh>
        <source id="mesh0_006-mesh-positions">
          <float_array id="mesh0_006-mesh-positions-array" count="453">-0.7586769 -0.008280694 -0.9131797 -0.0863775 1.782771 -0.1048411 -0.1923229 -0.008280575 -1.174094 -0.01933282 1.782771 -0.135728 0.4264647 -0.008280575 -1.118401 0.0539186 1.782771 -0.129135 0.9318829 -0.008280575 -0.7610224 0.1137496 1.782771 -0.08682894 1.188505 -0.008280575 -0.1977177 0.1441284 1.782771 -0.02014505 1.127569 -0.008280575 0.4205757 0.1369147 1.782771 0.05304753 0.7654026 -0.008280694 0.9281868 0.09404176 1.782771 0.1131384 0.1990489 -0.008280694 1.189102 0.02699714 1.782771 0.1440253 -0.4197387 -0.008280694 1.133409 -0.04625421 1.782771 0.1374323 -0.9251568 -0.008280754 0.7760301 -0.1060853 1.782771 0.09512609 -1.181779 -0.008280694 0.2127256 -0.1364642 1.782771 0.02844268 -1.120843 -0.008280694 -0.4055677 -0.1292507 1.782771 -0.04475021 -0.2309371 0.9104872 -1.395195 1.096414 0.9104872 -0.9074805 0.9785997 0.005113601 -0.8853391 1.32746 0.9104872 0.4876332 0.2311558 0.9104872 1.395033 -1.271331 0.007122814 -0.3795087 -1.096195 0.9104871 0.9073188 -1.327242 0.9104872 -0.4877946 -0.2258443 0.4507254 -1.364444 1.072249 0.4507254 -0.8874792 1.298202 0.4507254 0.4768832 0.226063 0.4507253 1.364281 -1.07203 0.4507253 0.8873178 -1.213541 0.006475806 -0.5175637 -1.297984 0.4507253 -0.4770444 -0.2153233 1.331335 -1.300174 1.021699 1.331335 -0.8456493 0.5389464 0.4651446 -1.433965 1.237022 1.331335 0.4545246 0.2153234 1.331335 1.300174 -1.530349 0.4673075 0.2649366 -1.021699 1.331335 0.8456499 -1.397775 0.466611 -0.5976102 -1.237023 1.331335 -0.4545237 -0.3256353 0.466611 -1.48501 -0.9343168 1.346586 -1.128825 -0.9545753 1.797423 0.7037248 -0.123551 1.795511 -1.151575 0.4731816 0.005113601 -1.242718 -1.332267 0.007122814 0.2387846 -0.7534327 1.796807 -0.9107649 -0.2850206 0.006475806 -1.28609 -1.075645 0.007122755 0.8020889 -1.234033 0.4673075 0.9153708 -0.1456061 0.005113601 -1.298411 -0.1755527 0.4651446 -1.498273 1.397993 0.4666112 0.5974491 1.220267 0.006475925 0.5325714 0.8581006 0.006475806 1.040183 1.079089 1.796807 0.473365 0.9798094 0.4666109 1.183575 0.2917466 0.006475746 1.301098 0.7610963 1.796807 0.919063 0.325854 0.4666109 1.484847 1.332827 1.346586 0.5702739 1.427251 0.9263728 0.608199 0.9343168 1.346586 1.128825 0.9996414 0.9263728 1.207536 0.3111279 1.346586 1.415923 0.3309468 0.9263727 1.515599 0.2638206 1.796807 1.148154 1.216585 0.4654996 -0.9124729 1.065959 0.005443215 -0.7842394 1.322581 0.005443215 -0.2209346 0.9466289 1.795825 -0.6927232 1.5129 0.4654996 -0.2620387 1.261645 0.005443215 0.3973587 1.171951 1.795825 -0.1981244 1.442539 0.4654996 0.4518893 1.160269 1.345519 -0.8696445 1.24075 0.9252612 -0.9324738 1.442644 1.345519 -0.2498106 1.543743 0.9252612 -0.2673795 1.375593 1.345519 0.4305297 1.471796 0.9252611 0.4626399 1.118447 1.795825 0.3447555 0.4197633 1.795511 -1.102674 1.12254 0.4651446 -1.021309 -0.1670408 1.345178 -1.428657 -0.1806457 0.9249064 -1.529024 0.5138436 1.345178 -1.367375 0.5499576 0.9249065 -1.463267 1.069982 1.345178 -0.9741321 1.146705 0.9249064 -1.04131 0.8635355 1.795512 -0.7888851 0.170535 0.4666457 1.512046 -0.4713194 0.006508111 1.270669 0.1265882 1.796838 1.172185 -0.5439639 0.4666457 1.447738 -0.9767379 0.006508052 0.9132909 -0.4167258 1.796838 1.123285 -1.127558 0.4666457 1.035082 0.1620138 1.346619 1.442035 0.175628 0.9264076 1.542796 -0.5188704 1.346619 1.380753 -0.5549751 0.9264076 1.477039 -1.075009 1.346619 0.9875109 -1.151722 0.9264076 1.055083 -0.8604985 1.796838 0.8094958 -1.179897 1.797423 0.2091264 -1.459988 0.4673075 -0.4489914 -1.17723 1.347254 0.8725824 -1.258198 0.9270692 0.9353715 -1.459605 1.347254 0.2527489 -1.561192 0.9270692 0.2702777 -1.392554 1.347254 -0.4275915 -1.489245 0.9270693 -0.4597416 -1.126394 1.797423 -0.3337536 -0.8513748 0.006475806 -1.025176 -1.071426 1.796807 -0.465066 -0.9795907 0.466611 -1.183737 -0.9994227 0.9263728 -1.207698 -0.3111276 1.346586 -1.415924 -0.3307281 0.9263729 -1.515761 -1.332827 1.346586 -0.570273 -1.427033 0.9263728 -0.6083604 -0.2561567 1.796807 -1.139856 -0.1705207 1.782772 -1.048635 0.8311277 1.782772 -0.6805946 1.005481 1.782772 0.3721894 0.1781848 1.782772 1.056933 -0.008089482 0.4666457 1.495969 0.1725798 0.02769714 1.316765 -0.8234638 1.782772 0.6888934 -0.9978171 1.782772 -0.3638907 0.04449331 2.301066 0.01745498 0.0833041 2.301066 -4.24759e-4 0.1257081 2.301066 0.003391504 0.1603429 2.301066 0.0278818 0.1779285 2.301066 0.06648355 0.1737527 2.301066 0.1088535 0.1489346 2.301066 0.1436387 0.1101239 2.301066 0.1615185 0.06771999 2.301066 0.1577019 0.03308498 2.301066 0.1332117 0.01549953 2.301066 0.09461009 0.01967519 2.301066 0.05224013</float_array>
          <technique_common>
            <accessor source="#mesh0_006-mesh-positions-array" count="151" stride="3">
              <param name="X" type="float"/>
              <param name="Y" type="float"/>
              <param name="Z" type="float"/>
            </accessor>
          </technique_common>
        </source>
        <source id="mesh0_006-mesh-normals">
          <float_array id="mesh0_006-mesh-normals-array" count="849">0.05986595 -0.9946095 -0.08466464 -0.1175542 0.9929989 -0.01158618 -0.9343273 -0.03407919 -0.3547835 -0.09560209 0.9930799 -0.06821113 0.1862032 -0.1875314 0.9644482 0.7665342 -0.2105274 -0.6067155 -0.7676773 -0.03429859 0.6399182 0.09560239 0.99308 0.06820851 0.1158502 0.9932011 0.01141738 -0.398521 0.3047438 -0.8650504 -0.7234732 0.2717568 0.6346139 -0.08502572 -0.9945303 -0.06066334 -0.08944928 -0.06548011 0.9938367 -0.1035689 -0.99457 -0.01020723 -0.7207666 0.2819148 0.6332612 -0.7415308 -0.2006896 0.6401998 0.1971493 0.2728577 0.9416373 0.1035698 -0.9945699 0.01020735 0.04370367 -0.9945304 0.09486508 -0.934166 0.1112144 -0.3390655 -0.7582456 0.1117692 0.6423172 0.7208399 0.2813944 -0.6334092 0.7727006 0.1123894 -0.6247419 0.1055521 0.9932506 -0.04808503 0.9367472 -0.03408133 0.3483436 0.9121811 0.2734981 0.3051632 -0.01062399 0.9929522 0.118039 0.01048678 0.9931336 -0.1165153 -0.1671364 -0.03408145 -0.9853446 0.009328961 -0.99457 -0.1036514 -0.1914983 0.2788729 -0.9410411 0.1739079 -0.03407943 0.9841721 0.06729716 0.9931833 -0.09517365 -0.772711 0.1117692 0.6248403 -0.0239917 -0.9635187 0.2665636 0.7236249 0.2712122 -0.634674 0.9343289 -0.03407967 0.3547793 0.9592089 -0.1483053 0.2406736 -0.9051022 0.2892241 -0.3116724 -0.9262755 0.1112019 -0.3600667 -0.9367486 -0.03407949 -0.34834 -0.9213336 -0.2165209 -0.3228982 -0.1873381 0.2878217 -0.9391821 -0.158465 0.1115292 -0.9810454 0.1905736 0.2607401 0.9464125 -0.05986589 -0.9946095 0.08466464 0.7676787 -0.03429704 -0.6399165 0.7391141 -0.2112612 -0.639593 -0.0943613 -0.9946095 0.04298764 -0.7721174 -0.03429841 0.6345539 0.180606 0.1112297 0.9772459 0.1671366 -0.0340808 0.9853446 0.1489001 -0.1877451 0.9708659 -0.1739111 -0.03407865 -0.9841716 -0.1883639 -0.2216808 -0.9567532 0.9126625 0.2605535 0.3148954 -0.04914063 0.99308 -0.1066655 0.9341411 0.1115575 0.3390213 0.08502596 -0.9945303 0.06066334 0.7581506 0.1123895 -0.6423211 0.01265746 0.9997608 0.0178399 0.09436267 -0.9946094 -0.04298835 0.7721179 -0.03429847 -0.6345533 0.1584957 0.1112424 0.9810731 -0.1443207 -0.2215611 -0.9644078 -0.180626 0.1115044 -0.9772109 -0.9083698 0.2792416 -0.3112694 -0.9058486 -0.2170176 -0.3637883 0.9251756 -0.1928632 0.3268853 0.9262275 0.1115333 0.3600875 -0.7674406 -0.2013909 0.6086679 0.7567812 -0.3684362 0.5399418 0.7923996 0.2290806 0.5653539 0.407313 0.2289279 0.8841313 0.3893356 -0.3663429 0.8451099 0.8123128 -0.06524425 0.5795613 0.4175325 -0.06524413 0.9063166 0.3612977 0.5043964 0.7842501 0.7030138 0.5041717 0.5015802 0.8856372 0.2299202 -0.4034643 0.9687219 0.2290483 0.09547227 0.9230649 -0.3737316 0.0909729 0.9080492 -0.06572198 -0.4136754 0.9930428 -0.06548106 0.09786909 0.858251 0.5062119 0.08458489 0.7821821 0.5110936 -0.3563352 0.08726519 0.2287229 -0.9695724 0.5619192 0.2296068 -0.794687 0.5319248 -0.3887805 -0.7522671 0.08945006 -0.06548148 -0.9938365 0.5760955 -0.06572306 -0.8147358 0.4949498 0.5148391 -0.6999754 0.07672572 0.5171048 -0.8524764 -0.08724683 0.2296132 0.9693636 -0.5618195 0.230332 0.7945477 -0.5350566 -0.3756631 0.756698 -0.5760954 -0.06572091 0.8147362 -0.4955216 0.5131835 0.7007861 -0.07720816 0.5080899 0.8578366 -0.8854268 0.2308943 0.40337 -0.9684606 0.2301611 -0.09544664 -0.9166209 -0.3894166 -0.09033787 -0.9080486 -0.06572228 0.4136765 -0.9930427 -0.06548148 -0.09786903 -0.8500255 0.520037 -0.08377432 -0.7784015 0.5180161 0.3546131 -0.407301 0.2290499 -0.8841053 -0.7924346 0.2288963 -0.5653795 -0.7486598 -0.3926783 -0.5341464 -0.4175336 -0.06524395 -0.9063162 -0.8123128 -0.06524342 -0.5795613 -0.6954615 0.5197383 -0.4961909 -0.3575265 0.5195205 -0.7760627 -0.1071053 0.9930496 0.04879432 0.8409573 -0.3821218 -0.3831109 0 1 0 0.9099717 0.009945809 -0.4145514 -0.5747543 0.09460121 0.8128395 -0.770106 0.3241012 -0.5494498 0.08711665 0.2354422 -0.9679761 0.9919062 -0.08102583 0.09775984 -0.8898873 0.2091588 0.4054049 0.5726157 0.1277531 -0.8098089 0.8082113 -0.1195313 0.5766341 0.4164385 -0.09729981 0.9039424 -0.08962416 -0.01923465 0.99579 0.08244371 -0.392596 -0.9160085 -0.3844513 -0.3946997 -0.8345115 -0.8404327 -0.3835127 0.3828722 -0.9520723 0.2911256 -0.09383213 -0.04370319 -0.9945304 -0.09486478 0.04913991 0.9930796 0.106669 -0.0819441 -0.4054251 0.910448 0.05986583 -0.9946095 -0.08466446 -0.009199738 0.9997537 0.02019715 -3.97356e-7 1 3.61926e-6 -0.9343281 -0.03407943 -0.354781 -3.26224e-7 1 -1.35721e-6 0.006470203 0.99972 -0.02276647 0.1862016 -0.1875311 0.9644486 0.7665362 -0.2105278 -0.6067127 -0.767678 -0.03429841 0.6399173 0 1 1.80962e-6 -0.006470501 0.99972 0.02276629 0.01017063 0.999699 -0.02232837 1.32452e-7 1 -3.61926e-6 -0.3985208 0.3047433 -0.8650508 -0.7566196 0.282531 0.5896637 -0.0850259 -0.9945303 -0.06066346 -0.08944946 -0.06547939 0.9938367 -0.08944892 -0.06547975 0.9938367 -0.1035686 -0.99457 -0.01020723 -0.7585514 0.2723634 0.5919611 -0.7415322 -0.2006891 0.6401984 0.1386849 0.2611576 0.9552817 0.1035701 -0.9945698 0.01020735 0.04370373 -0.9945303 0.09486514 -0.9341656 0.1112143 -0.3390665 -0.7582466 0.111769 0.6423161 0.758826 0.2706074 -0.5924143 0.7726981 0.1123892 -0.6247451 1.20672e-7 1 -1.13101e-6 0.01712101 0.9996949 0.01780885 0.9367479 -0.03408157 0.3483417 0.8942787 0.2601903 0.3640973 0 1 4.52407e-7 -0.02110546 0.9997641 0.005152165 0 1 -1.35722e-6 0.0230115 0.9997195 -0.005616962 -0.1671347 -0.03408074 -0.985345 0.009328961 -0.99457 -0.1036513 -0.1323525 0.2906063 -0.947645 0.173911 -0.03407877 0.9841716 -0.01380074 0.9997157 -0.01945018 0 1 -3.61924e-6 -0.7727127 0.1117697 0.6248381 0.02436083 -0.9929345 0.1161363 0.7571616 0.2807757 -0.5898063 0.9343274 -0.03407883 0.3547829 0.9188181 -0.1568466 0.3621775 -0.8885028 0.2794116 -0.3639947 -0.9262787 0.1112003 -0.3600589 -0.9367461 -0.03408098 -0.3483465 -0.9213335 -0.2165212 -0.3228984 -0.1361049 0.2786459 -0.9507008 -0.1584655 0.1115289 -0.9810453 0.1379877 0.2702717 0.9528445 -0.05986607 -0.9946094 0.08466523 0.7676779 -0.0342971 -0.6399177 0.7391159 -0.2112609 -0.639591 -0.0943616 -0.9946095 0.04298776 -0.7721173 -0.03429782 0.6345539 0.1806092 0.11123 0.9772453 0.1671356 -0.03408008 0.9853448 0.1489012 -0.1877447 0.9708658 -0.1739092 -0.03407925 -0.9841719 -0.1883651 -0.2216805 -0.956753 0.8906041 0.2703225 0.3657187 -0.02357459 0.99972 0.00210154 0 1 9.04811e-7 0.9341417 0.1115576 0.3390197 0.08502596 -0.9945304 0.0606634 0.7581493 0.1123896 -0.6423227 -2.29675e-7 1 0 -0.06817781 0.9930034 0.09641718 0.09436237 -0.9946094 -0.04298824 0.7721173 -0.03429865 -0.6345539 0.1584965 0.1112418 0.981073 -0.1443212 -0.2215617 -0.9644076 -0.1806312 0.111504 -0.9772099 -0.8832376 0.2920699 -0.3668605 -0.9058474 -0.217018 -0.3637908 0.9251738 -0.1928637 0.3268903 0.9262305 0.111532 0.3600801 -0.767441 -0.2013907 0.6086675 0.7567819 -0.3684351 0.5399416 0.7923992 0.2290805 0.5653545 0.4073121 0.2289294 0.8841314 0.3893353 -0.3663436 0.8451097 0.8123124 -0.06524401 0.5795617 0.4175338 -0.06524574 0.9063159 0.361298 0.5043962 0.7842503 0.7030137 0.5041716 0.5015802 0.8856363 0.2299216 -0.4034655 0.9687215 0.2290498 0.09547251 0.9230652 -0.3737308 0.09097248 0.9080495 -0.06572264 -0.4136747 0.9930428 -0.06548166 0.09786915 0.8582507 0.5062126 0.0845859 0.7821819 0.511094 -0.3563348 0.08726525 0.2287232 -0.9695724 0.5619193 0.2296075 -0.7946868 0.5319244 -0.3887798 -0.7522678 0.08944857 -0.06548243 -0.9938366 0.5760955 -0.06572276 -0.814736 0.4949491 0.5148381 -0.6999765 0.07672756 0.5171039 -0.8524768 -0.08724558 0.2296138 0.9693636 -0.5618196 0.2303318 0.7945477 -0.5350569 -0.3756623 0.7566981 -0.5760948 -0.06572175 0.8147365 -0.4955221 0.5131832 0.7007859 -0.07720798 0.5080907 0.8578362 -0.8854267 0.2308941 0.4033703 -0.9684607 0.2301602 -0.09544658 -0.9166212 -0.3894162 -0.09033739 -0.9080489 -0.06572228 0.4136761 -0.9930427 -0.06548166 -0.09786933 -0.8500258 0.5200368 -0.08377313 -0.7784026 0.5180146 0.354613 -0.4073011 0.22905 -0.8841052 -0.7924347 0.2288985 -0.5653784 -0.7486596 -0.3926782 -0.5341468 -0.4175338 -0.06524389 -0.9063162 -0.8123124 -0.06524461 -0.5795617 -0.6954613 0.5197381 -0.4961914 -0.3575261 0.5195211 -0.7760626 -3.62017e-7 1 -3.61924e-6 -0.01548635 0.9997503 -0.01610833 0.8409572 -0.3821221 -0.3831106 0 1 -6.9491e-6 0 1 -4.40559e-6 0 1 -5.08713e-6 0 1 5.08715e-6 0.9099718 0.00994575 -0.4145508 -0.5747551 0.09460133 0.8128389 -0.7701077 0.3241016 -0.5494472 0.08712291 0.2354418 -0.9679756 0.9919063 -0.08102595 0.09775835 -0.8898895 0.2091594 0.4053999 0.5726116 0.1277535 -0.8098118 0.8082129 -0.1195314 0.5766319 0.4164392 -0.09729993 0.903942 -0.0896272 -0.01923453 0.9957897 0.08244508 -0.3925951 -0.9160088 -0.384454 -0.3946973 -0.8345113 -0.8404318 -0.3835142 0.3828726 -0.9520727 0.2911257 -0.09382659 -0.04370349 -0.9945304 -0.09486526 0.02357423 0.99972 -0.002101838 1.67681e-7 1 0 -0.08330368 -0.3693234 0.9255597 -0.05260157 -0.3959299 0.916773</float_array>
          <technique_common>
            <accessor source="#mesh0_006-mesh-normals-array" count="283" stride="3">
              <param name="X" type="float"/>
              <param name="Y" type="float"/>
              <param name="Z" type="float"/>
            </accessor>
          </technique_common>
        </source>
        <source id="mesh0_006-mesh-map-0">
          <float_array id="mesh0_006-mesh-map-0-array" count="1728">0.07974326 0.5920242 0.09528261 0.6860533 0.07602965 0.7004536 0.5142495 0.8084967 0.489032 0.8078638 0.4401497 0.7474244 0.2774733 0.5455728 0.2107411 0.539601 0.2107815 0.5237772 0.691287 0.4260114 0.7591484 0.4571406 0.7661693 0.4826304 0.1610723 0.9663614 0.05623716 0.9087061 0.1730106 0.9394009 0.8309843 0.1200992 0.7544623 0.04247295 0.7628715 0.01723057 0.6176398 0.2654889 0.6185058 0.1865445 0.6351299 0.2643845 0.4068743 0.5243695 0.4228428 0.4858981 0.4346184 0.4827579 0.4346184 0.4827579 0.434844 0.4704078 0.4675537 0.4475775 0.5919658 0.853797 0.9443529 0.8073416 0.9467021 0.8261419 0.3871427 0.4476167 0.4228428 0.4858981 0.3787376 0.4571549 0.151091 0.3903647 0.2274104 0.3356521 0.1745772 0.4035214 0.5325555 0.2876273 0.5077208 0.2238617 0.5623819 0.2020857 0.2874342 0.2280416 0.249422 0.3098742 0.2234878 0.3103617 0.6253535 0.3346292 0.63569 0.4028889 0.6226363 0.4111742 0.5990273 0.1864984 0.5889095 0.1067398 0.6185058 0.1865445 0.4240336 0.9136318 0.489032 0.8078638 0.5142495 0.8084967 0.04497128 0.8057424 0.05623716 0.9087061 0.03238105 0.9230043 0.6592919 0.0470016 0.5889095 0.1067398 0.5668721 0.09616947 0.2774733 0.5455728 0.3293546 0.5719525 0.2751668 0.5586246 0.3451347 0.4138752 0.3787376 0.4571549 0.3377801 0.4253559 0.3330812 0.5600792 0.3884913 0.5628947 0.3942103 0.5745677 0.2774733 0.5455728 0.3354746 0.546812 0.3330812 0.5600792 0.4675537 0.4475775 0.5000616 0.421023 0.5131662 0.4239413 0.2601331 0.7129969 0.183297 0.6931685 0.2613195 0.6970261 0.3310278 0.7047504 0.3950678 0.6783377 0.4069088 0.6870884 0.3918576 0.6270892 0.3859118 0.5822808 0.3942103 0.5745677 0.5626744 0.4085966 0.6108818 0.4007772 0.6226363 0.4111742 0.2601331 0.7129969 0.1810534 0.7281726 0.1768313 0.7099849 0.07974326 0.5920242 0.1315609 0.5144114 0.1035462 0.5969716 0.3310278 0.7047504 0.4025638 0.7007461 0.3328741 0.7206683 0.3013826 0.9630092 0.1730106 0.9394009 0.2983105 0.9337934 0.5131662 0.4239413 0.5192335 0.4131293 0.5626744 0.4085966 0.6176398 0.2654889 0.6422492 0.3329899 0.6253535 0.3346292 0.5600461 0.1188669 0.4638735 0.1212944 0.5668721 0.09616947 0.8436535 0.3728344 0.7591484 0.4571406 0.815427 0.3601803 0.6176398 0.2654889 0.5830712 0.1968069 0.5990273 0.1864984 0.5990273 0.1864984 0.5600461 0.1188669 0.5668721 0.09616947 0.4851535 0.3686855 0.5192335 0.4131293 0.5131662 0.4239413 0.4591332 0.3186228 0.4967255 0.3619 0.4851535 0.3686855 0.4591332 0.3186228 0.4420554 0.2554561 0.4723905 0.3133291 0.4255498 0.2590651 0.4033987 0.186452 0.4420554 0.2554561 0.3871427 0.4476167 0.434844 0.4704078 0.4346184 0.4827579 0.3451347 0.4138752 0.3945841 0.4367197 0.3871427 0.4476167 0.4851535 0.3686855 0.5000616 0.421023 0.472483 0.3742086 0.4638735 0.1212944 0.4033987 0.186452 0.3801792 0.1792653 0.2774733 0.5455728 0.220876 0.5098703 0.2831725 0.532331 0.2107815 0.5237772 0.1440796 0.4844248 0.220876 0.5098703 0.2874342 0.2280416 0.3750775 0.2046812 0.3047075 0.248808 0.3451347 0.4138752 0.2877036 0.3867315 0.2939014 0.3713986 0.4591332 0.3186228 0.472483 0.3742086 0.4470555 0.3270753 0.4591332 0.3186228 0.4137325 0.2719317 0.4255498 0.2590651 0.4255498 0.2590651 0.3750775 0.2046812 0.3801792 0.1792653 0.3451347 0.4138752 0.3085126 0.3623298 0.3553586 0.404053 0.2939014 0.3713986 0.249422 0.3098742 0.3085126 0.3623298 0.6253535 0.3346292 0.6108818 0.4007772 0.6087229 0.3342988 0.6226363 0.4111742 0.63569 0.4028889 0.691287 0.4260114 0.6176398 0.2654889 0.6087229 0.3342988 0.6011883 0.2703142 0.6592919 0.0470016 0.7544623 0.04247295 0.6690124 0.07158893 0.8605711 0.2473821 0.815427 0.3601803 0.8311548 0.251513 0.5420802 0.6018443 0.4069088 0.6870884 0.3918576 0.6270892 0.04497128 0.8057424 0.09095674 0.7190729 0.07092267 0.8104692 0.8605711 0.2473821 0.8081418 0.1379043 0.8309843 0.1200992 0.3013826 0.9630092 0.4054128 0.890114 0.4240336 0.9136318 0.1768313 0.7099849 0.09095674 0.7190729 0.07602965 0.7004536 0.2601331 0.7129969 0.3328741 0.7206683 0.2625917 0.7297095 0.3330812 0.5600792 0.3859118 0.5822808 0.3293546 0.5719525 0.2107815 0.5237772 0.1315609 0.5144114 0.1201858 0.4943637 0.1768313 0.7099849 0.09528261 0.6860533 0.183297 0.6931685 0.2601331 0.7129969 0.3274236 0.6898382 0.3310278 0.7047504 0.2939014 0.3713986 0.2274104 0.3356521 0.2234878 0.3103617 0.7544623 0.04247295 0.7045317 0.1662017 0.6690124 0.07158893 0.8311548 0.251513 0.7175508 0.336701 0.7189049 0.2551981 0.7175508 0.336701 0.6351299 0.2643845 0.7189049 0.2551981 0.6690124 0.07158893 0.6185058 0.1865445 0.5889095 0.1067398 0.8081418 0.1379043 0.7189049 0.2551981 0.7045317 0.1662017 0.7189049 0.2551981 0.6185058 0.1865445 0.7045317 0.1662017 0.691287 0.4260114 0.6422492 0.3329899 0.7175508 0.336701 0.815427 0.3601803 0.691287 0.4260114 0.7175508 0.336701 0.2625917 0.7297095 0.3569838 0.7976421 0.2738455 0.8187499 0.3569838 0.7976421 0.2983105 0.9337934 0.2738455 0.8187499 0.07092267 0.8104692 0.1730106 0.9394009 0.05623716 0.9087061 0.1810534 0.7281726 0.2738455 0.8187499 0.1775231 0.8227975 0.1775231 0.8227975 0.2983105 0.9337934 0.1730106 0.9394009 0.4401497 0.7474244 0.4054128 0.890114 0.3569838 0.7976421 0.4025638 0.7007461 0.3569838 0.7976421 0.3328741 0.7206683 0.2751668 0.5586246 0.3231065 0.6289825 0.2638471 0.6244374 0.3231065 0.6289825 0.2613195 0.6970261 0.2638471 0.6244374 0.1035462 0.5969716 0.183297 0.6931685 0.09528261 0.6860533 0.2751668 0.5586246 0.1932625 0.6137261 0.2107411 0.539601 0.2638471 0.6244374 0.183297 0.6931685 0.1932625 0.6137261 0.3918576 0.6270892 0.3274236 0.6898382 0.3231065 0.6289825 0.3293546 0.5719525 0.3918576 0.6270892 0.3231065 0.6289825 0.6011883 0.2703142 0.5496629 0.3433045 0.5325555 0.2876273 0.5496629 0.3433045 0.4723905 0.3133291 0.5325555 0.2876273 0.5077208 0.2238617 0.4033987 0.186452 0.474054 0.1447558 0.5325555 0.2876273 0.4420554 0.2554561 0.5077208 0.2238617 0.5496629 0.3433045 0.5192335 0.4131293 0.4967255 0.3619 0.6087229 0.3342988 0.5626744 0.4085966 0.5496629 0.3433045 0.4470555 0.3270753 0.4307412 0.4015367 0.3979665 0.3621163 0.4307412 0.4015367 0.3553586 0.404053 0.3979665 0.3621163 0.3579814 0.3134993 0.249422 0.3098742 0.3047075 0.248808 0.4137325 0.2719317 0.3979665 0.3621163 0.3579814 0.3134993 0.3579814 0.3134993 0.3553586 0.404053 0.3085126 0.3623298 0.4675537 0.4475775 0.3945841 0.4367197 0.4307412 0.4015367 0.472483 0.3742086 0.4675537 0.4475775 0.4307412 0.4015367 0.3527638 0.4991046 0.2831725 0.532331 0.3066715 0.4760181 0.3377801 0.4253559 0.3527638 0.4991046 0.3066715 0.4760181 0.2877036 0.3867315 0.1745772 0.4035214 0.2274104 0.3356521 0.3066715 0.4760181 0.220876 0.5098703 0.2511298 0.4458692 0.2877036 0.3867315 0.3066715 0.4760181 0.2511298 0.4458692 0.3787376 0.4571549 0.4068743 0.5243695 0.3527638 0.4991046 0.4068743 0.5243695 0.3354746 0.546812 0.3527638 0.4991046 0.4401497 0.7474244 0.4025638 0.7007461 0.4069088 0.6870884 0.09095674 0.7190729 0.1775231 0.8227975 0.07092267 0.8104692 0.9562453 0.4712479 0.9795421 0.5115992 0.9795421 0.558193 0.9562674 0.8627876 0.6185519 0.9482442 0.6084893 0.9171001 0.6053589 0.6921989 0.9497954 0.7509613 0.5973096 0.723923 0.5876135 0.7885919 0.9443529 0.8073416 0.5879077 0.8213202 0.5991935 0.8857185 0.9467021 0.8261419 0.9508859 0.8446208 0.9620923 0.8808163 0.628219 0.9795135 0.6185519 0.9482442 0.5973096 0.723923 0.9461408 0.7695516 0.5909964 0.7560378 0.6084893 0.9171001 0.9508859 0.8446208 0.9562674 0.8627876 0.9676882 0.6773384 0.6216458 0.6288025 0.6282195 0.59674 0.6216458 0.6288025 0.9593601 0.7142971 0.6138325 0.6605857 0.6138325 0.6605857 0.954455 0.7325973 0.6053589 0.6921989 0.2107411 0.539601 0.1035462 0.5969716 0.1315609 0.5144114 0.1745772 0.4035214 0.220876 0.5098703 0.1440796 0.4844248 0.4137325 0.2719317 0.3047075 0.248808 0.3750775 0.2046812 0.5909964 0.7560378 0.9441826 0.7883965 0.5876135 0.7885919 0.151091 0.3903647 0.1440796 0.4844248 0.1201858 0.4943637 0.3942103 0.5745677 0.3884913 0.5628947 0.4068743 0.5243695 0.5600461 0.1188669 0.5830712 0.1968069 0.5623819 0.2020857 0.07974326 0.5920242 0.1035462 0.5969716 0.09528261 0.6860533 0.4401497 0.7474244 0.5516351 0.619399 0.5142495 0.8084967 0.5516351 0.619399 0.5645098 0.6269758 0.5142495 0.8084967 0.2774733 0.5455728 0.2751668 0.5586246 0.2107411 0.539601 0.7661693 0.4826304 0.6038913 0.5764753 0.5933707 0.5659695 0.5933707 0.5659695 0.691287 0.4260114 0.7661693 0.4826304 0.1610723 0.9663614 0.03238105 0.9230043 0.05623716 0.9087061 0.8309843 0.1200992 0.8081418 0.1379043 0.7544623 0.04247295 0.6176398 0.2654889 0.5990273 0.1864984 0.6185058 0.1865445 0.4346184 0.4827579 0.5482864 0.5737101 0.5444049 0.5827928 0.5444049 0.5827928 0.4068743 0.5243695 0.4346184 0.4827579 0.4675537 0.4475775 0.5562694 0.5679124 0.4346184 0.4827579 0.5562694 0.5679124 0.5482864 0.5737101 0.4346184 0.4827579 0.5919658 0.853797 0.5879077 0.8213202 0.9443529 0.8073416 0.3871427 0.4476167 0.4346184 0.4827579 0.4228428 0.4858981 0.151091 0.3903647 0.2234878 0.3103617 0.2274104 0.3356521 0.5623819 0.2020857 0.5830712 0.1968069 0.6011883 0.2703142 0.6011883 0.2703142 0.5325555 0.2876273 0.5623819 0.2020857 0.2874342 0.2280416 0.3047075 0.248808 0.249422 0.3098742 0.6253535 0.3346292 0.6422492 0.3329899 0.63569 0.4028889 0.5990273 0.1864984 0.5668721 0.09616947 0.5889095 0.1067398 0.4240336 0.9136318 0.4054128 0.890114 0.489032 0.8078638 0.04497128 0.8057424 0.07092267 0.8104692 0.05623716 0.9087061 0.6592919 0.0470016 0.6690124 0.07158893 0.5889095 0.1067398 0.2774733 0.5455728 0.3330812 0.5600792 0.3293546 0.5719525 0.3451347 0.4138752 0.3871427 0.4476167 0.3787376 0.4571549 0.3330812 0.5600792 0.3354746 0.546812 0.3884913 0.5628947 0.2774733 0.5455728 0.2831725 0.532331 0.3354746 0.546812 0.5131662 0.4239413 0.5643237 0.562053 0.5562694 0.5679124 0.5562694 0.5679124 0.4675537 0.4475775 0.5131662 0.4239413 0.2601331 0.7129969 0.1768313 0.7099849 0.183297 0.6931685 0.3310278 0.7047504 0.3274236 0.6898382 0.3950678 0.6783377 0.3942103 0.5745677 0.5406035 0.5920152 0.5420802 0.6018443 0.5420802 0.6018443 0.3918576 0.6270892 0.3942103 0.5745677 0.6226363 0.4111742 0.5844746 0.5609164 0.5742011 0.5611696 0.5742011 0.5611696 0.5626744 0.4085966 0.6226363 0.4111742 0.2601331 0.7129969 0.2625917 0.7297095 0.1810534 0.7281726 0.07974326 0.5920242 0.1201858 0.4943637 0.1315609 0.5144114 0.3310278 0.7047504 0.4069088 0.6870884 0.4025638 0.7007461 0.3013826 0.9630092 0.1610723 0.9663614 0.1730106 0.9394009 0.5626744 0.4085966 0.5742011 0.5611696 0.5131662 0.4239413 0.5742011 0.5611696 0.5643237 0.562053 0.5131662 0.4239413 0.6176398 0.2654889 0.6351299 0.2643845 0.6422492 0.3329899 0.5600461 0.1188669 0.474054 0.1447558 0.4638735 0.1212944 0.8436535 0.3728344 0.7661693 0.4826304 0.7591484 0.4571406 0.6176398 0.2654889 0.6011883 0.2703142 0.5830712 0.1968069 0.5990273 0.1864984 0.5830712 0.1968069 0.5600461 0.1188669 0.4851535 0.3686855 0.4967255 0.3619 0.5192335 0.4131293 0.4591332 0.3186228 0.4723905 0.3133291 0.4967255 0.3619 0.4591332 0.3186228 0.4255498 0.2590651 0.4420554 0.2554561 0.4255498 0.2590651 0.3801792 0.1792653 0.4033987 0.186452 0.3871427 0.4476167 0.3945841 0.4367197 0.434844 0.4704078 0.3451347 0.4138752 0.3553586 0.404053 0.3945841 0.4367197 0.4851535 0.3686855 0.5131662 0.4239413 0.5000616 0.421023 0.4638735 0.1212944 0.474054 0.1447558 0.4033987 0.186452 0.2774733 0.5455728 0.2107815 0.5237772 0.220876 0.5098703 0.2107815 0.5237772 0.1201858 0.4943637 0.1440796 0.4844248 0.2874342 0.2280416 0.3801792 0.1792653 0.3750775 0.2046812 0.3451347 0.4138752 0.3377801 0.4253559 0.2877036 0.3867315 0.4591332 0.3186228 0.4851535 0.3686855 0.472483 0.3742086 0.4591332 0.3186228 0.4470555 0.3270753 0.4137325 0.2719317 0.4255498 0.2590651 0.4137325 0.2719317 0.3750775 0.2046812 0.3451347 0.4138752 0.2939014 0.3713986 0.3085126 0.3623298 0.2939014 0.3713986 0.2234878 0.3103617 0.249422 0.3098742 0.6253535 0.3346292 0.6226363 0.4111742 0.6108818 0.4007772 0.691287 0.4260114 0.5933707 0.5659695 0.6226363 0.4111742 0.5933707 0.5659695 0.5844746 0.5609164 0.6226363 0.4111742 0.6176398 0.2654889 0.6253535 0.3346292 0.6087229 0.3342988 0.6592919 0.0470016 0.7628715 0.01723057 0.7544623 0.04247295 0.8605711 0.2473821 0.8436535 0.3728344 0.815427 0.3601803 0.5444272 0.6119649 0.4069088 0.6870884 0.5420802 0.6018443 0.4069088 0.6870884 0.3950678 0.6783377 0.3918576 0.6270892 0.04497128 0.8057424 0.07602965 0.7004536 0.09095674 0.7190729 0.8605711 0.2473821 0.8311548 0.251513 0.8081418 0.1379043 0.3013826 0.9630092 0.2983105 0.9337934 0.4054128 0.890114 0.1768313 0.7099849 0.1810534 0.7281726 0.09095674 0.7190729 0.2601331 0.7129969 0.3310278 0.7047504 0.3328741 0.7206683 0.3330812 0.5600792 0.3942103 0.5745677 0.3859118 0.5822808 0.2107815 0.5237772 0.2107411 0.539601 0.1315609 0.5144114 0.1768313 0.7099849 0.07602965 0.7004536 0.09528261 0.6860533 0.2601331 0.7129969 0.2613195 0.6970261 0.3274236 0.6898382 0.2939014 0.3713986 0.2877036 0.3867315 0.2274104 0.3356521 0.7544623 0.04247295 0.8081418 0.1379043 0.7045317 0.1662017 0.8311548 0.251513 0.815427 0.3601803 0.7175508 0.336701 0.7175508 0.336701 0.6422492 0.3329899 0.6351299 0.2643845 0.6690124 0.07158893 0.7045317 0.1662017 0.6185058 0.1865445 0.8081418 0.1379043 0.8311548 0.251513 0.7189049 0.2551981 0.7189049 0.2551981 0.6351299 0.2643845 0.6185058 0.1865445 0.691287 0.4260114 0.63569 0.4028889 0.6422492 0.3329899 0.815427 0.3601803 0.7591484 0.4571406 0.691287 0.4260114 0.2625917 0.7297095 0.3328741 0.7206683 0.3569838 0.7976421 0.3569838 0.7976421 0.4054128 0.890114 0.2983105 0.9337934 0.07092267 0.8104692 0.1775231 0.8227975 0.1730106 0.9394009 0.1810534 0.7281726 0.2625917 0.7297095 0.2738455 0.8187499 0.1775231 0.8227975 0.2738455 0.8187499 0.2983105 0.9337934 0.4401497 0.7474244 0.489032 0.8078638 0.4054128 0.890114 0.4025638 0.7007461 0.4401497 0.7474244 0.3569838 0.7976421 0.2751668 0.5586246 0.3293546 0.5719525 0.3231065 0.6289825 0.3231065 0.6289825 0.3274236 0.6898382 0.2613195 0.6970261 0.1035462 0.5969716 0.1932625 0.6137261 0.183297 0.6931685 0.2751668 0.5586246 0.2638471 0.6244374 0.1932625 0.6137261 0.2638471 0.6244374 0.2613195 0.6970261 0.183297 0.6931685 0.3918576 0.6270892 0.3950678 0.6783377 0.3274236 0.6898382 0.3293546 0.5719525 0.3859118 0.5822808 0.3918576 0.6270892 0.6011883 0.2703142 0.6087229 0.3342988 0.5496629 0.3433045 0.5496629 0.3433045 0.4967255 0.3619 0.4723905 0.3133291 0.5077208 0.2238617 0.4420554 0.2554561 0.4033987 0.186452 0.5325555 0.2876273 0.4723905 0.3133291 0.4420554 0.2554561 0.5496629 0.3433045 0.5626744 0.4085966 0.5192335 0.4131293 0.6087229 0.3342988 0.6108818 0.4007772 0.5626744 0.4085966 0.4470555 0.3270753 0.472483 0.3742086 0.4307412 0.4015367 0.4307412 0.4015367 0.3945841 0.4367197 0.3553586 0.404053 0.3579814 0.3134993 0.3085126 0.3623298 0.249422 0.3098742 0.4137325 0.2719317 0.4470555 0.3270753 0.3979665 0.3621163 0.3579814 0.3134993 0.3979665 0.3621163 0.3553586 0.404053 0.4675537 0.4475775 0.434844 0.4704078 0.3945841 0.4367197 0.472483 0.3742086 0.5000616 0.421023 0.4675537 0.4475775 0.3527638 0.4991046 0.3354746 0.546812 0.2831725 0.532331 0.3377801 0.4253559 0.3787376 0.4571549 0.3527638 0.4991046 0.2877036 0.3867315 0.2511298 0.4458692 0.1745772 0.4035214 0.3066715 0.4760181 0.2831725 0.532331 0.220876 0.5098703 0.2877036 0.3867315 0.3377801 0.4253559 0.3066715 0.4760181 0.3787376 0.4571549 0.4228428 0.4858981 0.4068743 0.5243695 0.4068743 0.5243695 0.3884913 0.5628947 0.3354746 0.546812 0.4069088 0.6870884 0.5444272 0.6119649 0.5516351 0.619399 0.5516351 0.619399 0.4401497 0.7474244 0.4069088 0.6870884 0.09095674 0.7190729 0.1810534 0.7281726 0.1775231 0.8227975 0.9795421 0.558193 0.9562453 0.5985445 0.9158937 0.447951 0.9562453 0.5985445 0.9158937 0.6218415 0.8692997 0.447951 0.9158937 0.6218415 0.8692997 0.6218415 0.8692997 0.447951 0.8692997 0.6218415 0.8289482 0.5985446 0.8289482 0.4712479 0.8692997 0.447951 0.8692997 0.6218415 0.8289482 0.4712479 0.8289482 0.5985446 0.805651 0.5581932 0.805651 0.5115993 0.805651 0.5115993 0.8289482 0.4712479 0.8289482 0.5985446 0.8692997 0.447951 0.9158937 0.447951 0.9562453 0.5985445 0.9158937 0.447951 0.9562453 0.4712479 0.9795421 0.558193 0.9562674 0.8627876 0.9620923 0.8808163 0.6185519 0.9482442 0.6053589 0.6921989 0.954455 0.7325973 0.9497954 0.7509613 0.5876135 0.7885919 0.9441826 0.7883965 0.9443529 0.8073416 0.5991935 0.8857185 0.5919658 0.853797 0.9467021 0.8261419 0.9620923 0.8808163 0.9676882 0.8989173 0.628219 0.9795135 0.5973096 0.723923 0.9497954 0.7509613 0.9461408 0.7695516 0.6084893 0.9171001 0.5991935 0.8857185 0.9508859 0.8446208 0.9676882 0.6773384 0.9638828 0.6958987 0.6216458 0.6288025 0.6216458 0.6288025 0.9638828 0.6958987 0.9593601 0.7142971 0.6138325 0.6605857 0.9593601 0.7142971 0.954455 0.7325973 0.2107411 0.539601 0.1932625 0.6137261 0.1035462 0.5969716 0.1745772 0.4035214 0.2511298 0.4458692 0.220876 0.5098703 0.4137325 0.2719317 0.3579814 0.3134993 0.3047075 0.248808 0.5909964 0.7560378 0.9461408 0.7695516 0.9441826 0.7883965 0.151091 0.3903647 0.1745772 0.4035214 0.1440796 0.4844248 0.4068743 0.5243695 0.5444049 0.5827928 0.3942103 0.5745677 0.5444049 0.5827928 0.5406035 0.5920152 0.3942103 0.5745677 0.5623819 0.2020857 0.5077208 0.2238617 0.474054 0.1447558 0.474054 0.1447558 0.5600461 0.1188669 0.5623819 0.2020857</float_array>
          <technique_common>
            <accessor source="#mesh0_006-mesh-map-0-array" count="864" stride="2">
              <param name="S" type="float"/>
              <param name="T" type="float"/>
            </accessor>
          </technique_common>
        </source>
        <vertices id="mesh0_006-mesh-vertices">
          <input semantic="POSITION" source="#mesh0_006-mesh-positions"/>
        </vertices>
        <triangles material="material0_004-material" count="288">
          <input semantic="VERTEX" source="#mesh0_006-mesh-vertices" offset="0"/>
          <input semantic="NORMAL" source="#mesh0_006-mesh-normals" offset="1"/>
          <input semantic="TEXCOORD" source="#mesh0_006-mesh-map-0" offset="2" set="0"/>
          <p>4 0 0 26 0 1 6 0 2 133 1 3 89 1 4 81 1 5 24 2 6 59 2 7 32 2 8 66 3 9 63 3 10 133 3 11 34 4 12 80 4 13 82 4 14 34 5 15 61 5 16 10 5 17 28 6 18 67 6 19 73 6 20 54 7 21 123 7 22 138 7 23 138 8 24 121 8 25 113 8 26 3 9 27 139 9 28 140 9 29 47 10 30 123 10 31 128 10 32 0 11 33 37 11 34 122 11 35 109 12 36 102 12 37 135 12 38 20 13 39 29 13 40 22 13 41 43 14 42 74 14 43 134 14 44 35 15 45 65 15 46 67 15 47 42 16 48 89 16 49 133 16 50 8 17 51 80 17 52 10 17 53 12 18 54 65 18 55 14 18 56 24 19 57 92 19 58 93 19 59 31 20 60 128 20 61 129 20 62 39 21 63 130 21 64 131 21 65 24 22 66 126 22 67 39 22 68 113 23 69 50 23 70 137 23 71 25 24 72 91 24 73 97 24 74 40 25 75 98 25 76 132 25 77 90 26 78 51 26 79 131 26 80 104 27 81 101 27 82 134 27 83 25 28 84 75 28 85 33 28 86 4 29 87 58 29 88 52 29 89 40 30 90 78 30 91 83 30 92 27 31 93 82 31 94 88 31 95 137 32 96 112 32 97 104 32 98 28 33 99 72 33 100 43 33 101 136 34 102 16 34 103 14 34 104 42 35 105 63 35 106 68 35 107 28 36 108 99 36 109 35 36 110 35 37 111 136 37 112 14 37 113 45 38 114 112 38 115 137 38 116 30 39 117 110 39 118 45 39 119 30 40 120 105 40 121 111 40 122 36 41 123 103 41 124 105 41 125 47 42 126 121 42 127 138 42 128 31 43 129 119 43 130 47 43 131 45 44 132 50 44 133 115 44 134 16 45 135 103 45 136 18 45 137 24 46 138 48 46 139 127 46 140 32 47 141 55 47 142 48 47 143 20 48 144 56 48 145 53 48 146 31 49 147 46 49 148 38 49 149 30 50 150 115 50 151 116 50 152 30 51 153 57 51 154 36 51 155 36 52 156 56 52 157 18 52 158 31 53 159 114 53 160 120 53 161 38 54 162 29 54 163 114 54 164 43 55 165 101 55 166 106 55 167 134 56 168 74 56 169 66 56 170 28 57 171 106 57 172 107 57 173 12 58 174 61 58 175 62 58 176 27 59 177 68 59 178 69 59 179 5 60 180 132 60 181 90 60 182 8 61 183 76 61 184 77 61 185 27 62 186 60 62 187 34 62 188 27 63 189 87 63 190 42 63 191 33 64 192 76 64 193 6 64 194 25 65 195 83 65 196 84 65 197 39 66 198 51 66 199 92 66 200 32 67 201 58 67 202 2 67 203 33 68 204 26 68 205 91 68 206 25 69 207 96 69 208 40 69 209 38 70 210 37 70 211 22 70 212 61 71 213 64 71 214 62 71 215 69 72 216 70 72 217 71 72 218 70 73 219 73 73 220 71 73 221 62 74 222 67 74 223 65 74 224 60 75 225 71 75 226 64 75 227 71 76 228 67 76 229 64 76 230 66 77 231 72 77 232 70 77 233 68 78 234 66 78 235 70 78 236 84 79 237 85 79 238 86 79 239 85 80 240 88 80 241 86 80 242 77 81 243 82 81 244 80 81 245 75 82 246 86 82 247 79 82 248 79 83 249 88 83 250 82 83 251 81 84 252 87 84 253 85 84 254 78 85 255 85 85 256 83 85 257 93 86 258 94 86 259 95 86 260 94 87 261 97 87 262 95 87 263 52 88 264 91 88 265 26 88 266 93 89 267 41 89 268 59 89 269 95 90 270 91 90 271 41 90 272 90 91 273 96 91 274 94 91 275 92 92 276 90 92 277 94 92 278 107 93 279 108 93 280 109 93 281 108 94 282 111 94 283 109 94 284 102 95 285 103 95 286 100 95 287 109 96 288 105 96 289 102 96 290 108 97 291 112 97 292 110 97 293 106 98 294 104 98 295 108 98 296 116 99 297 117 99 298 118 99 299 117 100 300 120 100 301 118 100 302 44 101 303 29 101 304 53 101 305 57 102 306 118 102 307 44 102 308 44 103 309 120 103 310 114 103 311 113 104 312 119 104 313 117 104 314 115 105 315 113 105 316 117 105 317 49 106 318 127 106 319 125 106 320 129 107 321 49 107 322 125 107 323 46 108 324 122 108 325 37 108 326 125 109 327 48 109 328 124 109 329 46 110 330 125 110 331 124 110 332 128 111 333 54 111 334 49 111 335 54 112 336 126 112 337 49 112 338 81 113 339 78 113 340 132 113 341 76 114 342 79 114 343 77 114 344 143 115 345 142 115 346 141 115 347 142 116 348 9 116 349 7 116 350 17 117 351 148 117 352 19 117 353 23 118 354 139 118 355 1 118 356 5 119 357 140 119 358 141 119 359 143 120 360 11 120 361 9 120 362 19 121 363 149 121 364 21 121 365 7 122 366 141 122 367 142 122 368 144 123 369 13 123 370 11 123 371 13 124 372 146 124 373 15 124 374 15 125 375 147 125 376 17 125 377 59 126 378 52 126 379 58 126 380 122 127 381 48 127 382 55 127 383 57 128 384 53 128 385 56 128 386 21 129 387 150 129 388 23 129 389 0 130 390 55 130 391 2 130 392 131 131 393 130 131 394 54 131 395 136 132 396 99 132 397 135 132 398 4 133 399 52 133 400 26 133 401 81 134 402 9 134 403 133 134 404 9 135 405 11 135 406 133 135 407 24 136 408 93 136 409 59 136 410 133 137 411 11 137 412 13 137 413 13 138 414 66 138 415 133 138 416 34 139 417 10 139 418 80 139 419 34 140 420 60 140 421 61 140 422 28 141 423 35 141 424 67 141 425 138 142 426 23 142 427 1 142 428 1 143 429 54 143 430 138 143 431 113 144 432 21 144 433 138 144 434 21 145 435 23 145 436 138 145 437 3 146 438 1 146 439 139 146 440 47 147 441 138 147 442 123 147 443 0 148 444 22 148 445 37 148 446 135 149 447 99 149 448 107 149 449 107 150 450 109 150 451 135 150 452 20 151 453 53 151 454 29 151 455 43 152 456 72 152 457 74 152 458 35 153 459 14 153 460 65 153 461 42 154 462 87 154 463 89 154 464 8 155 465 77 155 466 80 155 467 12 156 468 62 156 469 65 156 470 24 157 471 39 157 472 92 157 473 31 158 474 47 158 475 128 158 476 39 159 477 126 159 478 130 159 479 24 160 480 127 160 481 126 160 482 137 161 483 19 161 484 21 161 485 21 162 486 113 162 487 137 162 488 25 163 489 33 163 490 91 163 491 40 164 492 96 164 493 98 164 494 131 165 495 3 165 496 5 165 497 5 166 498 90 166 499 131 166 500 134 167 501 15 167 502 17 167 503 17 168 504 104 168 505 134 168 506 25 169 507 84 169 508 75 169 509 4 170 510 2 170 511 58 170 512 40 171 513 132 171 514 78 171 515 27 172 516 34 172 517 82 172 518 104 173 519 17 173 520 137 173 521 17 174 522 19 174 523 137 174 524 28 175 525 73 175 526 72 175 527 136 176 528 100 176 529 16 176 530 42 177 531 133 177 532 63 177 533 28 178 534 107 178 535 99 178 536 35 179 537 99 179 538 136 179 539 45 180 540 110 180 541 112 180 542 30 181 543 111 181 544 110 181 545 30 182 546 36 182 547 105 182 548 36 183 549 18 183 550 103 183 551 47 184 552 119 184 553 121 184 554 31 185 555 120 185 556 119 185 557 45 186 558 137 186 559 50 186 560 16 187 561 100 187 562 103 187 563 24 188 564 32 188 565 48 188 566 32 189 567 2 189 568 55 189 569 20 190 570 18 190 571 56 190 572 31 191 573 129 191 574 46 191 575 30 192 576 45 192 577 115 192 578 30 193 579 116 193 580 57 193 581 36 194 582 57 194 583 56 194 584 31 195 585 38 195 586 114 195 587 38 196 588 22 196 589 29 196 590 43 197 591 134 197 592 101 197 593 66 198 594 13 198 595 134 198 596 13 199 597 15 199 598 134 199 599 28 200 600 43 200 601 106 200 602 12 201 603 10 201 604 61 201 605 27 202 606 42 202 607 68 202 608 7 203 609 132 203 610 5 203 611 132 204 612 98 204 613 90 204 614 8 205 615 6 205 616 76 205 617 27 206 618 69 206 619 60 206 620 27 207 621 88 207 622 87 207 623 33 208 624 75 208 625 76 208 626 25 209 627 40 209 628 83 209 629 39 210 630 131 210 631 51 210 632 32 211 633 59 211 634 58 211 635 33 212 636 6 212 637 26 212 638 25 213 639 97 213 640 96 213 641 38 214 642 46 214 643 37 214 644 61 215 645 60 215 646 64 215 647 69 216 648 68 216 649 70 216 650 70 217 651 72 217 652 73 217 653 62 218 654 64 218 655 67 218 656 60 219 657 69 219 658 71 219 659 71 220 660 73 220 661 67 220 662 66 221 663 74 221 664 72 221 665 68 222 666 63 222 667 66 222 668 84 223 669 83 223 670 85 223 671 85 224 672 87 224 673 88 224 674 77 225 675 79 225 676 82 225 677 75 226 678 84 226 679 86 226 680 79 227 681 86 227 682 88 227 683 81 228 684 89 228 685 87 228 686 78 229 687 81 229 688 85 229 689 93 230 690 92 230 691 94 230 692 94 231 693 96 231 694 97 231 695 52 232 696 41 232 697 91 232 698 93 233 699 95 233 700 41 233 701 95 234 702 97 234 703 91 234 704 90 235 705 98 235 706 96 235 707 92 236 708 51 236 709 90 236 710 107 237 711 106 237 712 108 237 713 108 238 714 110 238 715 111 238 716 102 239 717 105 239 718 103 239 719 109 240 720 111 240 721 105 240 722 108 241 723 104 241 724 112 241 725 106 242 726 101 242 727 104 242 728 116 243 729 115 243 730 117 243 731 117 244 732 119 244 733 120 244 734 44 245 735 114 245 736 29 245 737 57 246 738 116 246 739 118 246 740 44 247 741 118 247 742 120 247 743 113 248 744 121 248 745 119 248 746 115 249 747 50 249 748 113 249 749 49 250 750 126 250 751 127 250 752 129 251 753 128 251 754 49 251 755 46 252 756 124 252 757 122 252 758 125 253 759 127 253 760 48 253 761 46 254 762 129 254 763 125 254 764 128 255 765 123 255 766 54 255 767 54 256 768 130 256 769 126 256 770 132 257 771 7 257 772 9 257 773 9 258 774 81 258 775 132 258 776 76 259 777 75 259 778 79 259 779 141 260 780 140 260 781 144 260 782 140 261 783 139 261 784 145 261 785 139 115 786 150 115 787 145 115 788 150 115 789 149 115 790 146 115 791 145 262 792 150 262 793 146 262 794 149 115 795 148 115 796 147 115 797 147 115 798 146 115 799 149 115 800 145 263 801 144 263 802 140 263 803 144 115 804 143 115 805 141 115 806 142 264 807 143 264 808 9 264 809 17 265 810 147 265 811 148 265 812 23 266 813 150 266 814 139 266 815 5 267 816 3 267 817 140 267 818 143 268 819 144 268 820 11 268 821 19 269 822 148 269 823 149 269 824 7 270 825 5 270 826 141 270 827 144 271 828 145 271 829 13 271 830 13 272 831 145 272 832 146 272 833 15 273 834 146 273 835 147 273 836 59 274 837 41 274 838 52 274 839 122 275 840 124 275 841 48 275 842 57 276 843 44 276 844 53 276 845 21 277 846 149 277 847 150 277 848 0 278 849 122 278 850 55 278 851 54 279 852 1 279 853 131 279 854 1 280 855 3 280 856 131 280 857 135 281 858 102 281 859 100 281 860 100 282 861 136 282 862 135 282 863</p>
        </triangles>
      </mesh>
    </geometry>
  </library_geometries>
  <library_visual_scenes>
    <visual_scene id="Scene" name="Scene">
      <node id="Cylinder_006" name="Cylinder.006" type="NODE">
        <matrix sid="transform">1 0 0 0 0 1 0 0 0 0 1 0 0 0 0 1</matrix>
        <instance_geometry url="#mesh0_006-mesh" name="Cylinder.006">
          <bind_material>
            <technique_common>
              <instance_material symbol="material0_004-material" target="#material0_004-material">
                <bind_vertex_input semantic="mesh0-mesh-map-0" input_semantic="TEXCOORD" input_set="0"/>
              </instance_material>
            </technique_common>
          </bind_material>
        </instance_geometry>
      </node>
    </visual_scene>
  </library_visual_scenes>
  <scene>
    <instance_visual_scene url="#Scene"/>
  </scene>
</COLLADA>