<?xml version="1.0" encoding="utf-8"?>
<COLLADA xmlns="http://www.collada.org/2005/11/COLLADASchema" version="1.4.1" xmlns:xsi="http://www.w3.org/2001/XMLSchema-instance">
  <asset>
    <contributor>
      <author>Blender User</author>
      <authoring_tool>Blender 2.92.0 commit date:2021-02-24, commit time:16:25, hash:02948a2cab44</authoring_tool>
    </contributor>
    <created>2021-06-02T16:20:53</created>
    <modified>2021-06-02T16:20:53</modified>
    <unit name="meter" meter="1"/>
    <up_axis>Z_UP</up_axis>
  </asset>
  <library_effects>
    <effect id="material0_002-effect">
      <profile_COMMON>
        <technique sid="common">
          <lambert>
            <emission>
              <color sid="emission">0 0 0 1</color>
            </emission>
            <diffuse>
              <color sid="diffuse">0.206687 0.07373165 0.0189778 1</color>
            </diffuse>
            <index_of_refraction>
              <float sid="ior">1.45</float>
            </index_of_refraction>
          </lambert>
        </technique>
      </profile_COMMON>
    </effect>
  </library_effects>
  <library_images/>
  <library_materials>
    <material id="material0_002-material" name="material0.002">
      <instance_effect url="#material0_002-effect"/>
    </material>
  </library_materials>
  <library_geometries>
    <geometry id="mesh0_006-mesh" name="mesh0.006">
      <mesh>
        <source id="mesh0_006-mesh-positions">
          <float_array id="mesh0_006-mesh-positions-array" count="576">-6.420661 -0.6821202 8.638193 1.739116 6.980449 -4.699312 -0.1777738 2.100842 6.858108 0.2938082 6.681408 0.3428136 7.194232 2.800856 -7.074706 5.739867 5.294095 -3.578159 -2.799975 5.442411 -0.373026 -2.01535 1.445691 9.444438 -3.38834 1.532198 10.80697 -0.9510904 5.263533 6.580558 3.605172 6.853194 -4.469913 -1.601048 6.071128 2.646327 -0.3159243 4.349444 6.82266 -5.591464 -0.02630698 12.82704 7.015525 3.883823 -6.475254 -5.782774 4.277875 7.057891 1.200708 6.195237 1.995929 -2.372452 2.137053 1.685419 7.146328 2.658746 -9.091238 -0.1732195 3.627205 -1.620441 4.531699 6.31586 -3.260987 -1.21638 5.377957 -3.234578 -5.237781 2.592651 1.608762 4.865146 4.645053 -0.3125854 7.44519 2.357208 -8.604826 6.638522 0.3532751 -10.79568 7.777722 0.9601621 -8.847115 5.691828 3.462776 -2.357456 -1.710365 2.304278 9.29221 5.115841 2.625271 -2.956692 6.77742 3.613126 -7.839294 7.488206 1.800404 -7.928927 -2.591507 3.667786 8.68225 -0.4858617 3.557999 7.541901 6.31889 2.933623 -9.516085 -6.087459 3.177942 9.189501 0.5070087 6.631096 -3.900729 1.870349 7.509282 -2.111182 0.1626962 5.61089 -4.666332 0.5123975 2.212883 6.077368 -4.152844 2.89746 10.12786 -1.410062 3.152327 8.582703 4.147915 3.595171 1.356963 -4.456621 4.69239 1.138989 1.402701 7.397378 -3.362007 2.345658 3.881305 3.34904 6.153125 3.374844 -4.254128 -0.2392906 6.22338 2.73798 -2.576543 2.685527 9.73797 3.14595 3.148146 -8.287976 1.244518 3.221971 -4.983805 4.08432 3.695511 -8.36305 0.8220906 2.793136 5.963715 4.589015 5.382121 -6.870703 6.828791 2.014674 -6.125082 2.09038 5.303794 2.434885 -1.288652 1.423997 8.08088 1.102287 2.958245 0.5912385 -7.402718 2.034212 10.46494 -5.36983 1.732645 2.312306 -8.254976 1.03432 7.978394 1.16064 5.037822 4.040695 4.369248 3.419282 -0.423478 -8.052076 0.06143105 8.989854 -2.707171 1.751512 10.15047 -1.695477 6.132504 4.753159 0.2439135 4.899334 5.706943 5.456597 3.9286 -1.306486 2.365078 3.360352 -1.50625 3.002029 5.123287 1.588803 -7.009788 -0.589511 9.248057 -3.270139 1.067106 10.83514 0.7233666 2.228231 3.567117 -7.416737 1.599658 11.36815 4.93216 6.058546 -4.932219 -3.303838 0.404461 8.115436 -3.00234 0.781968 5.144131 3.077188 3.087265 1.510341 -6.994904 0.5990411 12.18955 -2.454958 3.204921 -0.3354017 -7.958766 0.7853211 6.429788 -6.012251 3.601952 3.004307 -4.086781 5.036362 6.901921 -7.951502 0.5993511 10.74616 2.045254 5.282714 -6.105264 -3.952708 1.58172 2.802399 6.383033 4.790519 -5.079231 0.6760967 3.790407 6.145867 -6.925773 -0.5413467 11.3415 -4.053366 1.638187 11.06575 -4.076023 -0.7400949 10.70342 -0.6343879 1.630165 6.16744 -3.486363 3.627979 -0.2383427 -7.604147 0.186783 6.935721 -1.754349 4.040196 -1.734594 -6.224258 1.144277 3.327073 -3.865607 2.492131 1.213012 -6.591562 2.459513 2.880112 -6.000608 -0.8229452 10.71253 -4.897488 3.613195 1.206215 -2.835497 1.146077 10.28367 -0.6254622 2.546708 7.797481 -5.635521 -0.155025 6.124057 -4.249434 0.820635 11.83266 -7.287542 -0.08732891 11.62125 6.019088 2.054923 -4.357105 -3.707767 1.116633 11.29425 -1.518942 4.18063 7.624388 3.261467 2.326191 -8.758612 4.15945 1.072784 -8.522212 2.35044 2.096869 -6.296846 1.970799 2.679853 -4.614274 8.271327 0.504886 -10.34723 0.1599867 6.879642 -1.860729 -1.112723 4.615666 -3.077698 -3.738836 0.5493571 11.63366 -3.346414 2.101396 10.44454 -2.274013 4.690319 -1.938339 1.077537 3.548246 -3.574108 5.898798 0.455593 -8.781539 1.471607 3.056759 -6.132917 1.442817 4.369218 -6.185192 7.459621 0.2990351 -9.201487 -5.284441 -0.9672629 12.08605 3.523463 2.183912 -4.242279 1.42336 3.379879 -1.260419 5.226677 1.013514 -5.864868 -4.967726 0.76065 3.824928 8.749721 0.643238 -11.15369 6.715138 1.107493 -12.12318 6.736436 0.5256912 -12.33786 -3.477706 4.628708 -0.6287308 3.949754 1.731806 -9.244553 -5.707248 -0.7545282 12.501 -5.603354 1.368112 11.50043 4.446431 1.213183 -9.365324 6.222569 0.6077591 -11.165 9.038851 -0.03448498 -12.73836 8.984506 0.280059 -11.7367 3.143239 1.356153 -7.579127 7.689489 0.158567 -12.75592 3.749464 1.037028 -6.984807 3.033314 1.808148 -8.049114 8.357002 0.8999261 -10.23409 8.986662 0.002006053 -14.12748 8.515653 1.068193 -11.2764 7.703456 0.3922581 -13.57991 5.384868 0.90001 -10.29161 9.257674 0.6531581 -13.32242 0.2281535 4.08201 -4.018213 9.48649 0.2191489 -12.94348 7.333779 1.33371 -7.520804 -2.190353 5.315765 -1.762253 6.874462 3.344755 -5.690577 5.451193 0.7327582 -9.859968 7.948953 1.482151 -9.508623 5.448072 1.132878 -10.66376 -0.7630953 4.16654 -2.655805 -0.07207041 4.842762 -4.288226 0.6183728 4.777714 -5.155293 7.656519 1.948983 -10.11785 9.234584 0.5476931 -12.13891 7.809461 0.189212 -10.95924 8.452924 0.5756132 -14.17238 3.826896 1.324097 -8.684324 4.683496 1.943639 -9.931488 -1.068819 6.03774 -2.225347 2.955848 2.137489 -8.458254 6.871274 0.776287 -7.440721 3.34706 3.242703 2.475155 0.9364878 4.099362 -5.529832 4.090349 3.051834 -1.856765 2.5913 6.042212 1.082303 3.710514 5.840054 0.05332523 2.377932 3.231068 -2.644408 -0.8973352 2.000497 2.742141 5.582574 2.32515 -10.285 -1.847442 6.018139 0.6191786 5.723459 5.094612 -6.47484 2.237046 2.989428 3.184222 7.954103 1.39487 -12.25537 0.4203689 5.903876 4.430826 -3.501099 5.410564 1.429742 -3.409467 0.3351021 10.64973 3.899029 4.465529 0.9505308 -6.858308 1.423143 3.446292 -4.600039 5.164047 5.109649 2.281528 7.291228 -1.010972 1.288269 2.548193 4.867274 2.132671 2.929398 -7.447082 -2.426433 0.872758 9.128374 -4.330273 -0.5328565 13.16375</float_array>
          <technique_common>
            <accessor source="#mesh0_006-mesh-positions-array" count="192" stride="3">
              <param name="X" type="float"/>
              <param name="Y" type="float"/>
              <param name="Z" type="float"/>
            </accessor>
          </technique_common>
        </source>
        <source id="mesh0_006-mesh-normals">
          <float_array id="mesh0_006-mesh-normals-array" count="1140">0.5460631 0.8262708 -0.1381726 0.4507074 0.8232378 -0.34517 0.4396805 0.7097977 0.5503348 0.5264269 0.7354468 0.4266063 0.7868232 0.5303674 0.315626 -0.512566 -0.8242447 -0.2406172 -0.1229014 0.8321243 -0.5408 0.4781183 0.7607041 -0.4390129 0.7667824 0.4485852 0.4591475 0.7302136 -0.65086 0.2077726 0.979619 0.09298324 0.1780474 0.3818867 0.8494975 -0.3640285 0.6610619 0.7055243 -0.2554069 0.6622827 0.7009316 0.2647198 -0.1413328 -0.9897459 -0.02068996 0.6434841 0.7525207 -0.1401458 -0.4420459 -0.8609632 -0.25167 -0.5103754 0.4030515 -0.7596489 0.9250841 0.06757152 0.3737028 -0.0360831 0.8001862 -0.5986652 -0.6184136 0.4531412 -0.6420497 -0.1905727 -0.9620279 0.1954081 0.5006874 -0.8569498 0.1222663 -0.1351587 -0.9904849 0.02591925 0.8783117 -0.1754429 0.4447342 -0.234907 0.6825977 -0.6920109 -0.1389815 -0.8710187 0.4711802 -0.2638701 -0.5861499 -0.7660293 -0.6622613 -0.5794324 -0.4750455 -0.1419137 -0.9895282 0.02635401 -0.3803036 -0.8880578 -0.2583073 -0.3834326 0.5562101 -0.737299 -0.3993654 -0.910011 -0.1112988 0.6835466 -0.3351938 0.6483898 -0.2124267 -0.9109876 -0.3535202 -0.4243628 -0.8948161 -0.1386377 0.126888 0.9825496 0.1359999 0.936327 0.2752118 -0.2180601 -0.4251293 -0.8735904 -0.2368649 0.9011062 -0.1239237 0.4155123 0.1658026 0.9748075 -0.1491981 -0.1388512 -0.9903131 -6.87556e-4 0.8975738 0.3193808 0.3039034 0.4407899 -0.8862512 0.1423488 -0.02204746 0.6890052 0.724421 -0.3763092 -0.7728843 -0.5109219 -0.4639341 -0.4894846 -0.7383563 0.6154929 0.5732386 0.5408937 -0.3455939 -0.9334138 -0.09645527 0.345967 0.8651285 -0.363125 0.1112397 -0.9316378 -0.3459433 -0.6474042 0.6593478 -0.3822672 -0.6898102 -0.2579328 -0.6764855 -0.4941002 -0.8545752 -0.1598942 -0.7139773 0.2765921 -0.6432209 0.5883611 0.7670394 0.2558945 -0.5710915 0.4600402 -0.6798658 0.3708761 -0.6954414 0.6154772 0.4176443 0.9082955 0.02393186 -0.3300728 0.9381597 0.1044436 0.8233062 0.5414849 -0.17018 0.7288178 0.6074514 0.3159551 0.7654963 -0.3580549 0.5346142 -0.2373115 -0.7339439 -0.6364037 0.977131 0.04637533 0.2075195 -0.3984163 -0.8866242 -0.234866 -0.7065859 -0.251859 -0.6612893 -0.6571127 0.745384 -0.1122753 -0.7146499 -0.03721976 -0.6984913 0.1555353 0.9151778 0.3718313 0.71036 0.4224534 0.5629581 0.9347925 0.1911538 0.2993716 -0.09698075 -0.8816081 -0.4619112 0.9651176 0.1272159 0.2288323 -0.703664 -0.1288873 -0.6987455 -0.5365436 -0.8428798 0.04092508 0.2158116 -0.9270697 -0.3065407 0.07793009 -0.8669249 -0.4923089 -0.2821683 0.9538258 0.1029439 0.5112158 0.8593964 -0.009820103 0.7127423 0.4493262 0.5386135 0.938803 -0.009536027 0.3443226 -0.8292643 -0.1014671 0.5495682 -0.6827384 -0.5389615 -0.4933444 -0.364525 0.9300291 -0.04655575 -0.911205 0.3797832 0.1595946 -0.1203466 -0.9097682 -0.397289 0.6512517 0.7578399 0.03937089 0.6079587 0.5740584 0.5484917 0.659516 0.7510668 0.03061735 0.6907537 0.4585931 0.5590633 -0.6851792 0.01162922 -0.7282817 -0.7575126 -0.6204407 -0.2030466 -0.6830256 -0.561369 -0.4672696 -0.4105302 -0.8982968 -0.1566142 -0.2538144 0.5893724 -0.766954 0.1284033 -0.9448317 -0.3013396 0.6424034 0.4925797 0.5870973 -0.3396089 0.9395875 0.04291021 0.6682184 0.468746 0.5777209 0.7362011 0.4544129 0.5015147 0.1291549 0.9682778 0.2139095 0.4325619 0.8990305 0.06807726 -0.3931618 0.5756793 -0.7169499 0.09886163 0.9567981 -0.27343 0.7611074 0.645079 -0.06774091 -0.499183 -0.2867257 0.8176825 0.8092201 -0.1269289 0.5736305 -0.1400905 0.6793076 -0.7203582 -0.06320255 -0.8834418 -0.4642587 -0.1203382 0.9796634 0.1605569 -0.3619168 -0.907842 -0.211753 0.9463626 0.3112005 0.08690237 -0.3440779 -0.6936773 -0.6327893 0.3776329 0.7581996 -0.5315327 -0.936541 -0.3269103 -0.126573 0.5415414 -0.7974247 0.2661705 0.2703432 -0.9142503 0.3017632 0.3749639 0.819457 0.4334653 0.4900644 -0.6267752 0.6057968 0.4398871 0.7840003 -0.4379988 -0.07327812 0.9451953 0.3181766 0.3504166 -0.8246869 0.4439591 -0.1847358 -0.982352 -0.02928203 -0.4436703 -0.5256612 -0.7258354 -0.7933819 -0.07975316 -0.6034771 -0.1088014 0.9934881 -0.03381913 -0.5677235 0.8000226 -0.1940466 0.1185399 0.8675529 -0.4830115 -0.1317235 0.9618304 0.2398568 -0.5492954 0.8115152 -0.1992936 0.9058368 0.1238604 -0.4051153 -0.5615248 0.4320637 -0.705699 -0.04794859 -0.8460617 -0.5309243 -0.5425462 0.7372394 -0.4026433 0.09574103 0.9842727 0.1484617 0.8855651 0.4643946 0.0105949 0.9558255 -0.1204153 0.2681378 -0.6900378 0.5687763 -0.4475953 0.9746231 0.1992187 0.102088 0.9383068 -0.01909607 0.3452763 -0.4666177 0.804215 -0.3681119 0.674726 0.7200744 -0.1619808 0.8595492 0.5072816 0.06197357 0.2575089 -0.9338849 -0.2480891 -0.6526969 -0.1484187 -0.7429392 -0.5311395 0.8357002 -0.1396288 0.7175854 0.2223471 0.6600251 0.7396669 -0.2744185 0.6144815 -0.0813468 -0.968664 -0.2346763 0.9113636 0.1738474 0.3730867 -0.5578255 -0.8199128 0.1287386 0.726979 -0.5615816 0.39513 -0.6488124 -0.1397859 -0.747999 0.8580609 0.5132102 -0.01861965 -0.4821402 0.4277698 -0.7645613 0.04905027 -0.9788632 0.1985471 0.3041236 -0.9484062 -0.08963656 0.8760098 -0.2984832 0.3788335 -0.02909445 -0.9671777 0.2524298 -0.1433699 -0.8679252 0.4755536 -0.3569162 -0.877833 0.3194059 0.4972012 0.8676245 0.004320323 0.8401395 -0.309723 0.4452386 0.8812682 -0.1498402 0.4482349 -0.6328473 -0.7645847 0.1221261 -0.529143 -0.8154402 -0.2346594 0.9454063 -0.02896612 0.3246043 0.9612191 0.03184777 0.2739412 0.3753691 0.5692113 0.731503 -0.2472439 0.8660877 -0.4344682 -0.2382813 0.7356172 -0.6341053 -0.644029 -0.7292461 -0.2311424 0.2579931 -0.9240919 0.2819464 0.8280901 -0.3573704 0.4319181 0.2064098 -0.8524627 0.480315 0.7824462 -0.3286854 0.5289081 0.9247702 0.3204835 0.2051596 0.3667859 -0.926813 -0.08053469 0.6533092 -0.66668 0.3587827 -0.4747035 -0.8252448 0.3059867 0.7321767 0.07014924 0.6774928 0.8502084 -0.526026 0.02104032 0.6459188 0.7591762 0.0802533 0.2368016 -0.9501298 -0.2029246 -0.1165992 -0.9563732 0.2678716 -0.1532115 -0.9881932 5.79478e-4 0.8295554 0.5175098 0.209813 0.776594 0.6214534 0.1034293 0.7848038 0.001693964 0.6197421 -0.1340687 -0.9785695 0.1562927 -0.3681185 -0.922053 -0.1196122 0.8567786 -0.205426 0.4730018 -0.09635287 -0.966758 -0.2368441 0.7817127 0.5269057 0.3336104 0.6998876 -0.5086734 0.5014067 0.9016991 0.3837429 0.1991987 0.4453869 -0.8949393 0.02672511 -0.7505954 -0.121161 -0.6495588 0.09899693 -0.9866197 -0.1295425 -0.6283653 -0.7709349 0.1040022 0.6356313 0.7641725 -0.1096056 0.4782639 -0.877258 -0.04101294 0.008885562 -0.9935598 0.1129593 -0.3647514 -0.9270441 -0.08686679 0.8880744 -0.2552897 0.3822972 0.8090525 -0.1887001 0.5566204 0.3837944 0.4756879 0.7914687 -0.3883989 0.9045915 0.1756718 -0.1833941 -0.9799557 -0.07780516 0.5924325 0.5640167 0.5752468 -0.1964886 0.7515439 0.6297414 0.8887445 0.1143868 0.4439018 0.7430647 0.48664 0.459387 0.253845 0.911541 -0.3235056 0.2683154 0.5782977 0.7704406 0.5334938 0.278153 0.7987588 0.1176997 0.599133 0.7919512 -0.4972429 0.5502052 -0.6708381 0.6431947 0.2080962 0.736883 -0.5304306 -0.7882966 -0.3118202 0.7182262 -0.5639998 0.407499 0.4536269 -0.8909164 0.0221548 0.5601495 -0.216004 0.7997344 0.2626098 -0.9090008 -0.3236567 -0.3465723 -0.9077647 0.2363281 0.312457 -0.9446048 -0.1004617 0.7871788 -0.03133803 0.6159283 0.7225015 -0.6493449 0.2373666 0.4313315 -0.901857 0.02464532 -0.1533026 -0.9820579 0.1098213 -0.2945948 0.955561 0.01082938 0.7357813 -0.2338736 0.6355542 0.7489576 -0.3846769 0.5395241 -0.02047806 0.8996441 0.4361436 0.7147681 0.002363681 0.6993576 0.109596 -0.989269 -0.09662204 -0.3473087 -0.9307631 -0.1142656 0.7326847 -0.5504176 0.4002668 0.7625939 0.05756455 0.6443114 0.02464807 0.6870576 0.7261848 -0.3206573 0.9462664 -0.0419389 -0.280057 -0.893657 0.3506355 -0.5329053 0.3628138 -0.7644463 0.7713419 -0.2902715 0.5663695 0.5841542 0.5965424 0.5503646 0.4747165 -0.8801283 -0.004301309 -0.736414 0.2103098 -0.6430119 0.4553766 -0.8891305 0.04559898 0.6005825 0.5106801 -0.6152289 0.1545932 -0.929135 -0.3358708 0.6134541 -0.7796541 0.125753 0.7543253 0.4738364 0.4543923 0.5143567 0.419388 0.7480314 0.3961823 0.5758414 0.7151548 0.661068 0.4219163 0.6204642 0.4523893 -0.8472789 0.2783209 -0.3506081 -0.7163827 -0.6032163 0.08336859 0.6872449 0.7216261 0.1058916 0.6940175 0.7121284 0.5535587 0.410306 0.7247219 -0.4521317 -0.5750783 -0.6818079 0.2818473 0.5873264 0.7586897 0.4516264 -0.891956 0.02116668 -0.6623125 0.6619331 -0.3509799 0.257665 0.7092179 0.6562154 0.1049792 -0.8237071 -0.557213 -0.791521 0.6105989 0.02575749 0.08998793 0.6698164 0.7370538 -0.2704345 -0.9621731 0.03299009 0.4311265 0.4987271 0.7519316 -0.1444601 0.8260634 0.5447483 0.1017332 0.8281609 0.5511805 0.4790647 -0.8568889 0.1903641 -0.1697494 -0.806445 -0.56642 0.5580239 0.4160633 0.7179839 0.6990653 0.3385515 0.6298338 -0.04813855 -0.8655816 -0.4984487 0.8968276 -0.2611443 0.3570768 0.3997583 0.5679734 0.7194439 0.6840716 -0.1152947 0.7202453 0.4976344 0.7752885 0.3889573 0.5239656 0.2817126 0.8038023 -0.6812445 0.7273674 -0.08272039 -0.07121646 0.7779985 0.6242168 0.127938 0.8353184 0.534673 -0.8739308 0.4601663 -0.1564997 -0.2958085 0.9430928 0.1518996 -0.3634738 0.8480368 0.3856428 0.7706454 0.2257038 0.595956 0.7285514 0.2993097 0.6161385 0.349577 -0.9363326 -0.03282254 0.2695803 -0.9597147 0.07921081 0.1631498 -0.9627983 -0.2154105 0.02584624 0.640767 0.7673004 -0.2825165 0.9592177 0.009265542 0.4352581 0.6380381 0.6351833 0.344016 0.6593967 0.6684678 0.8169816 -0.3711972 0.4413093 -0.5661338 -0.3689554 0.7371327 -0.7408834 -0.6697611 -0.05012017 -0.05232751 -0.9092933 0.4128531 0.7172663 -0.4167773 0.5584138 -0.762769 0.199104 -0.6152571 -0.08778935 -0.9951356 0.04470282 0.4250426 -0.8942084 0.1404643 0.6626554 0.484351 0.5712197 -0.7405272 -0.6469128 -0.1819981 0.5662163 -0.7771167 0.274752 -0.365338 -0.3313816 0.8698933 -0.5713107 -0.8155285 -0.09229069 0.5433687 0.5719171 0.6145416 -0.4776884 -0.8256859 -0.3000945 -0.3455949 0.8531247 0.3908228 0.3533663 0.6873795 0.6345405 0.8800249 -0.2167462 0.422584 0.8577549 0.03185713 0.513071 0.451466 -0.8903729 0.0584346 -0.7089858 -0.4018222 -0.57955 -0.8117766 -0.4565626 -0.3641004 -0.3696261 -0.510191 -0.7765834 -0.8465013 -0.4686042 -0.2526771 -0.6838462 -0.5408724 -0.4897056 0.8758049 -0.1887471 0.4442301 -0.2983858 -0.8880624 -0.3497303 -0.7799076 -0.5845543 0.2236973 -0.9090508 0.3808245 0.1691133 -0.3975615 0.6328077 -0.6644542 -0.7593141 -0.6471283 0.06831723 -0.9317513 0.2856512 -0.22415 -0.7154429 -0.2328528 -0.6587269 -0.7648302 0.4390808 -0.4714264 -0.9406138 0.05951112 -0.3342217 -0.4313114 -0.8174267 -0.3818172 -0.2746959 -0.9202494 -0.2787175 0.0425232 -0.9961823 -0.07624089 -0.314889 -0.9357365 0.1588776 -0.5680196 -0.6226912 -0.538154 -0.3968761 -0.6086369 -0.6870593 0.04206979 -0.9911283 -0.1260747 -0.2671621 -0.962897 0.03812813 -0.6090842 -0.6701689 -0.4241346 -0.8292354 0.1015736 0.5495922 -0.5469198 -0.7095588 0.4443029 -0.8115266 0.3002977 -0.5012446 -0.8838608 -0.212659 -0.4166128 -0.5736942 0.8106676 -0.1170173 -0.6220976 -0.6866103 -0.3762457 -0.8050562 -0.4534506 -0.3824487 -0.6577609 -0.7529131 -0.02173757 -0.6550859 -0.2253683 -0.7211599 -0.4369288 -0.8387299 0.325001 -0.5724337 -0.8111327 0.1199309 -0.8014857 0.5955767 -0.05393767 -0.8273227 0.3087421 -0.4692713 -0.6125287 -0.6364253 -0.4687979 -0.688399 -0.2348423 -0.6862624 -0.6246786 -0.4683093 -0.6248705 -0.5487991 -0.758114 -0.3522539 -0.6061121 0.7034254 -0.3712425 -0.8818016 -0.2076478 -0.4234484 -0.5160598 0.8353143 -0.1895582 0.5101714 -0.8532981 -0.1077393 0.2245991 -0.9205011 -0.3197389 0.08300763 0.8975145 0.4331021 -0.6800581 -0.06141334 -0.7305815 0.9434376 -0.05281776 0.3273161 -0.989557 -0.1118479 0.09092301 -0.7829937 -0.06519377 -0.6186039 -0.7829296 -0.02392482 -0.6216501 -0.401234 0.9052048 -0.1400554 -0.8161883 -0.5156921 -0.2605736 -0.6035982 0.7253357 -0.3309947 -0.8110743 0.256496 -0.5257076 -0.4270796 0.8974097 -0.1107196 -0.7856089 -0.02712565 -0.6181287 -0.6464186 0.3037167 -0.699928 -0.7293171 0.1051202 -0.676052 -0.8086919 0.1176577 -0.5763456 -0.6459848 0.3089072 -0.6980546</float_array>
          <technique_common>
            <accessor source="#mesh0_006-mesh-normals-array" count="380" stride="3">
              <param name="X" type="float"/>
              <param name="Y" type="float"/>
              <param name="Z" type="float"/>
            </accessor>
          </technique_common>
        </source>
        <source id="mesh0_006-mesh-map-0">
          <float_array id="mesh0_006-mesh-map-0-array" count="2280">0 0 0 0 0 0 0 0 0 0 0 0 0 0 0 0 0 0 0 0 0 0 0 0 0 0 0 0 0 0 0 0 0 0 0 0 0 0 0 0 0 0 0 0 0 0 0 0 0 0 0 0 0 0 0 0 0 0 0 0 0 0 0 0 0 0 0 0 0 0 0 0 0 0 0 0 0 0 0 0 0 0 0 0 0 0 0 0 0 0 0 0 0 0 0 0 0 0 0 0 0 0 0 0 0 0 0 0 0 0 0 0 0 0 0 0 0 0 0 0 0 0 0 0 0 0 0 0 0 0 0 0 0 0 0 0 0 0 0 0 0 0 0 0 0 0 0 0 0 0 0 0 0 0 0 0 0 0 0 0 0 0 0 0 0 0 0 0 0 0 0 0 0 0 0 0 0 0 0 0 0 0 0 0 0 0 0 0 0 0 0 0 0 0 0 0 0 0 0 0 0 0 0 0 0 0 0 0 0 0 0 0 0 0 0 0 0 0 0 0 0 0 0 0 0 0 0 0 0 0 0 0 0 0 0 0 0 0 0 0 0 0 0 0 0 0 0 0 0 0 0 0 0 0 0 0 0 0 0 0 0 0 0 0 0 0 0 0 0 0 0 0 0 0 0 0 0 0 0 0 0 0 0 0 0 0 0 0 0 0 0 0 0 0 0 0 0 0 0 0 0 0 0 0 0 0 0 0 0 0 0 0 0 0 0 0 0 0 0 0 0 0 0 0 0 0 0 0 0 0 0 0 0 0 0 0 0 0 0 0 0 0 0 0 0 0 0 0 0 0 0 0 0 0 0 0 0 0 0 0 0 0 0 0 0 0 0 0 0 0 0 0 0 0 0 0 0 0 0 0 0 0 0 0 0 0 0 0 0 0 0 0 0 0 0 0 0 0 0 0 0 0 0 0 0 0 0 0 0 0 0 0 0 0 0 0 0 0 0 0 0 0 0 0 0 0 0 0 0 0 0 0 0 0 0 0 0 0 0 0 0 0 0 0 0 0 0 0 0 0 0 0 0 0 0 0 0 0 0 0 0 0 0 0 0 0 0 0 0 0 0 0 0 0 0 0 0 0 0 0 0 0 0 0 0 0 0 0 0 0 0 0 0 0 0 0 0 0 0 0 0 0 0 0 0 0 0 0 0 0 0 0 0 0 0 0 0 0 0 0 0 0 0 0 0 0 0 0 0 0 0 0 0 0 0 0 0 0 0 0 0 0 0 0 0 0 0 0 0 0 0 0 0 0 0 0 0 0 0 0 0 0 0 0 0 0 0 0 0 0 0 0 0 0 0 0 0 0 0 0 0 0 0 0 0 0 0 0 0 0 0 0 0 0 0 0 0 0 0 0 0 0 0 0 0 0 0 0 0 0 0 0 0 0 0 0 0 0 0 0 0 0 0 0 0 0 0 0 0 0 0 0 0 0 0 0 0 0 0 0 0 0 0 0 0 0 0 0 0 0 0 0 0 0 0 0 0 0 0 0 0 0 0 0 0 0 0 0 0 0 0 0 0 0 0 0 0 0 0 0 0 0 0 0 0 0 0 0 0 0 0 0 0 0 0 0 0 0 0 0 0 0 0 0 0 0 0 0 0 0 0 0 0 0 0 0 0 0 0 0 0 0 0 0 0 0 0 0 0 0 0 0 0 0 0 0 0 0 0 0 0 0 0 0 0 0 0 0 0 0 0 0 0 0 0 0 0 0 0 0 0 0 0 0 0 0 0 0 0 0 0 0 0 0 0 0 0 0 0 0 0 0 0 0 0 0 0 0 0 0 0 0 0 0 0 0 0 0 0 0 0 0 0 0 0 0 0 0 0 0 0 0 0 0 0 0 0 0 0 0 0 0 0 0 0 0 0 0 0 0 0 0 0 0 0 0 0 0 0 0 0 0 0 0 0 0 0 0 0 0 0 0 0 0 0 0 0 0 0 0 0 0 0 0 0 0 0 0 0 0 0 0 0 0 0 0 0 0 0 0 0 0 0 0 0 0 0 0 0 0 0 0 0 0 0 0 0 0 0 0 0 0 0 0 0 0 0 0 0 0 0 0 0 0 0 0 0 0 0 0 0 0 0 0 0 0 0 0 0 0 0 0 0 0 0 0 0 0 0 0 0 0 0 0 0 0 0 0 0 0 0 0 0 0 0 0 0 0 0 0 0 0 0 0 0 0 0 0 0 0 0 0 0 0 0 0 0 0 0 0 0 0 0 0 0 0 0 0 0 0 0 0 0 0 0 0 0 0 0 0 0 0 0 0 0 0 0 0 0 0 0 0 0 0 0 0 0 0 0 0 0 0 0 0 0 0 0 0 0 0 0 0 0 0 0 0 0 0 0 0 0 0 0 0 0 0 0 0 0 0 0 0 0 0 0 0 0 0 0 0 0 0 0 0 0 0 0 0 0 0 0 0 0 0 0 0 0 0 0 0 0 0 0 0 0 0 0 0 0 0 0 0 0 0 0 0 0 0 0 0 0 0 0 0 0 0 0 0 0 0 0 0 0 0 0 0 0 0 0 0 0 0 0 0 0 0 0 0 0 0 0 0 0 0 0 0 0 0 0 0 0 0 0 0 0 0 0 0 0 0 0 0 0 0 0 0 0 0 0 0 0 0 0 0 0 0 0 0 0 0 0 0 0 0 0 0 0 0 0 0 0 0 0 0 0 0 0 0 0 0 0 0 0 0 0 0 0 0 0 0 0 0 0 0 0 0 0 0 0 0 0 0 0 0 0 0 0 0 0 0 0 0 0 0 0 0 0 0 0 0 0 0 0 0 0 0 0 0 0 0 0 0 0 0 0 0 0 0 0 0 0 0 0 0 0 0 0 0 0 0 0 0 0 0 0 0 0 0 0 0 0 0 0 0 0 0 0 0 0 0 0 0 0 0 0 0 0 0 0 0 0 0 0 0 0 0 0 0 0 0 0 0 0 0 0 0 0 0 0 0 0 0 0 0 0 0 0 0 0 0 0 0 0 0 0 0 0 0 0 0 0 0 0 0 0 0 0 0 0 0 0 0 0 0 0 0 0 0 0 0 0 0 0 0 0 0 0 0 0 0 0 0 0 0 0 0 0 0 0 0 0 0 0 0 0 0 0 0 0 0 0 0 0 0 0 0 0 0 0 0 0 0 0 0 0 0 0 0 0 0 0 0 0 0 0 0 0 0 0 0 0 0 0 0 0 0 0 0 0 0 0 0 0 0 0 0 0 0 0 0 0 0 0 0 0 0 0 0 0 0 0 0 0 0 0 0 0 0 0 0 0 0 0 0 0 0 0 0 0 0 0 0 0 0 0 0 0 0 0 0 0 0 0 0 0 0 0 0 0 0 0 0 0 0 0 0 0 0 0 0 0 0 0 0 0 0 0 0 0 0 0 0 0 0 0 0 0 0 0 0 0 0 0 0 0 0 0 0 0 0 0 0 0 0 0 0 0 0 0 0 0 0 0 0 0 0 0 0 0 0 0 0 0 0 0 0 0 0 0 0 0 0 0 0 0 0 0 0 0 0 0 0 0 0 0 0 0 0 0 0 0 0 0 0 0 0 0 0 0 0 0 0 0 0 0 0 0 0 0 0 0 0 0 0 0 0 0 0 0 0 0 0 0 0 0 0 0 0 0 0 0 0 0 0 0 0 0 0 0 0 0 0 0 0 0 0 0 0 0 0 0 0 0 0 0 0 0 0 0 0 0 0 0 0 0 0 0 0 0 0 0 0 0 0 0 0 0 0 0 0 0 0 0 0 0 0 0 0 0 0 0 0 0 0 0 0 0 0 0 0 0 0 0 0 0 0 0 0 0 0 0 0 0 0 0 0 0 0 0 0 0 0 0 0 0 0 0 0 0 0 0 0 0 0 0 0 0 0 0 0 0 0 0 0 0 0 0 0 0 0 0 0 0 0 0 0 0 0 0 0 0 0 0 0 0 0 0 0 0 0 0 0 0 0 0 0 0 0 0 0 0 0 0 0 0 0 0 0 0 0 0 0 0 0 0 0 0 0 0 0 0 0 0 0 0 0 0 0 0 0 0 0 0 0 0 0 0 0 0 0 0 0 0 0 0 0 0 0 0 0 0 0 0 0 0 0 0 0 0 0 0 0 0 0 0 0 0 0 0 0 0 0 0 0 0 0 0 0 0 0 0 0 0 0 0 0 0 0 0 0 0 0 0 0 0 0 0 0 0 0 0 0 0 0 0 0 0 0 0 0 0 0 0 0 0 0 0 0 0 0 0 0 0 0 0 0 0 0 0 0 0 0 0 0 0 0 0 0 0 0 0 0 0 0 0 0 0 0 0 0 0 0 0 0 0 0 0 0 0 0 0 0 0 0 0 0 0 0 0 0 0 0 0 0 0 0 0 0 0 0 0 0 0 0 0 0 0 0 0 0 0 0 0 0 0 0 0 0 0 0 0 0 0 0 0 0 0 0 0 0 0 0 0 0 0 0 0 0 0 0 0 0 0 0 0 0 0 0 0 0 0 0 0 0 0 0 0 0 0 0 0 0 0 0 0 0 0 0 0 0 0 0 0 0 0 0 0 0 0 0 0 0 0 0 0 0 0 0 0 0 0 0 0 0 0 0 0 0 0 0 0 0 0 0 0 0 0 0 0 0 0 0 0 0 0 0 0 0 0 0 0 0 0 0 0 0 0 0 0 0 0 0 0 0 0 0 0 0 0 0 0 0 0 0 0 0 0 0 0 0 0 0 0 0 0 0 0 0 0 0 0 0 0 0 0 0 0 0 0 0 0 0 0 0 0 0 0 0 0 0 0 0 0 0 0 0 0 0 0 0 0 0 0 0 0 0 0 0 0 0 0 0 0 0 0 0 0 0 0 0 0 0 0 0 0 0 0 0 0 0 0 0 0 0 0 0 0 0 0 0 0 0 0 0 0 0 0 0 0 0 0 0 0 0 0 0 0 0 0 0 0 0 0 0 0 0 0 0 0 0 0 0 0 0 0 0 0 0 0 0 0 0 0 0 0 0 0 0 0 0 0 0 0 0 0 0 0 0 0 0 0 0 0 0 0 0 0 0 0 0 0 0 0 0 0 0 0 0 0 0 0 0 0 0 0 0 0 0 0 0 0 0 0 0 0 0 0 0 0 0 0 0 0 0 0 0 0 0 0 0</float_array>
          <technique_common>
            <accessor source="#mesh0_006-mesh-map-0-array" count="1140" stride="2">
              <param name="S" type="float"/>
              <param name="T" type="float"/>
            </accessor>
          </technique_common>
        </source>
        <vertices id="mesh0_006-mesh-vertices">
          <input semantic="POSITION" source="#mesh0_006-mesh-positions"/>
        </vertices>
        <triangles material="material0_002-material" count="380">
          <input semantic="VERTEX" source="#mesh0_006-mesh-vertices" offset="0"/>
          <input semantic="NORMAL" source="#mesh0_006-mesh-normals" offset="1"/>
          <input semantic="TEXCOORD" source="#mesh0_006-mesh-map-0" offset="2" set="0"/>
          <p>34 0 0 160 0 1 180 0 2 34 1 3 18 1 4 160 1 5 55 2 6 172 2 7 16 2 8 16 3 9 61 3 10 55 3 11 181 4 12 61 4 13 16 4 14 135 5 15 147 5 16 154 5 17 176 6 18 34 6 19 180 6 20 18 7 21 34 7 22 30 7 23 61 8 24 181 8 25 66 8 26 46 9 27 27 9 28 29 9 29 27 10 30 5 10 31 67 10 32 10 11 33 74 11 34 53 11 35 30 12 36 178 12 37 14 12 38 20 13 39 173 13 40 5 13 41 140 14 42 144 14 43 137 14 44 86 15 45 178 15 46 74 15 47 140 16 48 130 16 49 146 16 50 38 17 51 84 17 52 121 17 53 46 18 54 86 18 55 5 18 56 51 19 57 34 19 58 176 19 59 146 20 60 129 20 61 163 20 62 174 21 63 29 21 64 171 21 65 171 22 66 67 22 67 62 22 68 140 23 69 162 23 70 25 23 71 46 24 72 54 24 73 153 24 74 51 25 75 84 25 76 53 25 77 29 26 78 174 26 79 124 26 80 59 27 81 22 27 82 96 27 83 135 28 84 156 28 85 147 28 86 140 29 87 137 29 88 162 29 89 146 30 90 144 30 91 140 30 92 49 31 93 84 31 94 51 31 95 140 32 96 136 32 97 130 32 98 23 33 99 62 33 100 67 33 101 157 34 102 19 34 103 94 34 104 140 35 105 25 35 106 136 35 107 181 36 108 47 36 109 65 36 110 14 37 111 4 37 112 30 37 113 19 38 114 149 38 115 118 38 116 46 39 117 105 39 118 54 39 119 37 40 120 10 40 121 44 40 122 25 41 123 162 41 124 119 41 125 5 42 126 23 42 127 67 42 128 42 43 129 77 43 130 62 43 131 78 44 132 13 44 133 134 44 134 157 45 135 94 45 136 114 45 137 146 46 138 163 46 139 144 46 140 172 47 141 55 47 142 69 47 143 154 48 144 119 48 145 109 48 146 178 49 147 53 49 148 74 49 149 57 50 150 17 50 151 19 50 152 43 51 153 6 51 154 131 51 155 92 52 156 99 52 157 131 52 158 70 53 159 63 53 160 93 53 161 152 54 162 117 54 163 131 54 164 187 55 165 173 55 166 20 55 167 36 56 168 1 56 169 84 56 170 171 57 171 29 57 172 27 57 173 37 58 174 187 58 175 20 58 176 113 59 177 3 59 178 37 59 179 24 60 180 18 60 181 30 60 182 23 61 183 5 61 184 173 61 185 62 62 186 23 62 187 184 62 188 22 63 189 92 63 190 96 63 191 153 64 192 4 64 193 14 64 194 19 65 195 157 65 196 149 65 197 92 66 198 131 66 199 117 66 200 186 67 201 43 67 202 81 67 203 92 68 204 22 68 205 99 68 206 181 69 207 65 69 208 9 69 209 45 70 210 184 70 211 69 70 212 153 71 213 14 71 214 86 71 215 19 72 216 17 72 217 79 72 218 5 73 219 27 73 220 46 73 221 38 74 222 158 74 223 21 74 224 63 75 225 70 75 226 88 75 227 102 76 228 127 76 229 76 76 230 59 77 231 96 77 232 85 77 233 3 78 234 113 78 235 177 78 236 20 79 237 74 79 238 10 79 239 173 80 240 69 80 241 184 80 242 31 81 243 54 81 244 151 81 245 83 82 246 104 82 247 78 82 248 156 83 249 135 83 250 132 83 251 182 84 252 186 84 253 177 84 254 60 85 255 83 85 256 58 85 257 127 86 258 102 86 259 95 86 260 74 87 261 20 87 262 5 87 263 172 88 264 69 88 265 173 88 266 86 89 267 74 89 268 5 89 269 184 90 270 45 90 271 42 90 272 156 91 273 132 91 274 165 91 275 80 92 276 93 92 277 63 92 278 136 93 279 147 93 280 156 93 281 154 94 282 136 94 283 25 94 284 53 95 285 84 95 286 1 95 287 17 96 288 57 96 289 175 96 290 55 97 291 45 97 292 69 97 293 44 98 294 113 98 295 37 98 296 173 99 297 184 99 298 23 99 299 45 100 300 55 100 301 61 100 302 3 101 303 47 101 304 16 101 305 10 102 306 37 102 307 20 102 308 51 103 309 176 103 310 49 103 311 1 104 312 44 104 313 10 104 314 18 105 315 24 105 316 160 105 317 78 106 318 133 106 319 13 106 320 46 107 321 29 107 322 105 107 323 51 108 324 53 108 325 34 108 326 79 109 327 17 109 328 96 109 329 47 110 330 3 110 331 11 110 332 70 111 333 93 111 334 0 111 335 42 112 336 62 112 337 184 112 338 92 113 339 79 113 340 96 113 341 30 114 342 53 114 343 178 114 344 63 115 345 60 115 346 80 115 347 54 116 348 105 116 349 126 116 350 162 117 351 137 117 352 138 117 353 187 118 354 16 118 355 172 118 356 54 119 357 126 119 358 168 119 359 30 120 360 34 120 361 53 120 362 187 121 363 3 121 364 16 121 365 171 122 366 27 122 367 67 122 368 70 123 369 0 123 370 98 123 371 22 124 372 59 124 373 185 124 374 159 125 375 38 125 376 121 125 377 11 126 378 65 126 379 47 126 380 113 127 381 44 127 382 36 127 383 1 128 384 10 128 385 53 128 386 187 129 387 37 129 388 3 129 389 6 130 390 43 130 391 182 130 392 144 131 393 148 131 394 150 131 395 121 132 396 84 132 397 49 132 398 95 133 399 59 133 400 127 133 401 166 134 402 38 134 403 21 134 404 47 135 405 181 135 406 16 135 407 24 136 408 30 136 409 4 136 410 54 137 411 4 137 412 153 137 413 166 138 414 36 138 415 38 138 416 24 139 417 4 139 418 31 139 419 54 140 420 31 140 421 4 140 422 1 141 423 36 141 424 44 141 425 86 142 426 14 142 427 178 142 428 150 143 429 148 143 430 161 143 431 76 144 432 175 144 433 72 144 434 108 145 435 165 145 436 132 145 437 177 146 438 113 146 439 166 146 440 8 147 441 106 147 442 71 147 443 39 148 444 52 148 445 2 148 446 68 149 447 57 149 448 125 149 449 26 150 450 143 150 451 155 150 452 141 151 453 110 151 454 139 151 455 122 152 456 26 152 457 168 152 458 108 153 459 132 153 460 167 153 461 24 154 462 155 154 463 160 154 464 49 155 465 176 155 466 165 155 467 119 156 468 168 156 469 126 156 470 75 157 471 102 157 472 76 157 473 112 158 474 143 158 475 26 158 476 119 159 477 122 159 478 168 159 479 126 160 480 29 160 481 124 160 482 111 161 483 124 161 484 174 161 485 145 162 486 148 162 487 180 162 488 112 163 489 128 163 490 143 163 491 138 164 492 161 164 493 128 164 494 110 165 495 111 165 496 50 165 497 136 166 498 154 166 499 147 166 500 26 167 501 31 167 502 151 167 503 31 168 504 26 168 505 155 168 506 8 169 507 89 169 508 106 169 509 129 170 510 180 170 511 163 170 512 129 171 513 176 171 514 180 171 515 156 172 516 130 172 517 136 172 518 162 173 519 138 173 520 112 173 521 39 174 522 188 174 523 52 174 524 126 175 525 105 175 526 29 175 527 56 176 528 2 176 529 101 176 530 155 177 531 24 177 532 31 177 533 91 178 534 75 178 535 76 178 536 56 179 537 7 179 538 190 179 539 141 180 540 124 180 541 110 180 542 101 181 543 33 181 544 41 181 545 75 182 546 183 182 547 90 182 548 148 183 549 145 183 550 161 183 551 72 184 552 175 184 553 57 184 554 62 185 555 68 185 556 171 185 557 174 186 558 125 186 559 19 186 560 128 187 561 145 187 562 143 187 563 145 188 564 160 188 565 155 188 566 101 189 567 52 189 568 87 189 569 119 190 570 126 190 571 141 190 572 141 191 573 139 191 574 109 191 575 138 192 576 128 192 577 112 192 578 125 193 579 57 193 580 19 193 581 128 194 582 161 194 583 145 194 584 168 195 585 151 195 586 54 195 587 145 196 588 155 196 589 143 196 590 72 197 591 188 197 592 91 197 593 165 198 594 129 198 595 156 198 596 68 199 597 62 199 598 57 199 599 50 200 600 111 200 601 118 200 602 145 201 603 180 201 604 160 201 605 144 202 606 150 202 607 137 202 608 68 203 609 125 203 610 174 203 611 154 204 612 25 204 613 119 204 614 150 205 615 161 205 616 138 205 617 28 206 618 7 206 619 101 206 620 89 207 621 8 207 622 116 207 623 82 208 624 186 208 625 15 208 626 118 209 627 174 209 628 19 209 629 9 210 630 12 210 631 66 210 632 40 211 633 35 211 634 134 211 635 86 212 636 46 212 637 153 212 638 45 213 639 61 213 640 87 213 641 163 214 642 180 214 643 148 214 644 48 215 645 40 215 646 116 215 647 28 216 648 48 216 649 64 216 650 40 217 651 134 217 652 89 217 653 165 218 654 176 218 655 129 218 656 8 219 657 71 219 658 64 219 659 135 220 660 154 220 661 109 220 662 122 221 663 112 221 664 26 221 665 188 222 666 72 222 667 179 222 668 45 223 669 179 223 670 169 223 671 75 224 672 90 224 673 0 224 674 111 225 675 110 225 676 124 225 677 102 226 678 75 226 679 0 226 680 100 227 681 64 227 682 71 227 683 183 228 684 190 228 685 7 228 686 77 229 687 42 229 688 169 229 689 68 230 690 174 230 691 171 230 692 3 231 693 177 231 694 11 231 695 100 232 696 183 232 697 7 232 698 101 233 699 2 233 700 52 233 701 82 234 702 9 234 703 65 234 704 100 235 705 7 235 706 64 235 707 62 236 708 77 236 709 57 236 710 141 237 711 109 237 712 119 237 713 26 238 714 151 238 715 168 238 716 101 239 717 87 239 718 33 239 719 107 240 720 9 240 721 82 240 722 186 241 723 65 241 724 11 241 725 126 242 726 124 242 727 141 242 728 108 243 729 49 243 730 165 243 731 100 244 732 71 244 733 183 244 734 9 245 735 66 245 736 181 245 737 183 246 738 75 246 739 190 246 740 156 247 741 129 247 742 130 247 743 39 248 744 91 248 745 188 248 746 148 249 747 144 249 748 163 249 749 76 250 750 17 250 751 175 250 752 2 251 753 56 251 754 91 251 755 61 252 756 66 252 757 87 252 758 103 253 759 115 253 760 106 253 761 106 254 762 89 254 763 103 254 764 33 255 765 87 255 766 12 255 767 2 256 768 91 256 769 39 256 770 92 257 771 94 257 772 79 257 773 191 258 774 134 258 775 13 258 776 134 259 777 191 259 778 103 259 779 41 260 780 48 260 781 28 260 782 92 261 783 117 261 784 94 261 785 40 262 786 89 262 787 116 262 788 56 263 789 190 263 790 75 263 791 6 264 792 152 264 793 131 264 794 32 265 795 40 265 796 48 265 797 59 266 798 85 266 799 127 266 800 58 267 801 15 267 802 60 267 803 134 268 804 103 268 805 89 268 806 88 269 807 70 269 808 98 269 809 12 270 810 9 270 811 107 270 812 82 271 813 35 271 814 40 271 815 32 272 816 82 272 817 40 272 818 179 273 819 72 273 820 77 273 821 94 274 822 19 274 823 79 274 824 116 275 825 8 275 826 64 275 827 115 276 828 71 276 829 106 276 830 96 277 831 17 277 832 85 277 833 183 278 834 71 278 835 115 278 836 12 279 837 107 279 838 33 279 839 7 280 840 28 280 841 64 280 842 173 281 843 187 281 844 172 281 845 48 282 846 116 282 847 64 282 848 81 283 849 15 283 850 186 283 851 134 284 852 35 284 853 58 284 854 32 285 855 107 285 856 82 285 857 97 286 858 60 286 859 81 286 860 82 287 861 65 287 862 186 287 863 35 288 864 15 288 865 58 288 866 41 289 867 28 289 868 101 289 869 45 290 870 169 290 871 42 290 872 91 291 873 76 291 874 72 291 875 77 292 876 169 292 877 179 292 878 72 293 879 57 293 880 77 293 881 134 294 882 73 294 883 78 294 884 11 295 885 177 295 886 186 295 887 41 296 888 33 296 889 107 296 890 107 297 891 32 297 892 41 297 893 56 298 894 101 298 895 7 298 896 133 299 897 78 299 898 104 299 899 120 300 900 110 300 901 50 300 902 123 301 903 191 301 904 133 301 905 123 302 906 90 302 907 183 302 908 130 303 909 129 303 910 146 303 911 122 304 912 119 304 913 162 304 914 162 305 915 112 305 916 122 305 917 12 306 918 87 306 919 66 306 920 120 307 921 142 307 922 110 307 923 150 308 924 138 308 925 137 308 926 191 309 927 13 309 928 133 309 929 142 310 930 164 310 931 109 310 932 191 311 933 115 311 934 103 311 935 164 312 936 135 312 937 109 312 938 15 313 939 35 313 940 82 313 941 41 314 942 32 314 943 48 314 944 52 315 945 188 315 946 45 315 947 52 316 948 45 316 949 87 316 950 56 317 951 75 317 952 91 317 953 142 318 954 135 318 955 164 318 956 120 319 957 189 319 958 142 319 959 85 320 960 17 320 961 127 320 962 142 321 963 139 321 964 110 321 965 142 322 966 132 322 967 135 322 968 45 323 969 188 323 970 179 323 971 93 324 972 95 324 973 102 324 974 63 325 975 88 325 976 83 325 977 83 326 978 73 326 979 58 326 980 38 327 981 36 327 982 84 327 983 83 328 984 88 328 985 104 328 986 60 329 987 97 329 988 80 329 989 114 330 990 21 330 991 158 330 992 81 331 993 99 331 994 97 331 995 80 332 996 97 332 997 185 332 998 185 333 999 95 333 1000 93 333 1001 102 334 1002 0 334 1003 93 334 1004 0 335 1005 90 335 1006 98 335 1007 88 336 1008 123 336 1009 133 336 1010 114 337 1011 94 337 1012 117 337 1013 95 338 1014 185 338 1015 59 338 1016 90 339 1017 123 339 1018 98 339 1019 98 340 1020 123 340 1021 88 340 1022 167 341 1023 132 341 1024 142 341 1025 73 342 1026 83 342 1027 78 342 1028 88 343 1029 133 343 1030 104 343 1031 43 344 1032 99 344 1033 81 344 1034 149 345 1035 170 345 1036 120 345 1037 186 346 1038 182 346 1039 43 346 1040 80 347 1041 185 347 1042 93 347 1043 149 348 1044 158 348 1045 170 348 1046 50 349 1047 149 349 1048 120 349 1049 22 350 1050 185 350 1051 97 350 1052 118 351 1053 111 351 1054 174 351 1055 118 352 1056 149 352 1057 50 352 1058 81 353 1059 60 353 1060 15 353 1061 131 354 1062 99 354 1063 43 354 1064 139 355 1065 142 355 1066 109 355 1067 21 356 1068 114 356 1069 117 356 1070 114 357 1071 158 357 1072 149 357 1073 157 358 1074 114 358 1075 149 358 1076 21 359 1077 152 359 1078 166 359 1079 120 360 1080 170 360 1081 189 360 1082 113 361 1083 36 361 1084 166 361 1085 191 362 1086 123 362 1087 183 362 1088 127 363 1089 17 363 1090 76 363 1091 73 364 1092 134 364 1093 58 364 1094 22 365 1095 97 365 1096 99 365 1097 115 366 1098 191 366 1099 183 366 1100 63 367 1101 83 367 1102 60 367 1103 38 368 1104 159 368 1105 158 368 1106 159 369 1107 170 369 1108 158 369 1109 177 370 1110 6 370 1111 182 370 1112 189 371 1113 167 371 1114 142 371 1115 152 372 1116 6 372 1117 166 372 1118 152 373 1119 21 373 1120 117 373 1121 177 374 1122 166 374 1123 6 374 1124 159 375 1125 121 375 1126 170 375 1127 49 376 1128 189 376 1129 121 376 1130 167 377 1131 189 377 1132 108 377 1133 189 378 1134 170 378 1135 121 378 1136 189 379 1137 49 379 1138 108 379 1139</p>
        </triangles>
      </mesh>
    </geometry>
  </library_geometries>
  <library_visual_scenes>
    <visual_scene id="Scene" name="Scene">
      <node id="Cube_002" name="Cube.002" type="NODE">
        <matrix sid="transform">1 0 0 0 0 1 0 0 0 0 1 0 0 0 0 1</matrix>
        <instance_geometry url="#mesh0_006-mesh" name="Cube.002">
          <bind_material>
            <technique_common>
              <instance_material symbol="material0_002-material" target="#material0_002-material">
                <bind_vertex_input semantic="mesh0-mesh-map-0" input_semantic="TEXCOORD" input_set="0"/>
              </instance_material>
            </technique_common>
          </bind_material>
        </instance_geometry>
      </node>
    </visual_scene>
  </library_visual_scenes>
  <scene>
    <instance_visual_scene url="#Scene"/>
  </scene>
</COLLADA>