<?xml version="1.0" encoding="utf-8"?>
<COLLADA xmlns="http://www.collada.org/2005/11/COLLADASchema" version="1.4.1" xmlns:xsi="http://www.w3.org/2001/XMLSchema-instance">
  <asset>
    <contributor>
      <author>Blender User</author>
      <authoring_tool>Blender 2.93.1 commit date:2021-06-22, commit time:05:57, hash:1b8d33b18c2f</authoring_tool>
    </contributor>
    <created>2021-08-03T12:08:36</created>
    <modified>2021-08-03T12:08:36</modified>
    <unit name="meter" meter="1"/>
    <up_axis>Z_UP</up_axis>
  </asset>
  <library_effects>
    <effect id="Material_003-effect">
      <profile_COMMON>
        <technique sid="common">
          <lambert>
            <emission>
              <color sid="emission">0 0 0 1</color>
            </emission>
            <diffuse>
              <color sid="diffuse">0.8 0.8 0.8 1</color>
            </diffuse>
            <index_of_refraction>
              <float sid="ior">1.45</float>
            </index_of_refraction>
          </lambert>
        </technique>
      </profile_COMMON>
    </effect>
  </library_effects>
  <library_images/>
  <library_materials>
    <material id="Material_003-material" name="Material.003">
      <instance_effect url="#Material_003-effect"/>
    </material>
  </library_materials>
  <library_geometries>
    <geometry id="mesh0_010-mesh" name="mesh0.010">
      <mesh>
        <source id="mesh0_010-mesh-positions">
          <float_array id="mesh0_010-mesh-positions-array" count="594">-0.6667014 -0.002582252 0.925143 -0.632457 0.4866234 0.9496032 -0.8265085 -0.002582252 0.925143 -0.8607528 0.4866234 0.9496032 -0.6667014 -0.002582252 0.810995 -0.632457 0.4866234 0.7865346 -0.8265085 -0.002582252 0.810995 -0.8607528 0.4866234 0.7865346 0.86093 -0.002582252 0.9262576 0.8951748 0.4866234 0.9507178 0.7011228 -0.002582252 0.9262576 0.6668786 0.4866234 0.9507178 0.86093 -0.002582252 0.8121094 0.8951748 0.4866234 0.7876492 0.7011228 -0.002582252 0.8121094 0.6668786 0.4866234 0.7876492 0.8609299 -0.002582371 -0.824621 0.8951745 0.4866234 -0.8001606 0.7011225 -0.002582371 -0.824621 0.6668782 0.4866234 -0.8001606 0.8609299 -0.002582371 -0.938769 0.8951745 0.4866234 -0.9632292 0.7011225 -0.002582371 -0.938769 0.6668782 0.4866234 -0.9632292 -0.6667016 -0.002582371 -0.8284963 -0.6324572 0.4866234 -0.8040422 -0.8265088 -0.002582371 -0.8284963 -0.8607532 0.4866234 -0.8040422 -0.6667016 -0.002582371 -0.9426444 -0.6324572 0.4866234 -0.9671108 -0.8265088 -0.002582371 -0.9426444 -0.8607532 0.4866234 -0.9671108 -0.9633765 0.3365489 -1.04111 -0.9633765 2.869332 -1.04111 0.9847444 0.3365489 -1.041611 0.9847444 2.869332 -1.041611 -0.9623327 0.3365491 1.026496 -0.9623326 2.869332 1.026496 0.985788 0.3365491 1.025994 0.9857881 2.869332 1.025994 0.9847444 1.509892 -1.041611 0.985788 1.509892 1.025994 -0.6146128 0.5614963 0.8191606 0.9847444 0.345333 -1.041611 0.985788 0.3453332 1.025994 0.9847444 2.674452 -1.041611 0.985788 2.674452 1.025994 -0.6154472 0.5571044 -0.8339536 -0.6154473 1.726055 -0.8339537 -0.6146129 1.726055 0.8191606 -0.6146129 1.488609 0.8191606 -0.6154472 2.653168 -0.8339537 -0.6154473 1.488609 -0.8339537 -0.6146128 0.3580132 0.8191606 -0.6146128 2.653168 0.8191606 0.9848439 0.535821 -0.8438126 0.985688 0.5402134 0.8281953 0.9848439 1.704772 -0.8438127 0.985688 1.704772 0.8281953 0.9848439 1.509892 -0.8438127 0.985688 1.509892 0.8281953 0.9848439 0.3453332 -0.8438126 0.9848439 2.674452 -0.8438127 0.985688 0.3453332 0.8281953 0.985688 2.674452 0.8281953 0.9847444 0.345333 -1.041611 0.9847444 0.3365489 -1.041611 0.985788 0.3453332 1.025994 0.985788 0.3365491 1.025994 -0.9633765 0.3365489 -1.04111 -0.9623327 0.3365491 1.026496 0.9848439 0.3453332 -0.8438126 0.985688 0.3453332 0.8281953 -1.026142 3.016544 -1.107673 1.047443 3.016544 -1.108207 1.048554 3.016544 1.092559 -1.025032 3.016544 1.093093 -1.096514 3.162356 -1.182302 1.11774 3.162356 -1.182872 1.118926 3.162356 1.16719 -1.095328 3.162356 1.16776 -0.6146128 0.3580132 0.8191606 -0.6154472 0.5571044 -0.8339536 0.985688 0.3453332 0.8281953 0.9848439 0.3453332 -0.8438126 0.9848439 0.535821 -0.8438126 2.94988e-7 3.160508 0.2150598 3.29541e-7 3.704773 0.3381784 -0.1184791 3.160508 0.165984 -0.205537 3.704773 0.2530421 -0.167555 3.160508 0.04750454 -0.2906734 3.704773 0.0475046 -0.1184792 3.160508 -0.07097482 -0.2055371 3.704773 -0.1580328 2.65691e-7 3.160508 -0.1200507 2.78719e-7 3.704773 -0.2431691 0.1184799 3.160508 -0.07097488 0.2055377 3.704773 -0.1580328 0.1675556 3.160508 0.04750448 0.290674 3.704773 0.04750448 0.1184799 3.160508 0.165984 0.2055377 3.704773 0.253042 3.25509e-7 3.622745 0.3330727 -0.2019268 3.622745 0.2494317 -0.2855678 3.622745 0.0475046 -0.2019268 3.622745 -0.1544225 2.75579e-7 3.622745 -0.2380635 0.2019274 3.622745 -0.1544225 0.2855684 3.622745 0.04750448 0.2019274 3.622745 0.2494317 -0.2344527 3.704773 0.2819576 3.33117e-7 3.704773 0.3790714 -0.3315665 3.704773 0.0475046 -0.2344527 3.704773 -0.1869484 2.75143e-7 3.704773 -0.2840622 0.2344533 3.704773 -0.1869484 0.3315671 3.704773 0.04750448 0.2344533 3.704773 0.2819576 -0.205537 3.654815 0.2530421 3.27357e-7 3.654815 0.3381784 -0.2906735 3.654815 0.0475046 -0.2055371 3.654815 -0.1580328 2.76535e-7 3.654815 -0.2431692 0.2055377 3.654815 -0.1580328 0.290674 3.654815 0.04750448 0.2055377 3.654815 0.253042 -0.08776754 3.561389 0.1652979 -0.2500388 4.147985 -0.249134 0.06207597 3.552146 0.1307399 0.1788848 4.116777 -0.3124856 -0.01284569 3.556768 0.148019 -0.176416 3.744755 -0.09148085 -0.04093545 4.118342 -0.3151909 0.1479356 3.724747 -0.1662852 -0.01424002 3.734751 -0.128883 0.08370536 3.288759 -0.05807691 0.3287976 4.124242 -0.2538542 0.1405286 3.306088 0.0839883 0.40263 4.149126 0.05461323 0.1121171 3.297424 0.01295572 0.1619327 3.886783 -0.2366693 0.3344963 4.149571 -0.1312462 0.2932122 3.928678 0.06120318 0.2535405 3.900742 -0.07172405 -0.05906349 3.500934 0.1592721 -0.416912 4.19179 0.1315602 8.45195e-4 3.447854 0.02051681 -0.3099071 4.220744 -0.2598371 -0.04240751 3.484029 0.09740287 -0.3955419 3.948187 0.1107345 -0.4013183 4.175776 -0.07691812 -0.2803281 3.947762 -0.1977958 -0.2934063 3.933908 -0.03645598 0.1472656 3.521143 0.0689097 -0.1405801 4.056709 0.3877046 0.06747937 3.513903 -0.02132517 -0.399271 4.075015 0.1562986 0.1073725 3.517523 0.02379244 -0.05199474 3.751232 0.3097888 -0.2838227 4.107318 0.3081477 -0.2246999 3.73556 0.1144658 -0.1383473 3.743396 0.2121273 0.1095829 3.525139 -0.03173679 0.1999773 4.172234 0.360853 -0.004679322 3.51823 -0.01928794 -0.1013697 4.154013 0.3936848 0.05245155 3.521684 -0.02551233 0.1347171 3.786121 0.227984 0.04930371 4.163124 0.377269 -0.04663211 3.775156 0.2477419 0.04404228 3.780639 0.237863 0.123883 3.50461 0.0146355 0.04439473 4.148446 -0.1580896 0.03182512 3.485757 0.07342612 -0.2734457 4.095509 0.07676136 0.07785409 3.495183 0.04403096 0.02871674 3.909876 -0.03648114 -0.1288896 4.150777 -0.03502655 -0.200208 3.872866 0.1281675 -0.09141421 3.894605 0.04682379 -0.07183718 3.520057 0.1470189 0.09337323 4.11932 0.2814908 -0.01706808 3.499182 0.04469829 0.1961703 4.130864 -0.04185456 -0.0444526 3.50962 0.09585857 0.1144558 3.866652 0.2516195 0.2512508 4.122627 0.1690176 0.1884593 3.825485 -0.07255476 0.1820068 3.848422 0.1118225 0.04284352 3.502957 -0.01282042 0.3860682 4.127479 0.1714646 -0.05051457 3.494482 0.09284782 0.1205151 4.107517 0.4833919 -0.003835439 3.498719 0.04001367 0.2824155 3.765813 0.1448692 0.2625924 4.134672 0.3463112 0.08033174 3.747467 0.3735995 0.1813735 3.75664 0.2592344</float_array>
          <technique_common>
            <accessor source="#mesh0_010-mesh-positions-array" count="198" stride="3">
              <param name="X" type="float"/>
              <param name="Y" type="float"/>
              <param name="Z" type="float"/>
            </accessor>
          </technique_common>
        </source>
        <source id="mesh0_010-mesh-normals">
          <float_array id="mesh0_010-mesh-normals-array" count="714">-7.61466e-7 -0.04993736 0.9987524 -0.9975591 -0.06982892 0 0 -0.0499379 -0.9987524 0.997559 -0.06982922 0 0 -1 0 0 1 0 0 -0.04993754 0.9987524 -0.9975591 -0.0698288 0 0 -0.0499373 -0.9987524 0.997559 -0.06982952 0 0 -0.04993772 0.9987524 -0.9975591 -0.06982904 0 0 -0.04993748 -0.9987524 0.997559 -0.0698294 0 0 -0.04992502 0.9987531 -0.997559 -0.0698294 0 -7.61465e-7 -0.04995 -0.9987518 0.9975591 -0.0698288 0 -1 0 5.04891e-4 -2.57261e-4 0 -1 1 -1.37194e-6 -5.0482e-4 0.9999999 1.54829e-7 -5.04748e-4 0.9199548 -0.3920243 -4.64371e-4 2.57787e-4 0 1 1 0 -5.04819e-4 1 -7.73142e-7 -5.05648e-4 1 -1.55562e-7 -5.04748e-4 0.01328206 0.9999083 -0.002663195 0.01329821 0.9999116 -6.66853e-6 0.01329821 -0.9999117 -6.66357e-6 0.005645453 0 -0.9999841 0.006160557 0 0.9999811 0.006160438 0 0.9999811 0.01329892 -0.9999117 -6.4557e-6 0.005645453 0 -0.9999842 -1.14352e-5 -0.9990155 -0.04436588 0 0 1 -0.006160616 0 -0.9999811 2.29261e-4 -0.4557066 0.89013 -2.34344e-4 -0.4120864 -0.9111448 -0.9199553 -0.3920231 4.64029e-4 2.34817e-4 -0.41209 0.9111431 0 1 1.83271e-7 -2.29262e-4 -0.4556969 -0.890135 -0.9006904 -0.4344613 4.54516e-4 0.9006909 -0.4344602 -4.54618e-4 0 -0.04993754 0.9987524 -0.997559 -0.06982874 0 5.33026e-7 -0.04993778 -0.9987524 0.997559 -0.06982928 0 0 -0.04993736 0.9987524 -0.997559 -0.06982851 0 -5.33025e-7 -0.04993736 -0.9987524 0.997559 -0.06983 0 0 -0.04993778 0.9987524 -0.997559 -0.06982886 0 5.33025e-7 -0.04993742 -0.9987524 0.997559 -0.06982934 0 5.33026e-7 -0.04992496 0.9987531 -0.997559 -0.06982928 0 0 -0.04995 -0.9987518 -0.9999999 0 5.04833e-4 -2.57243e-4 0 -1 -2.57388e-4 0 -1 -2.57206e-4 0 -1 -2.57062e-4 0 -1 0.9999999 0 -5.03238e-4 0.9999999 -1.62719e-6 -5.04775e-4 0.9999999 -7.73142e-7 -5.05649e-4 0.9999999 0 -5.04747e-4 0.9199542 -0.3920257 -4.64338e-4 2.57792e-4 0 1 2.57787e-4 0 1 2.57681e-4 0 1 2.57639e-4 0 1 1 0 -5.05649e-4 0.9999999 0 -5.05648e-4 0.9999999 0 -5.05649e-4 0.9999999 0 -5.03239e-4 0.9999999 0 -5.03239e-4 0.9999999 0 -5.03238e-4 0.9999999 0 -5.02937e-4 1 0 -5.02937e-4 0.9999999 0 -5.03238e-4 0.9999999 1.55381e-7 -5.05649e-4 0.9999999 0 -5.05347e-4 0.9999999 0 -5.04855e-4 1 -7.31702e-7 -5.0489e-4 1 0 -5.04747e-4 0.01331293 0.999908 -0.002633452 0.01329821 0.9999117 -6.71455e-6 0.01329821 -0.9999116 -6.84876e-6 0.005645513 0 -0.9999842 0.006160557 0 0.9999811 0.006160676 1.28855e-7 0.9999811 0.01329892 -0.9999116 -6.4883e-6 0.005645513 0 -0.9999841 1 0 -5.02936e-4 0.9999999 0 -5.05648e-4 1.14111e-5 -0.9990153 0.04436683 0.004508972 -0.9999899 -2.26905e-6 0.004509031 -0.9999899 -2.19005e-6 -0.007923245 -0.9999687 4.00959e-6 -0.1309825 -0.9842802 -0.1184747 2.29156e-4 -0.4557064 0.8901301 -2.34576e-4 -0.4120823 -0.9111467 -0.9199522 -0.3920305 4.64427e-4 2.34664e-4 -0.4120933 0.9111416 0 1 0 -2.29075e-4 -0.4556955 -0.8901358 -0.9006928 -0.4344565 4.54297e-4 0.90069 -0.4344624 -4.54714e-4 -0.3397897 -0.4600126 0.8203241 -0.8203242 -0.4600116 0.3397904 -0.8203247 -0.4600114 -0.3397899 -0.3397881 -0.4600093 -0.8203266 0.3397897 -0.4600124 -0.8203241 0.8203247 -0.4600105 -0.3397907 0.3826845 -1.84351e-6 0.9238791 0.8203249 -0.4600126 0.3397876 0.339789 -0.4600114 0.8203248 0.8992045 -0.229574 0.3724609 0.8992044 -0.2295735 -0.3724614 0.3724617 -0.2295739 -0.8992041 -0.3724623 -0.2295736 -0.8992039 -0.8992039 -0.2295737 -0.3724626 -0.8992037 -0.2295738 0.372463 -0.3724621 -0.2295739 0.899204 0 1 5.31868e-6 0 1 -3.54576e-6 0 1 1.24339e-5 0 1 1.24338e-5 0 1 -1.77289e-6 0 1 -3.54575e-6 0 1 -7.09157e-6 0 1 1.41091e-6 0.9238787 -1.34072e-6 -0.3826854 -0.9238788 0 -0.3826853 -0.38268 0 0.9238811 0.9238787 0 0.3826854 0.3826839 0 -0.9238793 -0.3826838 0 -0.9238795 -0.9238788 0 0.3826855 0.3724621 -0.2295739 0.899204 -0.3397893 -0.4600101 0.8203255 -0.8203246 -0.4600121 0.3397889 -0.8203238 -0.4600128 -0.3397898 -0.3397904 -0.4600124 -0.8203238 0.3397894 -0.4600103 -0.8203254 0.8203246 -0.4600121 -0.339789 0.3826843 0 0.9238792 0.8203243 -0.4600111 0.3397912 0.3397889 -0.4600098 0.8203259 0.8992038 -0.2295736 0.3724629 0.8992038 -0.229574 -0.3724626 0.3724622 -0.2295736 -0.8992041 -0.3724631 -0.2295741 -0.8992036 -0.8992039 -0.2295737 -0.3724625 -0.8992037 -0.2295738 0.372463 -0.3724626 -0.229574 0.8992038 0 1 -8.86448e-6 0 1 6.21693e-6 0 1 -1.1031e-5 0 1 5.31867e-6 0 1 -3.40623e-6 0 1 -3.40623e-6 0 1 1.70312e-6 0.9238807 0 -0.3826807 -0.9238807 0 -0.3826807 -0.3826881 -2.01111e-6 0.9238776 0.9238806 -1.34073e-6 0.3826808 -0.3826841 0 -0.9238794 -0.9238806 0 0.382681 0.3724625 -0.229574 0.8992038 -0.2275828 -0.4381942 -0.869593 -0.1737911 -0.8288099 -0.5318561 -0.1737796 -0.8288085 -0.5318621 -0.2275822 -0.4381946 -0.8695929 0.9164364 -0.3461822 -0.2007542 0.9072466 -0.259163 -0.3312674 0.9072468 -0.2591629 -0.3312671 0.7478213 -0.5521773 -0.3685968 -0.9008583 -0.4201796 -0.1091033 -0.8236441 -0.5240355 -0.2167889 -0.8575472 -0.5060014 -0.09260302 -0.7633821 -0.4223524 -0.4887393 -0.6601656 -0.4269493 0.6179773 -0.4113501 -0.8045943 0.4282748 -0.4113487 -0.8045911 0.4282819 -0.6843457 -0.3601631 0.633998 0.1221776 -0.3413556 0.9319598 0.1187438 -0.7061221 0.6980627 0.118758 -0.706124 0.6980584 0.1221743 -0.3413566 0.9319599 0.5150505 0.3500765 0.7824126 0.4967369 0.2046112 0.8434376 0.4921711 0.2217482 0.8417811 0.5096321 0.3286193 0.7951632 -0.998832 0.02909916 -0.03857517 -0.7160376 0.5014888 -0.4855916 -0.7160438 0.5014925 -0.4855786 -0.8411346 0.3054963 -0.4462787 0.731844 -0.272188 0.6247545 0.5353452 -0.7362496 0.4139349 0.5353538 -0.7362478 0.413927 0.7269744 -0.2986162 0.6183338 0.009035944 -0.3500355 -0.9366928 -0.1737872 -0.8288099 -0.5318575 -0.1737867 -0.8288112 -0.5318554 -0.3271825 -0.3953124 -0.8583005 0.8473762 -0.4299057 -0.3116645 0.9429526 -0.2397046 -0.2310454 0.8557403 -0.2476128 -0.4543091 0.9520839 -0.3052582 0.01880979 -0.8555796 -0.2011166 -0.477007 -0.8439857 -0.5242349 -0.1134279 -0.6987166 -0.572252 -0.4293284 -0.9943503 -0.08140558 -0.06812208 -0.6761369 -0.4221322 0.6038572 -0.4113508 -0.8045952 0.4282724 -0.4113512 -0.8045948 0.428273 -0.5493133 -0.4114776 0.7272835 0.1221776 -0.341356 0.9319596 0.1187512 -0.7061235 0.6980601 0.1187439 -0.7061216 0.6980633 0.1221768 -0.3413557 0.9319599 0.4956142 0.329295 0.8036986 0.5556544 0.219666 0.8018697 0.5364854 0.2216598 0.8142791 0.5450989 0.35203 0.7608826 -0.9487802 0.1863809 0.2551048 -0.8572068 0.5065041 -0.09300708 -0.7376685 0.5247172 -0.4248731 -0.5802252 0.04770809 -0.8130576 0.6914397 -0.2999402 0.6572268 0.5353494 -0.7362491 0.4139303 0.5353497 -0.7362492 0.4139298 0.7823169 -0.2656399 0.5633968</float_array>
          <technique_common>
            <accessor source="#mesh0_010-mesh-normals-array" count="238" stride="3">
              <param name="X" type="float"/>
              <param name="Y" type="float"/>
              <param name="Z" type="float"/>
            </accessor>
          </technique_common>
        </source>
        <source id="mesh0_010-mesh-map-0">
          <float_array id="mesh0_010-mesh-map-0-array" count="1698">0.2540812 0.9379785 0.2638808 0.925732 0.2662394 0.9298636 0.2507117 0.9320761 0.2625603 0.9226009 0.2638808 0.925732 0.2488252 0.927603 0.2612479 0.9180279 0.2625603 0.9226009 0.256974 0.941877 0.2662394 0.9298636 0.2682644 0.9325927 0.2625603 0.9226009 0.2682644 0.9238833 0.2638808 0.925732 0.2507117 0.9320761 0.2498652 0.9403852 0.2464957 0.9344829 0.4715166 0.1106765 0.4765807 0.04851853 0.4896108 0.1051603 0.4765807 0.04851853 0.5029131 0.1027908 0.4896108 0.1051603 0.495584 0.04513365 0.5217992 0.10172 0.5029131 0.1027908 0.433072 0.0641911 0.4715166 0.1106765 0.4591548 0.116131 0.5029131 0.1027908 0.5225641 0.1152099 0.503678 0.1162809 0.4765807 0.04851853 0.445103 0.03793531 0.4709519 0.0300551 0.2547555 0.8967861 0.2643826 0.9091686 0.2523393 0.9008843 0.2523393 0.9008843 0.2614355 0.9130262 0.2502763 0.9035847 0.2614355 0.9130262 0.2469575 0.9069935 0.2502763 0.9035847 0.2697834 0.8988678 0.2547555 0.8967861 0.2561197 0.8936737 0.2502763 0.9035847 0.2485587 0.8979961 0.2523393 0.9008843 0.2643826 0.9091686 0.2668362 0.9171522 0.2614355 0.9130262 0.2540812 0.9619596 0.2638808 0.9497131 0.2662394 0.9538447 0.2507117 0.9560572 0.2625603 0.946582 0.2638808 0.9497131 0.2488251 0.9515842 0.2612479 0.942009 0.2625603 0.946582 0.2682644 0.9565737 0.2540812 0.9619596 0.2662394 0.9538447 0.2625603 0.946582 0.2682644 0.9478643 0.2638808 0.9497131 0.2507117 0.9560572 0.2498652 0.9643663 0.2464957 0.958464 0.02648133 0.873428 0.06967771 0.9282206 0.02468299 0.9212034 0.1349439 0.8347052 0.1258535 0.8685645 0.1074324 0.858384 0.1096561 0.8998641 0.1243482 0.8719317 0.1293881 0.8695496 0.09392261 0.8677828 0.0933122 0.867435 0.09377598 0.8671712 0.1101629 0.9057258 0.1322296 0.8704214 0.1125931 0.9082993 0.06472647 0.8730424 0.07834118 0.8732199 0.0910325 0.8858557 0.1084708 0.8624932 0.09302872 0.8839069 0.1059421 0.8611056 0.08260506 0.8726797 0.07834118 0.8732199 0.08075416 0.8709257 0.1098564 0.8806461 0.1100986 0.8787241 0.1108035 0.879352 0.2175914 0.9303867 0.1674268 0.8782853 0.2175914 0.8785708 0.1085682 0.8802562 0.1085119 0.8627634 0.1100986 0.8787241 0.09310376 0.8679024 0.1059421 0.8611056 0.09302872 0.8839069 0.09310376 0.8679024 0.08298403 0.8727715 0.09336978 0.8674512 0.1100986 0.8787241 0.1232619 0.872217 0.1108013 0.8793373 0.09392261 0.8677828 0.09060949 0.8552899 0.1059421 0.8611056 0.1098564 0.8807032 0.1239133 0.8721259 0.1096561 0.8998641 0.1085682 0.8802562 0.1096561 0.8998641 0.09542018 0.8856543 0.08083957 0.8706803 0.0783621 0.872972 0.0647239 0.8728983 0.08593106 0.8504222 0.08614665 0.8499984 0.08615893 0.8501693 0.07839453 0.873175 0.07831323 0.8730171 0.0783621 0.872972 0.0647239 0.8728983 0.06165897 0.856301 0.06211906 0.8566155 0.06211906 0.8566155 0.08582711 0.8502568 0.08593106 0.8504222 0.0783621 0.872972 0.06472647 0.8730424 0.0647239 0.8728983 0.08615893 0.8501693 0.08670735 0.85508 0.08648031 0.8549088 0.08083957 0.8706803 0.07834118 0.8732199 0.07839453 0.873175 0.08648031 0.8549088 0.08075416 0.8709257 0.08083957 0.8706803 0.233162 0.8204237 0.233162 0.8780551 0.2263033 0.8781463 0.1125931 0.9082993 0.07111698 0.9355726 0.07035613 0.9318181 0.1349439 0.8347052 0.1322296 0.8704214 0.1293881 0.8695496 0.02468299 0.9212034 0.07035613 0.9318181 0.0227319 0.9243851 0.1101629 0.9057258 0.07035613 0.9318181 0.06967771 0.9282206 0.1412923 0.9575175 0.07111698 0.9355726 0.1150736 0.9108582 0.138065 0.8339743 0.1351205 0.8713142 0.1322296 0.8704214 0.0227319 0.9243851 0.07111698 0.9355726 0.02057808 0.9276138 0.1125931 0.9082993 0.1351205 0.8713142 0.1150736 0.9108582 0.1890166 0.8258211 0.2330247 0.8194026 0.233162 0.8204237 0.1681011 0.8639276 0.188529 0.8251105 0.1890166 0.8258211 0.2579284 0.869691 0.2575839 0.849954 0.2579284 0.849951 0.2540812 0.9379785 0.2507117 0.9320761 0.2638808 0.925732 0.2507117 0.9320761 0.2488252 0.927603 0.2625603 0.9226009 0.2488252 0.927603 0.2469505 0.9210703 0.2612479 0.9180279 0.256974 0.941877 0.2540812 0.9379785 0.2662394 0.9298636 0.2625603 0.9226009 0.2669439 0.9207522 0.2682644 0.9238833 0.2507117 0.9320761 0.2540812 0.9379785 0.2498652 0.9403852 0.4715166 0.1106765 0.4507318 0.05639886 0.4765807 0.04851853 0.4765807 0.04851853 0.495584 0.04513365 0.5029131 0.1027908 0.495584 0.04513365 0.5225641 0.04360383 0.5217992 0.10172 0.433072 0.0641911 0.4507318 0.05639886 0.4715166 0.1106765 0.5029131 0.1027908 0.5217992 0.10172 0.5225641 0.1152099 0.4765807 0.04851853 0.4507318 0.05639886 0.445103 0.03793531 0.2547555 0.8967861 0.2678345 0.903314 0.2643826 0.9091686 0.2523393 0.9008843 0.2643826 0.9091686 0.2614355 0.9130262 0.2614355 0.9130262 0.2566945 0.9178959 0.2469575 0.9069935 0.2697834 0.8988678 0.2678345 0.903314 0.2547555 0.8967861 0.2502763 0.9035847 0.2464957 0.9006965 0.2485587 0.8979961 0.2643826 0.9091686 0.2697834 0.9132945 0.2668362 0.9171522 0.2540812 0.9619596 0.2507117 0.9560572 0.2638808 0.9497131 0.2507117 0.9560572 0.2488251 0.9515842 0.2625603 0.946582 0.2488251 0.9515842 0.2469504 0.9450514 0.2612479 0.942009 0.2682644 0.9565737 0.2569739 0.9658582 0.2540812 0.9619596 0.2625603 0.946582 0.2669438 0.9447332 0.2682644 0.9478643 0.2507117 0.9560572 0.2540812 0.9619596 0.2498652 0.9643663 0.02648133 0.873428 0.06472647 0.8730424 0.06967771 0.9282206 0.1349439 0.8347052 0.1293881 0.8695496 0.1258535 0.8685645 0.1074324 0.858384 0.08614665 0.8499984 0.09609037 0.8224555 0.08614665 0.8499984 0.08582711 0.8502568 0.09609037 0.8224555 0.1074324 0.858384 0.09609037 0.8224555 0.1349439 0.8347052 0.1243482 0.8719317 0.1258535 0.8685645 0.1293881 0.8695496 0.1293881 0.8695496 0.1101629 0.9057258 0.1096561 0.8998641 0.1101629 0.9057258 0.1073918 0.9026436 0.1096561 0.8998641 0.09392261 0.8677828 0.09310376 0.8679024 0.0933122 0.867435 0.1101629 0.9057258 0.1293881 0.8695496 0.1322296 0.8704214 0.1101629 0.9057258 0.06967771 0.9282206 0.1073918 0.9026436 0.06967771 0.9282206 0.06472647 0.8730424 0.0910325 0.8858557 0.1073918 0.9026436 0.06967771 0.9282206 0.0910325 0.8858557 0.06472647 0.8730424 0.07831323 0.8730171 0.07834118 0.8732199 0.09542018 0.8856543 0.1096561 0.8998641 0.1073918 0.9026436 0.1073918 0.9026436 0.0910325 0.8858557 0.09542018 0.8856543 0.0910325 0.8858557 0.09302872 0.8839069 0.09542018 0.8856543 0.1059421 0.8611056 0.1074324 0.858384 0.1084708 0.8624932 0.1074324 0.858384 0.1258535 0.8685645 0.1084708 0.8624932 0.1258535 0.8685645 0.1243482 0.8719317 0.1084708 0.8624932 0.1084708 0.8624932 0.09542018 0.8856543 0.09302872 0.8839069 0.08670735 0.85508 0.08614665 0.8499984 0.09059792 0.8553094 0.08614665 0.8499984 0.1074324 0.858384 0.09059792 0.8553094 0.1074324 0.858384 0.1059421 0.8611056 0.09059792 0.8553094 0.08260506 0.8726797 0.09302872 0.8839069 0.0910325 0.8858557 0.08260506 0.8726797 0.0910325 0.8858557 0.07834118 0.8732199 0.08702737 0.8552215 0.09049701 0.8557294 0.08075416 0.8709257 0.09049701 0.8557294 0.08260506 0.8726797 0.08075416 0.8709257 0.1098564 0.8806461 0.1085682 0.8802562 0.1100986 0.8787241 0.2175914 0.9303867 0.1674268 0.9306934 0.1674268 0.8782853 0.1085682 0.8802562 0.09542018 0.8856543 0.1085119 0.8627634 0.09310376 0.8679024 0.09392261 0.8677828 0.1059421 0.8611056 0.09310376 0.8679024 0.09302872 0.8839069 0.08298403 0.8727715 0.1100986 0.8787241 0.1085119 0.8627634 0.1232619 0.872217 0.09392261 0.8677828 0.09376871 0.8670449 0.09060949 0.8552899 0.1098564 0.8807032 0.1107937 0.8793953 0.1239133 0.8721259 0.1085682 0.8802562 0.1098564 0.8807032 0.1096561 0.8998641 0.08593106 0.8504222 0.08615893 0.8501693 0.08648031 0.8549088 0.08083957 0.8706803 0.07839453 0.873175 0.0783621 0.872972 0.08593106 0.8504222 0.08648031 0.8549088 0.06211906 0.8566155 0.08648031 0.8549088 0.08083957 0.8706803 0.0647239 0.8728983 0.0647239 0.8728983 0.06211906 0.8566155 0.08648031 0.8549088 0.08593106 0.8504222 0.08582711 0.8502568 0.08614665 0.8499984 0.07839453 0.873175 0.07834118 0.8732199 0.07831323 0.8730171 0.0647239 0.8728983 0.06472647 0.8730424 0.06165897 0.856301 0.06211906 0.8566155 0.06165897 0.856301 0.08582711 0.8502568 0.0783621 0.872972 0.07831323 0.8730171 0.06472647 0.8730424 0.08615893 0.8501693 0.08614665 0.8499984 0.08670735 0.85508 0.08083957 0.8706803 0.08075416 0.8709257 0.07834118 0.8732199 0.08648031 0.8549088 0.08670735 0.85508 0.08075416 0.8709257 0.1681011 0.8639276 0.1890166 0.8258211 0.2263033 0.8781463 0.1890166 0.8258211 0.233162 0.8204237 0.2263033 0.8781463 0.1125931 0.9082993 0.1150736 0.9108582 0.07111698 0.9355726 0.1349439 0.8347052 0.138065 0.8339743 0.1322296 0.8704214 0.02468299 0.9212034 0.06967771 0.9282206 0.07035613 0.9318181 0.1101629 0.9057258 0.1125931 0.9082993 0.07035613 0.9318181 0.1412923 0.9575175 0.09733563 0.9822318 0.07111698 0.9355726 0.138065 0.8339743 0.1412923 0.8331363 0.1351205 0.8713142 0.0227319 0.9243851 0.07035613 0.9318181 0.07111698 0.9355726 0.1125931 0.9082993 0.1322296 0.8704214 0.1351205 0.8713142 0.1890166 0.8258211 0.188529 0.8251105 0.2330247 0.8194026 0.1681011 0.8639276 0.1674268 0.8635652 0.188529 0.8251105 0.2579284 0.869691 0.2575839 0.869691 0.2575839 0.849954 0.1563652 0.6444203 0.1732844 0.6882486 0.1483757 0.6612951 0.1918768 0.6823025 0.1713614 0.724967 0.1732844 0.6882486 0.1713614 0.724967 0.1496534 0.7673285 0.143709 0.7495292 0.1496534 0.7673285 0.1074932 0.7467517 0.143709 0.7495292 0.09832429 0.7628383 0.08427345 0.7203323 0.1074932 0.7467517 0.06686609 0.7258874 0.0854566 0.6852011 0.08427345 0.7203323 0.153626 0.7795356 0.08623576 0.784279 0.09340137 0.77161 0.06846153 0.6773492 0.1115127 0.6599652 0.0854566 0.6852011 0.1115127 0.6599652 0.1563652 0.6444203 0.1483757 0.6612951 0.0854566 0.6852011 0.1246968 0.6992238 0.1220776 0.7029482 0.08427345 0.7203323 0.1220776 0.7029482 0.1229571 0.7075879 0.1074932 0.7467517 0.1229571 0.7075879 0.1264875 0.7106128 0.143709 0.7495292 0.1264875 0.7106128 0.1310172 0.7100008 0.1713614 0.724967 0.1310172 0.7100008 0.1337514 0.7062402 0.1732844 0.6882486 0.1337514 0.7062402 0.1330372 0.7015609 0.1483757 0.6612951 0.1330372 0.7015609 0.1292529 0.6986983 0.1617934 0.632988 0.1918768 0.6823025 0.1563652 0.6444203 0.1998126 0.7375644 0.1918768 0.6823025 0.1997046 0.6794496 0.153626 0.7795356 0.1901475 0.7333593 0.1998126 0.7375644 0.153626 0.7795356 0.09832429 0.7628383 0.1496534 0.7673285 0.09340137 0.77161 0.06686609 0.7258874 0.09832429 0.7628383 0.05929374 0.6737454 0.06686609 0.7258874 0.05959802 0.728415 0.0997653 0.6312587 0.06846153 0.6773492 0.05929374 0.6737454 0.1617934 0.632988 0.1039233 0.6409814 0.0997653 0.6312587 0.41106 0.1303412 0.2954923 0.4093466 0.01648694 0.2937789 0.1997046 0.6794496 0.2138184 0.7443083 0.1998126 0.7375644 0.05929374 0.6737454 0.09419721 0.6167453 0.0997653 0.6312587 0.09340137 0.77161 0.04658436 0.7326533 0.05959802 0.728415 0.1998126 0.7375644 0.1582336 0.7947297 0.153626 0.7795356 0.1617934 0.632988 0.2138184 0.6746208 0.1997046 0.6794496 0.0997653 0.6312587 0.1687471 0.6189531 0.1617934 0.632988 0.05959802 0.728415 0.04610311 0.6680386 0.05929374 0.6737454 0.1115127 0.6599652 0.1292529 0.6986983 0.1246968 0.6992238 0.1563652 0.6444203 0.1918768 0.6823025 0.1732844 0.6882486 0.1918768 0.6823025 0.1901475 0.7333593 0.1713614 0.724967 0.1713614 0.724967 0.1901475 0.7333593 0.1496534 0.7673285 0.1496534 0.7673285 0.09832429 0.7628383 0.1074932 0.7467517 0.09832429 0.7628383 0.06686609 0.7258874 0.08427345 0.7203323 0.06686609 0.7258874 0.06846153 0.6773492 0.0854566 0.6852011 0.153626 0.7795356 0.1582336 0.7947297 0.08623576 0.784279 0.06846153 0.6773492 0.1039233 0.6409814 0.1115127 0.6599652 0.1115127 0.6599652 0.1039233 0.6409814 0.1563652 0.6444203 0.0854566 0.6852011 0.1115127 0.6599652 0.1246968 0.6992238 0.08427345 0.7203323 0.0854566 0.6852011 0.1220776 0.7029482 0.1074932 0.7467517 0.08427345 0.7203323 0.1229571 0.7075879 0.143709 0.7495292 0.1074932 0.7467517 0.1264875 0.7106128 0.1713614 0.724967 0.143709 0.7495292 0.1310172 0.7100008 0.1732844 0.6882486 0.1713614 0.724967 0.1337514 0.7062402 0.1483757 0.6612951 0.1732844 0.6882486 0.1330372 0.7015609 0.1617934 0.632988 0.1997046 0.6794496 0.1918768 0.6823025 0.1998126 0.7375644 0.1901475 0.7333593 0.1918768 0.6823025 0.153626 0.7795356 0.1496534 0.7673285 0.1901475 0.7333593 0.153626 0.7795356 0.09340137 0.77161 0.09832429 0.7628383 0.09340137 0.77161 0.05959802 0.728415 0.06686609 0.7258874 0.05929374 0.6737454 0.06846153 0.6773492 0.06686609 0.7258874 0.0997653 0.6312587 0.1039233 0.6409814 0.06846153 0.6773492 0.1617934 0.632988 0.1563652 0.6444203 0.1039233 0.6409814 0.01648694 0.2937789 0.01648694 0.1303412 0.1320546 0.01477342 0.1320546 0.01477342 0.2954923 0.01477342 0.41106 0.1303412 0.41106 0.1303412 0.41106 0.2937789 0.2954923 0.4093466 0.2954923 0.4093466 0.1320546 0.4093466 0.01648694 0.2937789 0.01648694 0.2937789 0.1320546 0.01477342 0.41106 0.1303412 0.1997046 0.6794496 0.2138184 0.6746208 0.2138184 0.7443083 0.05929374 0.6737454 0.04610311 0.6680386 0.09419721 0.6167453 0.09340137 0.77161 0.08623576 0.784279 0.04658436 0.7326533 0.1998126 0.7375644 0.2138184 0.7443083 0.1582336 0.7947297 0.1617934 0.632988 0.1687471 0.6189531 0.2138184 0.6746208 0.0997653 0.6312587 0.09419721 0.6167453 0.1687471 0.6189531 0.05959802 0.728415 0.04658436 0.7326533 0.04610311 0.6680386 0.1115127 0.6599652 0.1483757 0.6612951 0.1292529 0.6986983 0.9858227 0.8842015 0.7956209 0.9693707 0.7930305 0.8940847 0.7930305 0.8940847 0.6465462 0.911307 0.6453495 0.8765262 0.7904404 0.8187984 0.6453495 0.8765262 0.6441529 0.8417458 0.7904404 0.8187984 0.9858227 0.8842015 0.7930305 0.8940847 0.5634683 0.4099048 0.4571704 0.5419847 0.4203976 0.4692175 0.4203976 0.4692175 0.1007084 0.6361004 0.08260113 0.5961791 0.06442624 0.5562928 0.4203976 0.4692175 0.08260113 0.5961791 0.5375413 0.3435695 0.4203976 0.4692175 0.373807 0.3704929 0.9736873 0.5901123 0.8575152 0.6556551 0.8478602 0.5797688 0.8478602 0.5797688 0.5783892 0.5820419 0.5992793 0.5426545 0.6068639 0.5126006 0.8478602 0.5797688 0.5992793 0.5426545 0.8706414 0.498203 0.9736873 0.5901123 0.8478602 0.5797688 0.9759213 0.2017734 0.792398 0.3178322 0.7753219 0.2530355 0.7753219 0.2530355 0.5921244 0.329299 0.5842021 0.2994004 0.5762743 0.2695029 0.7753219 0.2530355 0.5842021 0.2994004 0.9176565 0.1359536 0.7753219 0.2530355 0.7580573 0.1882719 0.6168196 0.08335578 0.7908061 0.03868657 0.7908058 0.07775592 0.7908058 0.07775592 0.948509 0.06223946 0.948509 0.08685594 0.7908058 0.1168253 0.948509 0.08685594 0.948509 0.1114722 0.7908058 0.1168253 0.6168196 0.08335578 0.7908058 0.07775592 0.44218 0.4640346 0.6061041 0.4831292 0.4731357 0.5413069 0.44218 0.4640346 0.1982413 0.5507498 0.1856428 0.5196874 0.4040458 0.3836865 0.1856428 0.5196874 0.1730261 0.4886235 0.4040458 0.3836865 0.5777425 0.3712136 0.44218 0.4640346 0.4790496 0.8658547 0.5924687 0.9762239 0.4428539 0.9497509 0.4790496 0.8658547 0.2813791 0.8331508 0.2881206 0.8046711 0.2949066 0.7761996 0.4790496 0.8658547 0.2881206 0.8046711 0.4954757 0.7907885 0.6207168 0.8716536 0.4790496 0.8658547 0.3823545 0.641619 0.5327242 0.7404143 0.3744625 0.7065112 0.3823545 0.641619 0.2166526 0.6406686 0.2202929 0.610693 0.223933 0.5807176 0.3823545 0.641619 0.2202929 0.610693 0.3902232 0.5767245 0.5511032 0.6572222 0.3823545 0.641619 0.9858227 0.8842015 0.9846453 0.98352 0.7956209 0.9693707 0.7930305 0.8940847 0.7956209 0.9693707 0.6465462 0.911307 0.7904404 0.8187984 0.7930305 0.8940847 0.6453495 0.8765262 0.7904404 0.8187984 0.9858227 0.7842248 0.9858227 0.8842015 0.5634683 0.4099048 0.5962813 0.5184916 0.4571704 0.5419847 0.4203976 0.4692175 0.4571704 0.5419847 0.1007084 0.6361004 0.06442624 0.5562928 0.373807 0.3704929 0.4203976 0.4692175 0.5375413 0.3435695 0.5634683 0.4099048 0.4203976 0.4692175 0.9736873 0.5901123 0.9853702 0.6873958 0.8575152 0.6556551 0.8478602 0.5797688 0.8575152 0.6556551 0.5783892 0.5820419 0.6068639 0.5126006 0.8706414 0.498203 0.8478602 0.5797688 0.8706414 0.498203 0.9853702 0.4926803 0.9736873 0.5901123 0.9759213 0.2017734 0.9885715 0.3001996 0.792398 0.3178322 0.7753219 0.2530355 0.792398 0.3178322 0.5921244 0.329299 0.5762743 0.2695029 0.7580573 0.1882719 0.7753219 0.2530355 0.9176565 0.1359536 0.9759213 0.2017734 0.7753219 0.2530355 0.6168196 0.08335578 0.6168199 0.01843452 0.7908061 0.03868657 0.7908058 0.07775592 0.7908061 0.03868657 0.948509 0.06223946 0.7908058 0.1168253 0.7908058 0.07775592 0.948509 0.08685594 0.7908058 0.1168253 0.6168199 0.148277 0.6168196 0.08335578 0.44218 0.4640346 0.5777425 0.3712136 0.6061041 0.4831292 0.44218 0.4640346 0.4731357 0.5413069 0.1982413 0.5507498 0.4040458 0.3836865 0.44218 0.4640346 0.1856428 0.5196874 0.4040458 0.3836865 0.5107656 0.2614606 0.5777425 0.3712136 0.4790496 0.8658547 0.6207168 0.8716536 0.5924687 0.9762239 0.4790496 0.8658547 0.4428539 0.9497509 0.2813791 0.8331508 0.2949066 0.7761996 0.4954757 0.7907885 0.4790496 0.8658547 0.4954757 0.7907885 0.6207168 0.7758743 0.6207168 0.8716536 0.3823545 0.641619 0.5511032 0.6572222 0.5327242 0.7404143 0.3823545 0.641619 0.3744625 0.7065112 0.2166526 0.6406686 0.223933 0.5807176 0.3902232 0.5767245 0.3823545 0.641619 0.3902232 0.5767245 0.5511032 0.5656509 0.5511032 0.6572222</float_array>
          <technique_common>
            <accessor source="#mesh0_010-mesh-map-0-array" count="849" stride="2">
              <param name="S" type="float"/>
              <param name="T" type="float"/>
            </accessor>
          </technique_common>
        </source>
        <vertices id="mesh0_010-mesh-vertices">
          <input semantic="POSITION" source="#mesh0_010-mesh-positions"/>
        </vertices>
        <triangles material="Material_003-material" count="283">
          <input semantic="VERTEX" source="#mesh0_010-mesh-vertices" offset="0"/>
          <input semantic="NORMAL" source="#mesh0_010-mesh-normals" offset="1"/>
          <input semantic="TEXCOORD" source="#mesh0_010-mesh-map-0" offset="2" set="0"/>
          <p>1 0 0 2 0 1 0 0 2 3 1 3 6 1 4 2 1 5 7 2 6 4 2 7 6 2 8 5 3 9 0 3 10 4 3 11 6 4 12 0 4 13 2 4 14 3 5 15 5 5 16 7 5 17 8 6 18 11 6 19 10 6 20 11 7 21 14 7 22 10 7 23 15 8 24 12 8 25 14 8 26 13 9 27 8 9 28 12 9 29 14 4 30 8 4 31 10 4 32 11 5 33 13 5 34 15 5 35 16 10 36 19 10 37 18 10 38 18 11 39 23 11 40 22 11 41 23 12 42 20 12 43 22 12 44 21 13 45 16 13 46 20 13 47 22 4 48 16 4 49 18 4 50 19 5 51 21 5 52 23 5 53 25 14 54 26 14 55 24 14 56 27 15 57 30 15 58 26 15 59 31 16 60 28 16 61 30 16 62 28 17 63 25 17 64 24 17 65 30 4 66 24 4 67 26 4 68 27 5 69 29 5 70 31 5 71 69 18 72 37 18 73 33 18 74 33 19 75 45 19 76 40 19 77 64 20 78 62 20 79 35 20 80 52 21 81 42 21 82 82 21 83 39 22 84 74 22 85 75 22 86 70 23 87 67 23 88 41 23 89 57 24 90 60 24 91 59 24 92 56 25 93 67 25 94 83 25 95 54 26 96 48 26 97 51 26 98 42 27 99 85 27 100 82 27 101 49 28 102 57 28 103 48 28 104 50 29 105 59 29 106 60 29 107 50 30 108 56 30 109 42 30 110 48 31 111 62 31 112 51 31 113 52 32 114 85 32 115 59 32 116 54 33 117 62 33 118 64 33 119 49 34 120 64 34 121 58 34 122 63 35 123 38 35 124 36 35 125 34 36 126 65 36 127 43 36 128 44 36 129 68 36 130 38 36 131 36 36 132 69 36 133 32 36 134 32 36 135 66 36 136 34 36 137 38 36 138 70 36 139 36 36 140 43 36 141 84 36 142 61 36 143 63 36 144 67 36 145 44 36 146 61 36 147 83 36 148 63 36 149 82 37 150 85 37 151 84 37 152 75 38 153 80 38 154 76 38 155 33 39 156 74 39 157 35 39 158 33 40 159 76 40 160 73 40 161 39 41 162 76 41 163 37 41 164 78 42 165 80 42 166 79 42 167 73 43 168 78 43 169 74 43 170 73 44 171 80 44 172 77 44 173 75 45 174 78 45 175 79 45 176 81 36 177 47 36 178 82 36 179 83 36 180 53 36 181 81 36 182 85 36 183 71 36 184 84 36 185 1 46 186 3 46 187 2 46 188 3 47 189 7 47 190 6 47 191 7 48 192 5 48 193 4 48 194 5 49 195 1 49 196 0 49 197 6 4 198 4 4 199 0 4 200 3 5 201 1 5 202 5 5 203 8 50 204 9 50 205 11 50 206 11 51 207 15 51 208 14 51 209 15 52 210 13 52 211 12 52 212 13 53 213 9 53 214 8 53 215 14 4 216 12 4 217 8 4 218 11 5 219 9 5 220 13 5 221 16 54 222 17 54 223 19 54 224 18 55 225 19 55 226 23 55 227 23 56 228 21 56 229 20 56 230 21 57 231 17 57 232 16 57 233 22 4 234 20 4 235 16 4 236 19 5 237 17 5 238 21 5 239 25 58 240 27 58 241 26 58 242 27 59 243 31 59 244 30 59 245 31 60 246 29 60 247 28 60 248 28 13 249 29 13 250 25 13 251 30 4 252 28 4 253 24 4 254 27 5 255 25 5 256 29 5 257 69 61 258 70 61 259 37 61 260 33 62 261 35 62 262 45 62 263 40 63 264 65 63 265 69 63 266 65 64 267 66 64 268 69 64 269 40 65 270 69 65 271 33 65 272 62 66 273 45 66 274 35 66 275 35 67 276 39 67 277 64 67 278 39 68 279 46 68 280 64 68 281 52 69 282 50 69 283 42 69 284 39 70 285 35 70 286 74 70 287 39 71 288 37 71 289 46 71 290 37 72 291 70 72 292 41 72 293 46 73 294 37 73 295 41 73 296 70 74 297 68 74 298 67 74 299 58 75 300 64 75 301 46 75 302 46 76 303 41 76 304 58 76 305 41 77 306 60 77 307 58 77 308 59 78 309 40 78 310 57 78 311 40 79 312 45 79 313 57 79 314 45 80 315 62 80 316 57 80 317 57 24 318 58 24 319 60 24 320 84 81 321 65 81 322 85 81 323 65 82 324 40 82 325 85 82 326 40 83 327 59 83 328 85 83 329 56 84 330 60 84 331 41 84 332 56 85 333 41 85 334 67 85 335 84 86 336 85 86 337 83 86 338 85 87 339 56 87 340 83 87 341 54 88 342 49 88 343 48 88 344 42 89 345 56 89 346 85 89 347 49 90 348 58 90 349 57 90 350 50 91 351 52 91 352 59 91 353 50 92 354 60 92 355 56 92 356 48 93 357 57 93 358 62 93 359 52 94 360 82 94 361 85 94 362 54 95 363 51 95 364 62 95 365 49 96 366 54 96 367 64 96 368 34 97 369 43 97 370 61 97 371 63 98 372 44 98 373 38 98 374 34 99 375 61 99 376 32 99 377 61 100 378 63 100 379 36 100 380 36 101 381 32 101 382 61 101 383 34 36 384 66 36 385 65 36 386 44 36 387 67 36 388 68 36 389 36 36 390 70 36 391 69 36 392 32 36 393 69 36 394 66 36 395 38 36 396 68 36 397 70 36 398 43 36 399 65 36 400 84 36 401 63 36 402 83 36 403 67 36 404 61 36 405 84 36 406 83 36 407 83 102 408 81 102 409 84 102 410 81 103 411 82 103 412 84 103 413 75 104 414 79 104 415 80 104 416 33 105 417 73 105 418 74 105 419 33 106 420 37 106 421 76 106 422 39 107 423 75 107 424 76 107 425 78 108 426 77 108 427 80 108 428 73 109 429 77 109 430 78 109 431 73 110 432 76 110 433 80 110 434 75 111 435 74 111 436 78 111 437 81 36 438 53 36 439 47 36 440 83 36 441 72 36 442 53 36 443 85 36 444 55 36 445 71 36 446 111 112 447 103 112 448 102 112 449 110 113 450 104 113 451 103 113 452 104 114 453 113 114 454 105 114 455 113 115 456 106 115 457 105 115 458 114 116 459 107 116 460 106 116 461 115 117 462 108 117 463 107 117 464 93 118 465 122 118 466 95 118 467 116 119 468 109 119 469 108 119 470 109 120 471 111 120 472 102 120 473 108 121 474 100 121 475 98 121 476 107 122 477 98 122 478 96 122 479 106 123 480 96 123 481 94 123 482 105 124 483 94 124 484 92 124 485 104 125 486 92 125 487 90 125 488 103 126 489 90 126 490 88 126 491 102 127 492 88 127 493 86 127 494 87 5 495 110 5 496 111 5 497 91 128 498 110 128 499 89 128 500 93 129 501 112 129 502 91 129 503 93 130 504 114 130 505 113 130 506 95 131 507 115 131 508 114 131 509 99 132 510 115 132 511 97 132 512 101 133 513 116 133 514 99 133 515 87 134 516 117 134 517 101 134 518 124 135 519 122 135 520 120 135 521 89 136 522 120 136 523 91 136 524 99 137 525 125 137 526 101 137 527 95 138 528 123 138 529 97 138 530 91 139 531 121 139 532 93 139 533 87 140 534 118 140 535 89 140 536 101 141 537 119 141 538 87 141 539 97 142 540 124 142 541 99 142 542 109 143 543 86 143 544 100 143 545 111 144 546 110 144 547 103 144 548 110 145 549 112 145 550 104 145 551 104 146 552 112 146 553 113 146 554 113 147 555 114 147 556 106 147 557 114 148 558 115 148 559 107 148 560 115 149 561 116 149 562 108 149 563 93 150 564 121 150 565 122 150 566 116 151 567 117 151 568 109 151 569 109 152 570 117 152 571 111 152 572 108 153 573 109 153 574 100 153 575 107 154 576 108 154 577 98 154 578 106 155 579 107 155 580 96 155 581 105 156 582 106 156 583 94 156 584 104 157 585 105 157 586 92 157 587 103 158 588 104 158 589 90 158 590 102 159 591 103 159 592 88 159 593 87 160 594 89 160 595 110 160 596 91 5 597 112 5 598 110 5 599 93 161 600 113 161 601 112 161 602 93 162 603 95 162 604 114 162 605 95 163 606 97 163 607 115 163 608 99 5 609 116 5 610 115 5 611 101 5 612 117 5 613 116 5 614 87 5 615 111 5 616 117 5 617 120 164 618 118 164 619 119 164 620 119 5 621 125 5 622 124 5 623 124 165 624 123 165 625 122 165 626 122 166 627 121 166 628 120 166 629 120 5 630 119 5 631 124 5 632 89 167 633 118 167 634 120 167 635 99 168 636 124 168 637 125 168 638 95 169 639 122 169 640 123 169 641 91 170 642 120 170 643 121 170 644 87 140 645 119 140 646 118 140 647 101 171 648 125 171 649 119 171 650 97 172 651 123 172 652 124 172 653 109 173 654 102 173 655 86 173 656 132 174 657 133 174 658 134 174 659 134 175 660 128 175 661 130 175 662 131 176 663 130 176 664 126 176 665 131 177 666 132 177 667 134 177 668 141 178 669 142 178 670 143 178 671 143 179 672 137 179 673 139 179 674 135 180 675 143 180 676 139 180 677 136 181 678 143 181 679 140 181 680 150 182 681 151 182 682 152 182 683 152 183 684 146 183 685 148 183 686 144 184 687 152 184 688 148 184 689 149 185 690 150 185 691 152 185 692 159 186 693 160 186 694 161 186 695 161 187 696 155 187 697 157 187 698 153 188 699 161 188 700 157 188 701 154 189 702 161 189 703 158 189 704 168 190 705 169 190 706 170 190 707 170 191 708 164 191 709 166 191 710 167 192 711 166 192 712 162 192 713 167 193 714 168 193 715 170 193 716 179 194 717 174 194 718 178 194 719 179 195 720 173 195 721 175 195 722 176 196 723 175 196 724 171 196 725 176 197 726 177 197 727 179 197 728 188 198 729 183 198 730 187 198 731 188 199 732 182 199 733 184 199 734 180 200 735 188 200 736 184 200 737 185 201 738 186 201 739 188 201 740 197 202 741 192 202 742 196 202 743 197 203 744 191 203 745 193 203 746 189 204 747 197 204 748 193 204 749 194 205 750 195 205 751 197 205 752 132 206 753 129 206 754 133 206 755 134 207 756 133 207 757 128 207 758 131 208 759 134 208 760 130 208 761 131 209 762 127 209 763 132 209 764 141 210 765 138 210 766 142 210 767 143 211 768 142 211 769 137 211 770 135 212 771 140 212 772 143 212 773 136 213 774 141 213 775 143 213 776 150 214 777 147 214 778 151 214 779 152 215 780 151 215 781 146 215 782 144 216 783 149 216 784 152 216 785 149 217 786 145 217 787 150 217 788 159 218 789 156 218 790 160 218 791 161 219 792 160 219 793 155 219 794 153 220 795 158 220 796 161 220 797 154 221 798 159 221 799 161 221 800 168 222 801 165 222 802 169 222 803 170 223 804 169 223 805 164 223 806 167 224 807 170 224 808 166 224 809 167 225 810 163 225 811 168 225 812 179 226 813 177 226 814 174 226 815 179 227 816 178 227 817 173 227 818 176 228 819 179 228 820 175 228 821 176 229 822 172 229 823 177 229 824 188 230 825 186 230 826 183 230 827 188 231 828 187 231 829 182 231 830 180 232 831 185 232 832 188 232 833 185 233 834 181 233 835 186 233 836 197 234 837 195 234 838 192 234 839 197 235 840 196 235 841 191 235 842 189 236 843 194 236 844 197 236 845 194 237 846 190 237 847 195 237 848</p>
        </triangles>
      </mesh>
    </geometry>
  </library_geometries>
  <library_visual_scenes>
    <visual_scene id="Scene" name="Scene">
      <node id="Cube_001" name="Cube.001" type="NODE">
        <matrix sid="transform">1 0 0 0 0 1 0 0 0 0 1 0 0 0 0 1</matrix>
        <instance_geometry url="#mesh0_010-mesh" name="Cube.001">
          <bind_material>
            <technique_common>
              <instance_material symbol="Material_003-material" target="#Material_003-material">
                <bind_vertex_input semantic="mesh0_010-mesh-map-0" input_semantic="TEXCOORD" input_set="0"/>
              </instance_material>
            </technique_common>
          </bind_material>
        </instance_geometry>
      </node>
    </visual_scene>
  </library_visual_scenes>
  <scene>
    <instance_visual_scene url="#Scene"/>
  </scene>
</COLLADA>