<?xml version="1.0" encoding="utf-8"?>
<COLLADA xmlns="http://www.collada.org/2005/11/COLLADASchema" version="1.4.1" xmlns:xsi="http://www.w3.org/2001/XMLSchema-instance">
  <asset>
    <contributor>
      <author>Blender User</author>
      <authoring_tool>Blender 2.92.0 commit date:2021-02-24, commit time:16:25, hash:02948a2cab44</authoring_tool>
    </contributor>
    <created>2021-05-14T11:19:53</created>
    <modified>2021-05-14T11:19:53</modified>
    <unit name="meter" meter="1"/>
    <up_axis>Z_UP</up_axis>
  </asset>
  <library_effects>
    <effect id="material0_035-effect">
      <profile_COMMON>
        <technique sid="common">
          <lambert>
            <emission>
              <color sid="emission">0 0 0 1</color>
            </emission>
            <diffuse>
              <color sid="diffuse">0.8 0.8 0.8 1</color>
            </diffuse>
            <index_of_refraction>
              <float sid="ior">1.45</float>
            </index_of_refraction>
          </lambert>
        </technique>
      </profile_COMMON>
    </effect>
  </library_effects>
  <library_images/>
  <library_materials>
    <material id="material0_035-material" name="material0.035">
      <instance_effect url="#material0_035-effect"/>
    </material>
  </library_materials>
  <library_geometries>
    <geometry id="mesh0_038-mesh" name="mesh0.038">
      <mesh>
        <source id="mesh0_038-mesh-positions">
          <float_array id="mesh0_038-mesh-positions-array" count="108">0.04892116 0.001182258 0.01032924 0.04892116 2.401182 0.01032912 0.02728861 0.001182258 0.04189664 0.02728861 2.401182 0.04189634 -0.01032924 0.001182258 0.04892116 -0.01032924 2.401182 0.04892104 -0.04189664 0.001182258 0.02728861 -0.04189664 2.401182 0.02728837 -0.04892116 0.001182138 -0.01032924 -0.04892116 2.401182 -0.01032948 -0.02728861 0.001182138 -0.04189664 -0.02728861 2.401182 -0.04189676 0.01032924 0.001182138 -0.04892116 0.01032924 2.401182 -0.0489214 0.04189664 0.001182138 -0.02728861 0.04189664 2.401182 -0.02728873 0.09471583 1.891102 -0.2764467 0.1063978 2.134623 -0.3317742 0.1436371 1.891102 -0.2661173 0.1553192 2.134623 -0.3214448 -0.02147215 2.021698 0.2738339 -0.009790182 2.265219 0.2185063 0.02744913 2.021698 0.2841633 0.0391311 2.265219 0.2288358 1.56665e-4 2.179544 0.4134238 -0.0487647 2.179544 0.4030943 0.1287835 1.814161 0.3243923 0.1291321 1.564164 0.3255531 0.1766705 1.814161 0.3100107 0.1770192 1.564164 0.3111717 -0.03728514 1.811362 -0.2285786 -0.03693664 1.561365 -0.2274178 0.01060152 1.811362 -0.2429602 0.01095014 1.561365 -0.2417994 -0.03650832 1.686693 -0.3998259 -0.0843954 1.686693 -0.3854445</float_array>
          <technique_common>
            <accessor source="#mesh0_038-mesh-positions-array" count="36" stride="3">
              <param name="X" type="float"/>
              <param name="Y" type="float"/>
              <param name="Z" type="float"/>
            </accessor>
          </technique_common>
        </source>
        <source id="mesh0_038-mesh-normals">
          <float_array id="mesh0_038-mesh-normals-array" count="180">0.8248943 0 0.5652871 0.183562 0 0.9830082 -0.5652871 0 0.8248943 -0.9830082 0 0.183562 -0.8248944 0 -0.5652871 -0.183562 0 -0.9830082 0 1 -2.98025e-6 0.5652871 0 -0.8248943 0.9830082 0 -0.183562 -3.47603e-7 -1 1.64873e-6 0.2012339 -0.2261894 -0.9530705 -0.978428 0 -0.2065887 -0.04672795 -0.9740835 0.2213095 0.04672831 0.9740838 -0.2213081 -0.08542269 0.9105091 0.4045691 0.978428 -3.74221e-7 0.2065886 -0.1584227 -0.6418223 0.7503109 0.2876278 0.004848062 0.9577301 -0.9577416 0 0.2876301 -0.001394331 0.9999883 -0.00464189 0.001394391 -0.9999883 0.004641354 -0.1739794 -0.7963293 -0.5793022 0.9577413 2.30864e-7 -0.2876308 -0.1742077 0.7957153 -0.5800766 0.8248932 0 0.5652887 0.1835651 0 0.9830076 -0.5652891 0 0.8248929 -0.9830082 0 0.183562 -0.8248933 0 -0.5652886 -0.183565 0 -0.9830076 0 1 -7.19494e-6 0 1 1.43898e-5 0 1 7.19494e-6 0 1 0 0 1 4.21469e-6 0.5652892 0 -0.8248928 0.9830082 0 -0.183562 3.62694e-6 -1 2.48383e-6 0 -1 0 3.62694e-6 -1 2.48734e-6 0 -1 0 -3.47603e-7 -1 1.64437e-6 0.2012345 -0.226189 -0.9530705 -0.978428 -3.65414e-7 -0.2065887 -0.978428 -3.35509e-7 -0.2065884 -0.04672789 -0.9740836 0.2213093 0.04672777 0.9740834 -0.2213101 -0.08542233 0.9105098 0.4045677 0.978428 1.74207e-7 0.2065886 0.978428 2.03952e-7 0.2065882 -0.1584245 -0.6418221 0.7503107 0.2876245 0.004848599 0.9577311 -0.9577414 4.96425e-7 0.2876306 -0.9577417 4.64551e-7 0.2876296 -0.001394331 0.9999883 -0.004641413 0.001394331 -0.9999883 0.00464344 -0.1739761 -0.7963284 -0.5793042 0.9577417 0 -0.28763 0.9577419 0 -0.2876293 -0.1742112 0.7957155 -0.5800753</float_array>
          <technique_common>
            <accessor source="#mesh0_038-mesh-normals-array" count="60" stride="3">
              <param name="X" type="float"/>
              <param name="Y" type="float"/>
              <param name="Z" type="float"/>
            </accessor>
          </technique_common>
        </source>
        <source id="mesh0_038-mesh-map-0">
          <float_array id="mesh0_038-mesh-map-0-array" count="360">0.3021153 0.6144111 0.0358408 0.7163098 0.0358408 0.614411 0.3021153 0.7163098 0.0358408 0.8182087 0.0358408 0.7163098 0.3021153 0.8182087 0.0358408 0.9201073 0.0358408 0.8182087 0.3021153 0.1049172 0.0358408 0.2068158 0.0358408 0.1049172 0.3021153 0.206816 0.03584086 0.3087147 0.0358408 0.2068158 0.3021153 0.3087148 0.0358408 0.4106135 0.03584086 0.3087147 0.925346 0.3298717 0.8432345 0.2958601 0.8772462 0.2137485 0.3021153 0.4106135 0.0358408 0.5125123 0.0358408 0.4106135 0.3021153 0.5125123 0.0358408 0.614411 0.0358408 0.5125123 0.9614318 0.1224483 0.8793204 0.1564599 0.8453087 0.07434844 0.8221492 0.4283062 0.7247942 0.4753871 0.7243954 0.4280671 0.6026138 0.3450372 0.4823336 0.4006345 0.3500145 0.1130893 0.7247952 0.8461297 0.6566337 0.4758396 0.724676 0.4753757 0.8225471 0.4753475 0.8904022 0.8456362 0.8225483 0.8456362 0.8903988 0.8465771 0.7732417 0.9698589 0.8225483 0.8456362 0.7247952 0.8461297 0.724676 0.4753757 0.8225471 0.4753475 0.7247952 0.8461297 0.6678751 0.9711783 0.6566796 0.8474491 0.5115341 0.4147266 0.4156268 0.4614416 0.4143807 0.4148998 0.8223185 0.3519987 0.7051878 0.4056946 0.5779467 0.1317144 0.4156332 0.8544247 0.3477519 0.4614418 0.4156268 0.4614416 0.5115391 0.4606182 0.5789791 0.8536012 0.5115455 0.8536012 0.5789194 0.8546846 0.4631569 0.9658976 0.5115455 0.8536012 0.4156332 0.8544247 0.4156268 0.4614416 0.5115391 0.4606182 0.3478117 0.8554965 0.4631569 0.9658976 0.3586199 0.9669694 0.3021153 0.6144111 0.3021153 0.7163098 0.0358408 0.7163098 0.3021153 0.7163098 0.3021153 0.8182087 0.0358408 0.8182087 0.3021153 0.8182087 0.3021152 0.9201074 0.0358408 0.9201073 0.3021153 0.1049172 0.3021153 0.206816 0.0358408 0.2068158 0.3021153 0.206816 0.3021153 0.3087148 0.03584086 0.3087147 0.3021153 0.3087148 0.3021153 0.4106135 0.0358408 0.4106135 0.925346 0.3298717 0.8772462 0.3298717 0.8432345 0.2958601 0.8432345 0.2958601 0.8432345 0.2477602 0.8772462 0.2137485 0.8772462 0.2137485 0.925346 0.2137485 0.9593576 0.2477602 0.9593576 0.2477602 0.9593576 0.2958601 0.8772462 0.2137485 0.9593576 0.2958601 0.925346 0.3298717 0.8772462 0.2137485 0.3021153 0.4106135 0.3021153 0.5125123 0.0358408 0.5125123 0.3021153 0.5125123 0.3021153 0.6144111 0.0358408 0.614411 0.9274202 0.0403366 0.9614318 0.07434844 0.9614318 0.1224483 0.9614318 0.1224483 0.9274202 0.1564599 0.8793204 0.1564599 0.8793204 0.1564599 0.8453087 0.1224483 0.8453087 0.07434844 0.8453087 0.07434844 0.8793204 0.0403366 0.9274202 0.0403366 0.9274202 0.0403366 0.9614318 0.1224483 0.8453087 0.07434844 0.8221492 0.4283062 0.8225471 0.4753475 0.7247942 0.4753871 0.3785371 0.0180726 0.4702418 0.0575037 0.3500145 0.1130893 0.4702418 0.0575037 0.6026138 0.3450372 0.3500145 0.1130893 0.7247952 0.8461297 0.6566337 0.8461297 0.6566337 0.4758396 0.8225471 0.4753475 0.8904022 0.4753475 0.8904022 0.8456362 0.8903988 0.8465771 0.8790046 0.9708002 0.7732417 0.9698589 0.8225471 0.4753475 0.8225483 0.8456362 0.7247952 0.8461297 0.8225483 0.8456362 0.7732417 0.9698589 0.7247952 0.8461297 0.7247952 0.8461297 0.7732417 0.9698589 0.6678751 0.9711783 0.5115341 0.4147266 0.5115391 0.4606182 0.4156268 0.4614416 0.599757 0.02710175 0.6950845 0.07801514 0.5779467 0.1317144 0.6950845 0.07801514 0.8223185 0.3519987 0.5779467 0.1317144 0.4156332 0.8544247 0.3477519 0.8544247 0.3477519 0.4614418 0.5115391 0.4606182 0.5789791 0.4606182 0.5789791 0.8536012 0.5789194 0.8546846 0.5679146 0.966981 0.4631569 0.9658976 0.5115391 0.4606182 0.5115455 0.8536012 0.4156332 0.8544247 0.5115455 0.8536012 0.4631569 0.9658976 0.4156332 0.8544247 0.3478117 0.8554965 0.4156332 0.8544247 0.4631569 0.9658976</float_array>
          <technique_common>
            <accessor source="#mesh0_038-mesh-map-0-array" count="180" stride="2">
              <param name="S" type="float"/>
              <param name="T" type="float"/>
            </accessor>
          </technique_common>
        </source>
        <vertices id="mesh0_038-mesh-vertices">
          <input semantic="POSITION" source="#mesh0_038-mesh-positions"/>
        </vertices>
        <triangles material="material0_035-material" count="60">
          <input semantic="VERTEX" source="#mesh0_038-mesh-vertices" offset="0"/>
          <input semantic="NORMAL" source="#mesh0_038-mesh-normals" offset="1"/>
          <input semantic="TEXCOORD" source="#mesh0_038-mesh-map-0" offset="2" set="0"/>
          <p>1 0 0 2 0 1 0 0 2 3 1 3 4 1 4 2 1 5 5 2 6 6 2 7 4 2 8 7 3 9 8 3 10 6 3 11 9 4 12 10 4 13 8 4 14 11 5 15 12 5 16 10 5 17 5 6 18 1 6 19 13 6 20 13 7 21 14 7 22 12 7 23 15 8 24 0 8 25 14 8 26 2 9 27 6 9 28 10 9 29 17 10 30 18 10 31 16 10 32 17 11 33 16 11 34 20 11 35 22 12 36 16 12 37 18 12 38 19 13 39 21 13 40 23 13 41 21 14 42 24 14 43 23 14 44 22 15 45 18 15 46 19 15 47 22 16 48 25 16 49 20 16 50 27 17 51 28 17 52 26 17 53 27 18 54 26 18 55 30 18 56 32 19 57 26 19 58 28 19 59 29 20 60 31 20 61 33 20 62 31 21 63 34 21 64 33 21 65 32 22 66 28 22 67 29 22 68 30 23 69 34 23 70 35 23 71 1 24 72 3 24 73 2 24 74 3 25 75 5 25 76 4 25 77 5 26 78 7 26 79 6 26 80 7 27 81 9 27 82 8 27 83 9 28 84 11 28 85 10 28 86 11 29 87 13 29 88 12 29 89 5 30 90 3 30 91 1 30 92 1 31 93 15 31 94 13 31 95 13 32 96 11 32 97 9 32 98 9 33 99 7 33 100 13 33 101 7 34 102 5 34 103 13 34 104 13 35 105 15 35 106 14 35 107 15 36 108 1 36 109 0 36 110 14 37 111 0 37 112 2 37 113 2 38 114 4 38 115 6 38 116 6 39 117 8 39 118 10 39 119 10 40 120 12 40 121 14 40 122 14 41 123 2 41 124 10 41 125 17 42 126 19 42 127 18 42 128 25 43 129 21 43 130 20 43 131 21 44 132 17 44 133 20 44 134 22 45 135 20 45 136 16 45 137 19 46 138 17 46 139 21 46 140 21 47 141 25 47 142 24 47 143 19 48 144 23 48 145 22 48 146 23 49 147 24 49 148 22 49 149 22 50 150 24 50 151 25 50 152 27 51 153 29 51 154 28 51 155 35 52 156 31 52 157 30 52 158 31 53 159 27 53 160 30 53 161 32 54 162 30 54 163 26 54 164 29 55 165 27 55 166 31 55 167 31 56 168 35 56 169 34 56 170 29 57 171 33 57 172 32 57 173 33 58 174 34 58 175 32 58 176 30 59 177 32 59 178 34 59 179</p>
        </triangles>
      </mesh>
    </geometry>
  </library_geometries>
  <library_visual_scenes>
    <visual_scene id="Scene" name="Scene">
      <node id="pyo" name="pyo" type="NODE">
        <matrix sid="transform">0 1 0 0 -1 0 0 0 0 0 1 0 0 0 0 1</matrix>
        <instance_geometry url="#mesh0_038-mesh" name="pyo">
          <bind_material>
            <technique_common>
              <instance_material symbol="material0_035-material" target="#material0_035-material">
                <bind_vertex_input semantic="mesh0_038-mesh-map-0" input_semantic="TEXCOORD" input_set="0"/>
              </instance_material>
            </technique_common>
          </bind_material>
        </instance_geometry>
      </node>
    </visual_scene>
  </library_visual_scenes>
  <scene>
    <instance_visual_scene url="#Scene"/>
  </scene>
</COLLADA>