<?xml version="1.0" encoding="utf-8"?>
<COLLADA xmlns="http://www.collada.org/2005/11/COLLADASchema" version="1.4.1" xmlns:xsi="http://www.w3.org/2001/XMLSchema-instance">
  <asset>
    <contributor>
      <author>Blender User</author>
      <authoring_tool>Blender 2.93.1 commit date:2021-06-22, commit time:05:57, hash:1b8d33b18c2f</authoring_tool>
    </contributor>
    <created>2021-07-24T17:06:34</created>
    <modified>2021-07-24T17:06:34</modified>
    <unit name="meter" meter="1"/>
    <up_axis>Z_UP</up_axis>
  </asset>
  <library_effects>
    <effect id="material0_002-effect">
      <profile_COMMON>
        <technique sid="common">
          <lambert>
            <emission>
              <color sid="emission">0 0 0 1</color>
            </emission>
            <diffuse>
              <color sid="diffuse">0.8 0.8 0.8 1</color>
            </diffuse>
            <index_of_refraction>
              <float sid="ior">1.45</float>
            </index_of_refraction>
          </lambert>
        </technique>
      </profile_COMMON>
    </effect>
  </library_effects>
  <library_images/>
  <library_materials>
    <material id="material0_002-material" name="material0.002">
      <instance_effect url="#material0_002-effect"/>
    </material>
  </library_materials>
  <library_geometries>
    <geometry id="mesh0_001-mesh" name="mesh0.001">
      <mesh>
        <source id="mesh0_001-mesh-positions">
          <float_array id="mesh0_001-mesh-positions-array" count="534">-0.2003528 0.03031301 -0.05416184 -0.04882884 5.121829 -0.01319944 -0.1302531 0.03031301 -0.1615823 -0.03174448 5.121829 -0.03937929 -0.01040124 0.03031301 -0.2072837 -0.002535045 5.121829 -0.05051738 0.1134234 0.03031301 -0.1738097 0.0276426 5.121829 -0.04235947 0.1939242 0.03031301 -0.07394635 0.04726201 5.121829 -0.01802134 0.2003526 0.03031301 0.05416178 0.04882872 5.121829 0.01320046 0.130253 0.03031301 0.1615823 0.03174442 5.121829 0.03938037 0.01040107 0.03031301 0.2072836 0.002534747 5.121829 0.05051845 -0.1134236 0.03031301 0.1738097 -0.02764296 5.121829 0.0423603 -0.1939244 0.03031301 0.07394623 -0.04726225 5.121829 0.01802206 -0.07722783 4.848328 -0.02087724 -0.05020713 4.848328 -0.06228321 -0.004009187 4.848328 -0.07989943 0.04371994 4.848328 -0.06699657 0.07474994 4.848328 -0.02850317 0.07722783 4.848328 0.02087724 0.05020713 4.848328 0.06228321 0.004009187 4.848328 0.07989943 -0.04371994 4.848328 0.06699657 -0.07474994 4.848328 0.02850317 -0.1119748 4.964559 -0.03027105 -0.0964418 0.977854 -0.1196385 -0.007701218 0.977854 -0.1534765 0.08398079 0.977854 -0.1286919 0.1435852 0.977854 -0.05475103 0.1483448 0.977854 0.04010254 0.0964418 0.977854 0.1196386 0.007701218 0.977854 0.1534768 -0.08398079 0.977854 0.128692 -0.1435852 0.977854 0.05475115 -0.1483448 0.977854 -0.04010242 -0.07279694 4.964559 -0.09030717 -0.005812883 4.964559 -0.1158492 0.06339126 4.964559 -0.09714096 0.1083824 4.964559 -0.04132837 0.1119751 4.964559 0.03027004 0.07279723 4.964559 0.09030616 0.0058133 4.964559 0.1158481 -0.06339102 4.964559 0.09713989 -0.1083822 4.964559 0.04132717 -0.09969145 0.07179427 -0.1236698 -0.007960796 0.07179427 -0.158648 0.08681046 0.07179427 -0.1330282 0.1484231 0.07179427 -0.0565961 0.1533432 0.07179427 0.04145359 0.09969133 0.07179427 0.1236697 0.007960736 0.07179427 0.158648 -0.08681058 0.07179427 0.1330282 -0.1484233 0.07179427 0.05659598 -0.1533433 0.07179427 -0.04145359 -0.08774 1.101201 -0.02371895 -0.05704128 1.101201 -0.07076132 -0.004554927 1.101201 -0.09077525 0.04967123 1.101201 -0.07611602 0.08492481 1.101201 -0.03238308 0.08773994 1.101201 0.02371907 0.05704128 1.101201 0.07076138 0.004554927 1.101201 0.09077525 -0.04967123 1.101201 0.07611608 -0.08492481 1.101201 0.03238314 -0.09460133 5.085375 -0.02557396 -0.06150192 5.085375 -0.07629531 -0.004911065 5.085375 -0.09787434 0.05355554 5.085375 -0.0820688 0.0915662 5.085375 -0.0349158 0.09460151 5.085375 0.02557361 0.06150209 5.085375 0.07629477 0.004911184 5.085375 0.0978738 -0.05355542 5.085375 0.08206826 -0.09156608 5.085375 0.03491514 -0.01129716 5.214063 -0.01401227 -0.01737689 5.214063 -0.004695713 -9.02545e-4 5.214063 -0.01797616 0.009836733 5.214063 -0.01507294 0.01681864 5.214063 -0.006411731 0.01737618 5.214063 0.004698932 0.01129645 5.214063 0.01401561 9.0167e-4 5.214063 0.01797938 -0.009837687 5.214063 0.01507616 -0.01681935 5.214063 0.006415009 0.7222627 4.154123 0.1121106 0.8878518 4.664051 0.2665053 0.4220452 4.336089 0.03907907 0.3773031 4.482086 0.07112371 0.7138593 4.154123 -0.1280956 0.8682538 4.664051 -0.2936847 0.4197202 4.336089 -0.02737838 0.3726944 4.482086 -0.06061089 0.9040288 4.767819 0.2815887 0.3125784 4.767819 0.3022803 0.2918868 4.767819 -0.28917 0.8833371 4.767819 -0.3098617 0.6770239 4.820758 0.06993025 0.5242368 4.820758 0.07527542 0.5188915 4.820758 -0.07751166 0.6716788 4.820758 -0.08285683 0.8555464 4.820758 0.2363837 0.3577831 4.820758 0.2537978 0.3403691 4.820758 -0.2439653 0.8381324 4.820758 -0.2613793 0.6162774 5.029372 0.01329028 0.5808767 5.029372 0.01452881 0.5796382 5.029372 -0.02087169 0.6150389 5.029372 -0.02211028 0.6466327 5.029372 0.04159349 0.5525736 5.029372 0.04488402 0.5492829 5.029372 -0.04917496 0.643342 5.029372 -0.05246543 0.6095974 5.140607 0.007061839 0.587105 5.140607 0.007848858 0.5863181 5.140607 -0.01464343 0.6088105 5.140607 -0.01543027 0.4620419 4.077417 0.1419798 0.7437282 4.077417 0.132125 0.4521872 4.077417 -0.1397066 0.7338736 4.077417 -0.1495612 0.9730741 4.709963 0.2449141 0.872269 4.709963 0.3530282 0.966521 4.709963 0.2851673 0.9450626 4.709963 0.3198485 0.9119658 4.709963 0.3436782 0.3492529 4.709963 0.3713257 0.2411388 4.709963 0.2705206 0.3089997 4.709963 0.3647726 0.2743185 4.709963 0.3433142 0.2504889 4.709963 0.3102173 0.2228413 4.709963 -0.2524955 0.3236464 4.709963 -0.3606095 0.2293944 4.709963 -0.2927487 0.2508528 4.709963 -0.32743 0.2839497 4.709963 -0.3512595 0.8466626 4.709963 -0.378907 0.9547766 4.709963 -0.278102 0.8869158 4.709963 -0.372354 0.921597 4.709963 -0.3508957 0.9454267 4.709963 -0.3177987 0.872269 4.767819 0.3530282 0.9730741 4.767819 0.2449141 0.9119658 4.767819 0.3436782 0.9450626 4.767819 0.3198485 0.966521 4.767819 0.2851673 0.2411388 4.767819 0.2705206 0.3492529 4.767819 0.3713257 0.2504889 4.767819 0.3102173 0.2743185 4.767819 0.3433142 0.3089997 4.767819 0.3647726 0.3236464 4.767819 -0.3606095 0.2228413 4.767819 -0.2524955 0.2839497 4.767819 -0.3512595 0.2508528 4.767819 -0.32743 0.2293944 4.767819 -0.2927487 0.9547766 4.767819 -0.278102 0.8466626 4.767819 -0.378907 0.9454267 4.767819 -0.3177987 0.921597 4.767819 -0.3508957 0.8869158 4.767819 -0.372354 0.3276617 4.664051 0.2861033 0.4820562 4.154123 0.1205143 0.4736527 4.154123 -0.1196922 0.3080638 4.664051 -0.2740867 0.4520452 4.336089 0.03907907 0.4073031 4.482086 0.07112371 0.4497203 4.336089 -0.02737838 0.4026945 4.482086 -0.06061089 0.06816291 4.370791 0.04000669 0.07158333 4.275631 0.03078418 0.06994026 4.271498 -0.009745597 0.064906 4.362597 -0.04033303</float_array>
          <technique_common>
            <accessor source="#mesh0_001-mesh-positions-array" count="178" stride="3">
              <param name="X" type="float"/>
              <param name="Y" type="float"/>
              <param name="Z" type="float"/>
            </accessor>
          </technique_common>
        </source>
        <source id="mesh0_001-mesh-normals">
          <float_array id="mesh0_001-mesh-normals-array" count="936">-0.6663399 0.7448982 0.03343605 -0.2377105 0.7448976 -0.6233951 0.1741107 0.7448986 -0.6440587 0.5194271 0.7448981 -0.4187151 0.66634 0.7448981 -0.03343653 0.23771 0.7448982 0.6233944 -0.3377412 0.3184709 -0.8857242 -0.1741103 0.7448982 0.6440592 -0.5194267 0.7448987 0.4187146 -0.6278755 0.7776762 0.03149962 -0.4894448 0.7776721 0.3945506 -0.1640613 0.77767 0.6068882 0.2239899 0.7776728 0.5874126 0.5264812 0.7776755 0.3435673 0.6278722 0.7776785 -0.03150731 0.4894368 0.77768 -0.3945446 0.1640571 0.7776764 -0.606881 -0.2239854 0.7776793 -0.5874056 -0.5264763 0.7776768 -0.3435717 -0.8374539 0.002763807 -0.5465011 -0.356291 0.002763867 -0.9343711 0.2609662 0.002763807 -0.9653441 0.7785398 0.002763807 -0.6275892 0.9987397 0.002763807 -0.05011534 0.8374541 0.002763807 0.5465008 0.3562902 0.002763867 0.9343713 -0.2609651 0.002763807 0.9653444 -0.7785398 0.002763867 0.6275891 -0.9987396 0.002763807 0.05011641 -0.988869 0.1402722 0.04961735 -0.7708473 0.1402717 0.6213842 -0.2583891 0.1402714 0.9558029 0.3527639 0.1402698 0.9251389 0.8291773 0.1402715 0.5410999 0.9888688 0.1402729 -0.04961961 0.7708445 0.1402747 -0.621387 0.2583875 0.1402754 -0.9558027 -0.3527712 0.1402754 -0.9251354 -0.8291785 0.1402738 -0.5410972 -0.8989604 0.435701 0.04510825 -0.7007606 0.4357013 0.5648887 -0.234894 0.4357015 0.8689011 0.3206948 0.4357009 0.8410231 0.7537875 0.4357 0.4919044 0.8989604 0.435701 -0.04510915 0.7007597 0.4357009 -0.5648899 0.2348945 0.4356994 -0.868902 -0.3206943 0.4357013 -0.841023 -0.7537897 0.4357005 -0.4919006 -0.9580548 -0.2825241 0.04807412 -0.7468245 -0.282522 0.6020254 -0.2503365 -0.2825213 0.9260203 0.3417794 -0.2825215 0.8963083 0.8033385 -0.2825253 0.5242394 0.9580542 -0.2825255 -0.04808002 0.746823 -0.2825284 -0.6020243 0.2503349 -0.2825287 -0.9260184 -0.3417802 -0.282531 -0.896305 -0.8033385 -0.2825253 -0.5242394 -0.8374462 0.005435049 -0.5464928 -0.3562854 0.005435049 -0.9343613 0.2609618 0.005434989 -0.9653338 0.7785317 0.00543493 -0.6275818 0.9987286 0.005434691 -0.05011576 0.8374458 0.005434751 0.5464934 0.3562862 0.005434751 0.9343611 -0.2609617 0.005434691 0.9653339 -0.7785317 0.00543487 0.6275817 -0.9987288 0.00543493 0.05011492 0.5587337 0.7448983 0.3646138 -0.5587326 0.744899 -0.364614 0 1 8.74774e-6 -0.9467453 0.3184608 0.04750061 -0.7380152 0.3184565 0.594911 -0.2473834 0.3184534 0.9150897 0.3377457 0.3184514 0.8857295 0.7938547 0.318459 0.5180529 0.9467423 0.3184674 -0.04751402 0.7379996 0.3184707 -0.5949228 -0.7938544 0.3184672 -0.5180483 0.2473784 0.3184785 -0.9150822 0.03335851 -0.2995308 0.9535033 -0.03335726 -0.2995305 -0.9535034 0.9535031 -0.2995318 -0.03335714 -0.03374975 0.2611603 -0.9647054 0 1 0 -0.03496372 0 -0.9993886 0.9993887 0 -0.03496271 -0.9993887 0 0.03496271 0.7482454 0.6629055 -0.02617752 0 1 2.14943e-6 0.9896215 0.1394665 -0.03462052 -0.7482476 0.662903 0.02617686 -0.02617704 0.6629002 -0.7482501 0.02617698 0.6629064 0.7482445 0 1 -2.86687e-5 -0.03490579 0.05796128 -0.9977085 -0.9896212 0.1394672 0.03462237 -0.03462052 0.1394671 -0.9896214 0.03462135 0.1394672 0.9896213 0 1 -2.15798e-5 0.03490787 0.0579608 0.9977084 0.9977085 0.05796158 -0.03490436 -0.9977084 0.05796062 0.03490626 0 -1 0 0.9647065 0.2611559 -0.03374958 -0.9647058 0.2611582 0.03375029 0.03375047 0.2611593 0.9647055 0.01647698 -0.8819907 0.4709787 -0.1134272 -0.8690381 -0.4815673 -0.4815672 -0.8690384 0.1134257 0.4815678 -0.869038 -0.1134259 0 1 8.10223e-7 -0.9870068 0 -0.1606789 -0.8503872 0 -0.5261576 -0.5843061 0 -0.8115335 -0.2292642 0 -0.9733642 0.9733644 0 -0.2292635 0.8115345 0 -0.5843045 0.5261573 0 -0.8503873 0.1606783 0 -0.9870069 0.9870065 0 0.1606805 0.8503867 0 0.5261582 0.5843091 0 0.8115312 0.2292628 0 0.9733647 -0.9733638 0 0.2292662 -0.811534 0 0.5843052 -0.5261595 0 0.8503859 -0.1606778 0 0.9870069 0.0349633 0 0.9993886 -0.9535034 -0.2995306 0.03335517 -0.9535035 -0.2995307 0.03335666 -0.6663389 0.744899 0.03343653 -0.2377089 0.7448988 -0.6233942 0.1741106 0.744898 -0.6440594 0.519427 0.7448982 -0.4187151 0.6663396 0.7448984 -0.03343653 0.2377097 0.7448977 0.6233952 -0.3377543 0.318475 -0.8857178 -0.1741105 0.7448982 0.6440593 -0.5194272 0.7448983 0.4187147 -0.6278763 0.7776755 0.03150254 -0.4894455 0.7776721 0.3945497 -0.1640642 0.7776744 0.6068818 0.2239881 0.7776703 0.5874168 0.5264806 0.7776725 0.3435749 0.6278726 0.7776786 -0.03150004 0.4894387 0.7776824 -0.3945378 0.1640557 0.7776769 -0.606881 -0.2239865 0.7776821 -0.5874016 -0.5264821 0.7776852 -0.3435437 -0.8374529 0.002763807 -0.5465027 -0.3562926 0.002763807 -0.9343704 0.2609664 0.002763807 -0.965344 0.7785393 0.002763807 -0.6275898 0.9987397 0.002763807 -0.0501163 0.8374528 0.002763867 0.5465028 0.3562926 0.002763807 0.9343704 -0.2609664 0.002763807 0.965344 -0.7785394 0.002763807 0.6275899 -0.9987396 0.002763807 0.05011636 -0.9888691 0.1402716 0.04961889 -0.7708436 0.140271 0.621389 -0.2583835 0.1402694 0.9558047 0.3527716 0.1402718 0.9251357 0.8291786 0.1402733 0.5410975 0.9888687 0.1402729 -0.04962122 0.7708461 0.1402748 -0.621385 0.2583852 0.1402745 -0.9558035 -0.3527673 0.1402738 -0.925137 -0.8291769 0.140274 -0.5410997 -0.8989609 0.4357002 0.04510921 -0.7007592 0.4357003 0.5648911 -0.2348933 0.435701 0.8689016 0.3206955 0.4357015 0.8410224 0.7537892 0.4357014 0.4919006 0.8989605 0.4357008 -0.04510825 0.7007603 0.4357006 -0.5648894 0.2348926 0.4357008 -0.8689018 -0.3206954 0.4356992 -0.8410237 -0.7537878 0.4357011 -0.491903 -0.9580553 -0.282523 0.0480712 -0.7468263 -0.2825222 0.602023 -0.2503336 -0.2825202 0.9260213 0.3417752 -0.2825225 0.8963096 0.8033394 -0.2825228 0.5242392 0.9580544 -0.2825261 -0.0480715 0.7468245 -0.2825289 -0.6020222 0.2503343 -0.2825295 -0.9260183 -0.3417745 -0.2825273 -0.8963083 -0.8033392 -0.2825269 -0.5242373 -0.8374457 0.00543493 -0.5464935 -0.3562847 0.005435049 -0.9343617 0.2609608 0.00543493 -0.9653341 0.7785316 0.00543487 -0.627582 0.9987288 0.00543487 -0.05011451 0.8374457 0.005434811 0.5464936 0.3562868 0.005434811 0.9343609 -0.2609629 0.00543487 0.9653337 -0.7785314 0.00543493 0.6275821 -0.9987288 0.00543493 0.05011451 0.5587338 0.7448981 0.3646141 -0.5587349 0.7448973 -0.364614 0 1 -1.02422e-4 0 1 -5.76119e-5 -0.9467443 0.3184615 0.04751408 -0.7380098 0.3184502 0.5949211 -0.2473799 0.3184514 0.9150912 0.3377444 0.318458 0.8857275 0.7938546 0.3184603 0.5180519 0.9467425 0.3184675 -0.0475099 0.7380069 0.3184739 -0.5949119 -0.7938637 0.3184711 -0.5180314 0.2473782 0.3184703 -0.9150851 0.03335785 -0.2995313 0.9535032 -0.03335785 -0.2995316 -0.9535031 0.9535033 -0.2995311 -0.03335821 -0.03374922 0.2611595 -0.9647056 0 1 -1.62044e-6 -0.03496271 0 -0.9993887 0.9993886 0 -0.03496372 -0.9993886 0 0.03496372 0.7482476 0.662903 -0.02617609 0 1 4.98011e-6 0 1 2.43067e-6 0 1 2.9345e-6 0 1 1.32803e-5 0.9896212 0.1394672 -0.03462284 -0.7482471 0.6629036 0.02617651 -0.02617728 0.6629114 -0.7482401 0.02617698 0.6629041 0.7482466 0 1 1.38675e-6 0 1 -4.51786e-6 0 1 -5.2003e-7 0 1 1.07899e-5 0 1 2.15798e-5 -0.03490251 0.0579608 -0.9977086 -0.9896214 0.1394672 0.03462207 -0.03462135 0.1394671 -0.9896213 0.03462117 0.1394669 0.9896214 0 1 -5.3754e-6 0 1 2.86685e-5 0 1 9.19331e-6 0.03490424 0.05796188 0.9977085 0.9977083 0.05796307 -0.03490525 -0.9977087 0.05795985 0.03490281 0 -1 6.56486e-7 0.9647055 0.2611598 -0.03374922 -0.9647061 0.2611572 0.03375017 0.03375029 0.2611595 0.9647055 0.3000487 -0.8580815 0.4167338 0.1134271 -0.8690362 0.4815707 0.01647692 -0.8819909 0.4709784 -0.0794959 -0.8690392 0.4883148 -0.2701911 -0.8580806 0.436686 -0.01647686 -0.8819845 -0.4709903 0.07949477 -0.8690376 -0.4883179 0.2701909 -0.8580805 -0.4366864 -0.01647698 -0.8819913 -0.4709777 -0.3000472 -0.8580849 -0.4167279 -0.4709791 -0.8819905 0.01647692 -0.4883157 -0.8690382 -0.07950162 -0.4366852 -0.8580802 -0.2701936 -0.4709794 -0.8819903 0.01647722 -0.4167358 -0.8580796 0.3000513 0.4709801 -0.8819899 -0.01647812 0.4883161 -0.8690379 0.07950168 0.4366855 -0.8580796 0.2701947 0.4709797 -0.8819902 -0.01647722 0.4167352 -0.8580803 -0.3000501 0 1 2.3476e-5 0 1 -1.32802e-5 0 1 -7.16475e-7 0 1 -2.3476e-5 0 1 1.66004e-6 0 1 -7.292e-6 0 1 1.32803e-5 -0.987006 0 -0.1606836 -0.8503844 0 -0.5261621 -0.5842941 0 -0.8115422 -0.2292599 0 -0.9733653 0.9733659 0 -0.2292575 0.8115376 0 -0.5843003 0.5261629 0 -0.8503838 0.1606803 0 -0.9870065 0.987006 0 0.1606836 0.8503839 0 0.5261628 0.5843032 0 0.8115355 0.2292614 0 0.9733649 -0.9733644 0 0.2292635 -0.81154 0 0.5842969 -0.5261641 0 0.8503832 -0.1606834 0 0.9870061 0.03496259 0 0.9993887 -0.9535029 -0.2995325 0.03335756 -0.9535027 -0.2995327 0.03335863 -0.9535037 -0.2995288 0.03336292 -0.9535039 -0.2995291 0.03335756 -0.9535036 -0.2995306 0.0333566 -0.9535035 -0.2995302 0.03335976 0.1711376 -0.9808414 0.09306991 -0.9981974 -0.04019808 0.0445652 -0.3126953 0.9497906 0.01093769 -0.006335079 -0.09668672 0.9952948 0.01795411 -0.2164115 -0.9761371 0.1570527 -0.9875749 -0.005498409 -0.9981974 -0.04019844 0.04456597 -0.3367384 0.9380196 -0.08201563 -0.01748156 -0.2194623 0.9754644 0.01002722 -0.3177831 -0.9481105 -0.9535034 -0.2995309 0.03335905 -0.9535033 -0.2995312 0.03335767</float_array>
          <technique_common>
            <accessor source="#mesh0_001-mesh-normals-array" count="312" stride="3">
              <param name="X" type="float"/>
              <param name="Y" type="float"/>
              <param name="Z" type="float"/>
            </accessor>
          </technique_common>
        </source>
        <source id="mesh0_001-mesh-map-0">
          <float_array id="mesh0_001-mesh-map-0-array" count="2004">0.4662925 0.6333037 0.3889213 0.6730973 0.3942965 0.638486 0.4145775 0.2851055 0.3494808 0.2625166 0.4190449 0.2596383 0.3566555 0.2898857 0.2833166 0.2944777 0.3494808 0.2625166 0.3000067 0.3165244 0.2320047 0.3502467 0.2833166 0.2944777 0.2570399 0.3664264 0.2045289 0.4244718 0.2320047 0.3502467 0.2691291 0.5654883 0.2071371 0.5061144 0.2386469 0.4997673 0.4132706 0.4265832 0.4021641 0.4362214 0.4023296 0.4250181 0.3245264 0.6144874 0.2418035 0.5840626 0.2691291 0.5654883 0.3942965 0.638486 0.3060833 0.6428285 0.3245264 0.6144874 0.4198105 0.478284 0.4269015 0.4482125 0.4505831 0.468657 0.3993306 0.4767795 0.4145505 0.4591863 0.4198105 0.478284 0.384479 0.4692463 0.4022485 0.4617609 0.3993306 0.4767795 0.386655 0.4514461 0.384479 0.4692463 0.3756662 0.4573539 0.3846382 0.4429756 0.3756662 0.4573539 0.3724716 0.4433442 0.3868238 0.4347067 0.3724716 0.4433442 0.3756312 0.4294659 0.3930069 0.4281056 0.3756312 0.4294659 0.385227 0.417958 0.4023296 0.4250181 0.385227 0.417958 0.3996273 0.4107137 0.4178946 0.4094756 0.4023296 0.4250181 0.3996273 0.4107137 0.4436854 0.4173232 0.4132706 0.4265832 0.4178946 0.4094756 0.4435209 0.3911458 0.4096854 0.3347231 0.444656 0.3395981 0.4176905 0.3897745 0.3712959 0.3415845 0.4096854 0.3347231 0.3938445 0.3918623 0.3348608 0.3622249 0.3712959 0.3415845 0.3711801 0.4011229 0.3077967 0.3965137 0.3348608 0.3622249 0.3589231 0.421368 0.2955078 0.439399 0.3077967 0.3965137 0.3550772 0.4430521 0.3005342 0.4849852 0.2955078 0.439399 0.3601217 0.4640954 0.3230358 0.5265511 0.3005342 0.4849852 0.3736116 0.4807556 0.3593859 0.557834 0.3230358 0.5265511 0.391866 0.4963493 0.4046155 0.5741065 0.3593859 0.557834 0.4191724 0.5052813 0.4478185 0.5742748 0.4046155 0.5741065 0.4505831 0.468657 0.4203764 0.4857296 0.4198105 0.478284 0.4198105 0.478284 0.3976001 0.4821285 0.3993306 0.4767795 0.3993306 0.4767795 0.3815331 0.4726359 0.384479 0.4692463 0.3756662 0.4573539 0.3815331 0.4726359 0.3715587 0.4592439 0.3724716 0.4433442 0.3715587 0.4592439 0.3679683 0.4433465 0.3756312 0.4294659 0.3679683 0.4433465 0.3714435 0.427442 0.385227 0.417958 0.3714435 0.427442 0.3818904 0.4138509 0.385227 0.417958 0.3982306 0.4056371 0.3996273 0.4107137 0.3996273 0.4107137 0.4182319 0.4036953 0.4178946 0.4094756 0.4178946 0.4094756 0.4483816 0.409542 0.4436854 0.4173232 0.4046155 0.5741065 0.4643023 0.6182923 0.3962191 0.6222932 0.3593859 0.557834 0.3962191 0.6222932 0.3328882 0.5997124 0.3230358 0.5265511 0.3328882 0.5997124 0.28346 0.5546832 0.3230358 0.5265511 0.2544302 0.4959559 0.3005342 0.4849852 0.3005342 0.4849852 0.2504203 0.4326593 0.2955078 0.439399 0.2955078 0.439399 0.2700376 0.3741649 0.3077967 0.3965137 0.3077967 0.3965137 0.3088828 0.3283709 0.3348608 0.3622249 0.3348608 0.3622249 0.3602223 0.3030699 0.3712959 0.3415845 0.4096854 0.3347231 0.3602223 0.3030699 0.4132314 0.2975683 0.444656 0.3395981 0.4132314 0.2975683 0.461486 0.311567 0.4203764 0.4857296 0.4532737 0.507328 0.4191724 0.5052813 0.3976001 0.4821285 0.4191724 0.5052813 0.391866 0.4963493 0.3815331 0.4726359 0.391866 0.4963493 0.3736116 0.4807556 0.3601217 0.4640954 0.3815331 0.4726359 0.3736116 0.4807556 0.3550772 0.4430521 0.3715587 0.4592439 0.3601217 0.4640954 0.3589231 0.421368 0.3679683 0.4433465 0.3550772 0.4430521 0.3711801 0.4011229 0.3714435 0.427442 0.3589231 0.421368 0.3982306 0.4056371 0.3711801 0.4011229 0.3938445 0.3918623 0.4182319 0.4036953 0.3938445 0.3918623 0.4176905 0.3897745 0.4483816 0.409542 0.4176905 0.3897745 0.4435209 0.3911458 0.4654594 0.3011399 0.4132314 0.2975683 0.4145775 0.2851055 0.4132314 0.2975683 0.3566555 0.2898857 0.4145775 0.2851055 0.3602223 0.3030699 0.3000067 0.3165244 0.3566555 0.2898857 0.3088828 0.3283709 0.2570399 0.3664264 0.3000067 0.3165244 0.2700376 0.3741649 0.2349656 0.4302753 0.2570399 0.3664264 0.2504203 0.4326593 0.2386469 0.4997673 0.2349656 0.4302753 0.2386469 0.4997673 0.28346 0.5546832 0.2691291 0.5654883 0.28346 0.5546832 0.3245264 0.6144874 0.2691291 0.5654883 0.3245264 0.6144874 0.3962191 0.6222932 0.3942965 0.638486 0.3942965 0.638486 0.4643023 0.6182923 0.4662925 0.6333037 0.2386469 0.4997673 0.2045289 0.4244718 0.2349656 0.4302753 0.4654594 0.3011399 0.4190449 0.2596383 0.4798069 0.2823718 0.4020018 0.449649 0.3953443 0.4464026 0.395723 0.439521 0.4145505 0.4591863 0.4081613 0.4424239 0.4269015 0.4482125 0.4022485 0.4617609 0.4059082 0.4474114 0.4145505 0.4591863 0.3926597 0.4582964 0.4020018 0.449649 0.4022485 0.4617609 0.3926597 0.4582964 0.3953443 0.4464026 0.3980246 0.4490344 0.386655 0.4514461 0.3944374 0.4429504 0.3953443 0.4464026 0.3846382 0.4429756 0.395723 0.439521 0.3944374 0.4429504 0.3868238 0.4347067 0.3983544 0.4369008 0.395723 0.439521 0.4247842 0.4361509 0.4060904 0.4379497 0.4132706 0.4265832 0.4023296 0.4250181 0.3983544 0.4369008 0.3930069 0.4281056 0.6498849 0.6337213 0.4815203 0.3961101 0.6654121 0.3784819 0.6746738 0.9325162 0.6634486 0.808493 0.6798877 0.9169284 0.6634486 0.808493 0.5403885 0.6969645 0.6498849 0.6337213 0.6798877 0.9169284 0.6734193 0.8084311 0.6856598 0.9214489 0.2065738 0.7192135 0.5267701 0.8404759 0.4739497 0.8678328 0.476293 0.07220733 0.2476933 0.1338273 0.2473633 0.1329278 0.1850628 0.18121 0.07795536 0.3909354 0.07698357 0.3905396 0.2159641 0.7692719 0.4739497 0.8678328 0.4734982 0.8690021 0.2315777 0.1763509 0.127569 0.4372378 0.100086 0.4348197 0.5221486 0.1039988 0.2315777 0.1763509 0.2476933 0.1338273 0.9866775 0.245137 0.9171339 0.2606129 0.9008733 0.2436261 0.2065738 0.7192135 0.5099768 0.8034457 0.5267701 0.8404759 0.5221486 0.1039988 0.2475687 0.1978647 0.2315777 0.1763509 0.2065738 0.7192135 0.127569 0.4372378 0.2279525 0.6990922 0.8163322 0.5683999 0.9025033 0.5683999 0.9997857 0.6656823 0.8163321 0.4822286 0.9997857 0.3849464 0.9025034 0.4822287 0.9529538 0.2983044 0.9698358 0.3146822 0.9328761 0.2988131 0.9529538 0.2983044 0.949176 0.2817884 0.9531179 0.2779541 0.9003347 0.3329211 0.9698358 0.3146822 0.9866775 0.3312289 0.9866775 0.245137 0.9698358 0.3146822 0.9698688 0.2616196 0.9008733 0.2436261 0.9157006 0.3133704 0.8985205 0.3293955 0.9331759 0.2774093 0.9157006 0.3133704 0.9171339 0.2606129 0.8381321 0.508541 0.877292 0.5477011 0.8381319 0.5477011 0.9328761 0.2988131 0.9350517 0.2822354 0.9363965 0.2947916 0.9531179 0.2779541 0.9366298 0.2813727 0.9331759 0.2774093 0.9328761 0.2988131 0.9490203 0.2944638 0.9529538 0.2983044 0.8677606 0.3094516 0.7088909 0.1505818 0.8677606 0.1505818 0.6498849 0.6337213 0.6734193 0.8084311 0.6634486 0.808493 0.6346403 0.1732774 0.6856598 0.3790948 0.6654121 0.3784819 0.6654121 0.3784819 0.6651395 0.6351488 0.6498849 0.6337213 0.1325561 0.7870257 2.14304e-4 0.4266729 0.07032048 0.4757152 0.476293 0.07220733 0.4907872 0.0140084 0.5025597 0.06544369 0.2159641 0.7692719 0.1325561 0.7870257 0.1964907 0.7538846 0.1850628 0.18121 0.1743199 0.1025274 0.2006973 0.1644561 0.07795536 0.3909354 0.1858893 0.1817482 0.100086 0.4348197 0.100086 0.4348197 0.2065738 0.7192135 0.1591033 0.7061979 0.4739497 0.8678328 0.5009704 0.879655 0.4734982 0.8690021 0.5013431 0.8786897 0.5291244 0.8902818 0.5009704 0.879655 0.5295172 0.05971139 0.5025597 0.06544369 0.5292685 0.05871969 0.502794 0.06636404 0.476293 0.07220733 0.5025597 0.06544369 0.1850628 0.18121 0.2011783 0.1649515 0.1858893 0.1817482 0.2006973 0.1644561 0.2141215 0.1539717 0.2011783 0.1649515 0.2137423 0.1534786 0.2279561 0.1442885 0.2141215 0.1539717 0.2276031 0.1437029 0.2476933 0.1338273 0.2279561 0.1442885 0.07795536 0.3909354 0.07121813 0.4143 0.07698357 0.3905396 0.07194328 0.4144436 0.06895869 0.4324642 0.07121813 0.4143 0.06962823 0.4325194 0.06825208 0.4508739 0.06895869 0.4324642 0.06899929 0.4508487 0.07032048 0.4757152 0.06825208 0.4508739 0.2159641 0.7692719 0.196983 0.7533209 0.2164573 0.7683311 0.1964907 0.7538846 0.1839647 0.7403173 0.196983 0.7533209 0.1834678 0.7407712 0.1722574 0.726336 0.1839647 0.7403173 0.1716623 0.7267714 0.1591033 0.7061979 0.1722574 0.726336 0.07032048 0.4757152 0.1591033 0.7061979 0.1581724 0.7066474 0.5594912 0.2811687 0.6029086 0.2640186 0.6654121 0.3784819 0.5859484 0.1965386 0.6346403 0.1732774 0.6074154 0.2184247 0.4662925 0.6333037 0.4798069 0.6652005 0.3889213 0.6730973 0.4145775 0.2851055 0.3566555 0.2898857 0.3494808 0.2625166 0.3566555 0.2898857 0.3000067 0.3165244 0.2833166 0.2944777 0.3000067 0.3165244 0.2570399 0.3664264 0.2320047 0.3502467 0.2570399 0.3664264 0.2349656 0.4302753 0.2045289 0.4244718 0.2691291 0.5654883 0.2418035 0.5840626 0.2071371 0.5061144 0.4132706 0.4265832 0.4060904 0.4379497 0.4021641 0.4362214 0.3245264 0.6144874 0.3060833 0.6428285 0.2418035 0.5840626 0.3942965 0.638486 0.3889213 0.6730973 0.3060833 0.6428285 0.4198105 0.478284 0.4145505 0.4591863 0.4269015 0.4482125 0.3993306 0.4767795 0.4022485 0.4617609 0.4145505 0.4591863 0.384479 0.4692463 0.3926597 0.4582964 0.4022485 0.4617609 0.386655 0.4514461 0.3926597 0.4582964 0.384479 0.4692463 0.3846382 0.4429756 0.386655 0.4514461 0.3756662 0.4573539 0.3868238 0.4347067 0.3846382 0.4429756 0.3724716 0.4433442 0.3930069 0.4281056 0.3868238 0.4347067 0.3756312 0.4294659 0.4023296 0.4250181 0.3930069 0.4281056 0.385227 0.417958 0.4178946 0.4094756 0.4132706 0.4265832 0.4023296 0.4250181 0.4436854 0.4173232 0.4247842 0.4361509 0.4132706 0.4265832 0.4435209 0.3911458 0.4176905 0.3897745 0.4096854 0.3347231 0.4176905 0.3897745 0.3938445 0.3918623 0.3712959 0.3415845 0.3938445 0.3918623 0.3711801 0.4011229 0.3348608 0.3622249 0.3711801 0.4011229 0.3589231 0.421368 0.3077967 0.3965137 0.3589231 0.421368 0.3550772 0.4430521 0.2955078 0.439399 0.3550772 0.4430521 0.3601217 0.4640954 0.3005342 0.4849852 0.3601217 0.4640954 0.3736116 0.4807556 0.3230358 0.5265511 0.3736116 0.4807556 0.391866 0.4963493 0.3593859 0.557834 0.391866 0.4963493 0.4191724 0.5052813 0.4046155 0.5741065 0.4191724 0.5052813 0.4532737 0.507328 0.4478185 0.5742748 0.4505831 0.468657 0.4575344 0.4795555 0.4203764 0.4857296 0.4198105 0.478284 0.4203764 0.4857296 0.3976001 0.4821285 0.3993306 0.4767795 0.3976001 0.4821285 0.3815331 0.4726359 0.3756662 0.4573539 0.384479 0.4692463 0.3815331 0.4726359 0.3724716 0.4433442 0.3756662 0.4573539 0.3715587 0.4592439 0.3756312 0.4294659 0.3724716 0.4433442 0.3679683 0.4433465 0.385227 0.417958 0.3756312 0.4294659 0.3714435 0.427442 0.385227 0.417958 0.3818904 0.4138509 0.3982306 0.4056371 0.3996273 0.4107137 0.3982306 0.4056371 0.4182319 0.4036953 0.4178946 0.4094756 0.4182319 0.4036953 0.4483816 0.409542 0.4046155 0.5741065 0.4478185 0.5742748 0.4643023 0.6182923 0.3593859 0.557834 0.4046155 0.5741065 0.3962191 0.6222932 0.3230358 0.5265511 0.3593859 0.557834 0.3328882 0.5997124 0.3230358 0.5265511 0.28346 0.5546832 0.2544302 0.4959559 0.3005342 0.4849852 0.2544302 0.4959559 0.2504203 0.4326593 0.2955078 0.439399 0.2504203 0.4326593 0.2700376 0.3741649 0.3077967 0.3965137 0.2700376 0.3741649 0.3088828 0.3283709 0.3348608 0.3622249 0.3088828 0.3283709 0.3602223 0.3030699 0.4096854 0.3347231 0.3712959 0.3415845 0.3602223 0.3030699 0.444656 0.3395981 0.4096854 0.3347231 0.4132314 0.2975683 0.4203764 0.4857296 0.4575344 0.4795555 0.4532737 0.507328 0.3976001 0.4821285 0.4203764 0.4857296 0.4191724 0.5052813 0.3815331 0.4726359 0.3976001 0.4821285 0.391866 0.4963493 0.3601217 0.4640954 0.3715587 0.4592439 0.3815331 0.4726359 0.3550772 0.4430521 0.3679683 0.4433465 0.3715587 0.4592439 0.3589231 0.421368 0.3714435 0.427442 0.3679683 0.4433465 0.3711801 0.4011229 0.3818904 0.4138509 0.3714435 0.427442 0.3982306 0.4056371 0.3818904 0.4138509 0.3711801 0.4011229 0.4182319 0.4036953 0.3982306 0.4056371 0.3938445 0.3918623 0.4483816 0.409542 0.4182319 0.4036953 0.4176905 0.3897745 0.4654594 0.3011399 0.461486 0.311567 0.4132314 0.2975683 0.4132314 0.2975683 0.3602223 0.3030699 0.3566555 0.2898857 0.3602223 0.3030699 0.3088828 0.3283709 0.3000067 0.3165244 0.3088828 0.3283709 0.2700376 0.3741649 0.2570399 0.3664264 0.2700376 0.3741649 0.2504203 0.4326593 0.2349656 0.4302753 0.2504203 0.4326593 0.2544302 0.4959559 0.2386469 0.4997673 0.2386469 0.4997673 0.2544302 0.4959559 0.28346 0.5546832 0.28346 0.5546832 0.3328882 0.5997124 0.3245264 0.6144874 0.3245264 0.6144874 0.3328882 0.5997124 0.3962191 0.6222932 0.3942965 0.638486 0.3962191 0.6222932 0.4643023 0.6182923 0.2386469 0.4997673 0.2071371 0.5061144 0.2045289 0.4244718 0.4654594 0.3011399 0.4145775 0.2851055 0.4190449 0.2596383 0.4021641 0.4362214 0.4060904 0.4379497 0.4081613 0.4424239 0.4081613 0.4424239 0.4059082 0.4474114 0.4020018 0.449649 0.4020018 0.449649 0.3980246 0.4490344 0.3953443 0.4464026 0.3953443 0.4464026 0.3944374 0.4429504 0.395723 0.439521 0.395723 0.439521 0.3983544 0.4369008 0.4021641 0.4362214 0.4021641 0.4362214 0.4081613 0.4424239 0.395723 0.439521 0.4081613 0.4424239 0.4020018 0.449649 0.395723 0.439521 0.4145505 0.4591863 0.4059082 0.4474114 0.4081613 0.4424239 0.4022485 0.4617609 0.4020018 0.449649 0.4059082 0.4474114 0.3926597 0.4582964 0.3980246 0.4490344 0.4020018 0.449649 0.3926597 0.4582964 0.386655 0.4514461 0.3953443 0.4464026 0.386655 0.4514461 0.3846382 0.4429756 0.3944374 0.4429504 0.3846382 0.4429756 0.3868238 0.4347067 0.395723 0.439521 0.3868238 0.4347067 0.3930069 0.4281056 0.3983544 0.4369008 0.4247842 0.4361509 0.4081613 0.4424239 0.4060904 0.4379497 0.4023296 0.4250181 0.4021641 0.4362214 0.3983544 0.4369008 0.6498849 0.6337213 0.5403885 0.6969645 0.4815203 0.3961101 0.6746738 0.9325162 0.6122195 0.8546845 0.6634486 0.808493 0.6634486 0.808493 0.6122195 0.8546845 0.5403885 0.6969645 0.6798877 0.9169284 0.6634486 0.808493 0.6734193 0.8084311 0.5295172 0.8892358 0.5013431 0.8786897 0.5267701 0.8404759 0.5013431 0.8786897 0.4739497 0.8678328 0.5267701 0.8404759 0.4739497 0.8678328 0.2164573 0.7683311 0.2065738 0.7192135 0.2164573 0.7683311 0.196983 0.7533209 0.2065738 0.7192135 0.196983 0.7533209 0.1839647 0.7403173 0.2065738 0.7192135 0.476293 0.07220733 0.4765917 0.07332915 0.2476933 0.1338273 0.1850628 0.18121 0.1858893 0.1817482 0.07795536 0.3909354 0.2159641 0.7692719 0.2164573 0.7683311 0.4739497 0.8678328 0.2315777 0.1763509 0.2475687 0.1978647 0.127569 0.4372378 0.2141215 0.1539717 0.2279561 0.1442885 0.2315777 0.1763509 0.2279561 0.1442885 0.2476933 0.1338273 0.2315777 0.1763509 0.2476933 0.1338273 0.4765917 0.07332915 0.5221486 0.1039988 0.4765917 0.07332915 0.502794 0.06636404 0.5221486 0.1039988 0.502794 0.06636404 0.5295172 0.05971139 0.5221486 0.1039988 0.9866775 0.245137 0.9698688 0.2616196 0.9171339 0.2606129 0.2065738 0.7192135 0.2279525 0.6990922 0.5099768 0.8034457 0.5221486 0.1039988 0.5040143 0.1341389 0.2475687 0.1978647 0.2065738 0.7192135 0.100086 0.4348197 0.127569 0.4372378 0.9025033 0.5683999 0.9025034 0.4822287 0.9997857 0.3849464 0.7190498 0.6656823 0.7190498 0.3849463 0.8163321 0.4822286 0.7190498 0.6656823 0.8163321 0.4822286 0.8163322 0.5683999 0.9025033 0.5683999 0.9997857 0.3849464 0.9997857 0.6656823 0.7190498 0.6656823 0.8163322 0.5683999 0.9997857 0.6656823 0.8163321 0.4822286 0.7190498 0.3849463 0.9997857 0.3849464 0.9529538 0.2983044 0.9531179 0.2779541 0.9698688 0.2616196 0.9698358 0.3146822 0.9166207 0.3157253 0.9328761 0.2988131 0.9529538 0.2983044 0.9698688 0.2616196 0.9698358 0.3146822 0.9529538 0.2983044 0.9490203 0.2944638 0.949176 0.2817884 0.9003347 0.3329211 0.9166207 0.3157253 0.9698358 0.3146822 0.9866775 0.245137 0.9866775 0.3312289 0.9698358 0.3146822 0.9008733 0.2436261 0.9171339 0.2606129 0.9157006 0.3133704 0.9698688 0.2616196 0.9531179 0.2779541 0.9331759 0.2774093 0.9331759 0.2774093 0.9326398 0.2973193 0.9157006 0.3133704 0.9171339 0.2606129 0.9698688 0.2616196 0.9331759 0.2774093 0.8381321 0.508541 0.877292 0.508541 0.877292 0.5477011 0.9328761 0.2988131 0.9307593 0.2790508 0.9350517 0.2822354 0.9531179 0.2779541 0.949176 0.2817884 0.9366298 0.2813727 0.9328761 0.2988131 0.9363965 0.2947916 0.9490203 0.2944638 0.8677606 0.3094516 0.7088909 0.3094516 0.7088909 0.1505818 0.6498849 0.6337213 0.6651395 0.6351488 0.6734193 0.8084311 0.6346403 0.1732774 0.6485513 0.1539579 0.6856598 0.3790948 0.6654121 0.3784819 0.6856598 0.3790948 0.6651395 0.6351488 0.06895869 0.4324642 0.06825208 0.4508739 2.14304e-4 0.4266729 0.06825208 0.4508739 0.07032048 0.4757152 2.14304e-4 0.4266729 0.07032048 0.4757152 0.1581724 0.7066474 0.1325561 0.7870257 0.1581724 0.7066474 0.1716623 0.7267714 0.1325561 0.7870257 0.1716623 0.7267714 0.1834678 0.7407712 0.1325561 0.7870257 0.476293 0.07220733 0.2473633 0.1329278 0.1743199 0.1025274 0.2473633 0.1329278 0.2276031 0.1437029 0.1743199 0.1025274 0.2276031 0.1437029 0.2137423 0.1534786 0.1743199 0.1025274 0.1743199 0.1025274 0.4907872 0.0140084 0.476293 0.07220733 0.4907872 0.0140084 0.5292685 0.05871969 0.5025597 0.06544369 0.2159641 0.7692719 0.4734982 0.8690021 0.4815489 0.9346123 0.4734982 0.8690021 0.5009704 0.879655 0.4815489 0.9346123 0.5009704 0.879655 0.5291244 0.8902818 0.4815489 0.9346123 0.4815489 0.9346123 0.1325561 0.7870257 0.2159641 0.7692719 0.1325561 0.7870257 0.1834678 0.7407712 0.1964907 0.7538846 0.1850628 0.18121 0.07698357 0.3905396 2.14304e-4 0.4266729 0.07698357 0.3905396 0.07121813 0.4143 2.14304e-4 0.4266729 0.07121813 0.4143 0.06895869 0.4324642 2.14304e-4 0.4266729 2.14304e-4 0.4266729 0.1743199 0.1025274 0.1850628 0.18121 0.1743199 0.1025274 0.2137423 0.1534786 0.2006973 0.1644561 0.1858893 0.1817482 0.2011783 0.1649515 0.2315777 0.1763509 0.2011783 0.1649515 0.2141215 0.1539717 0.2315777 0.1763509 0.2315777 0.1763509 0.100086 0.4348197 0.1858893 0.1817482 0.100086 0.4348197 0.06962823 0.4325194 0.07194328 0.4144436 0.07194328 0.4144436 0.07795536 0.3909354 0.100086 0.4348197 0.1839647 0.7403173 0.1722574 0.726336 0.2065738 0.7192135 0.1722574 0.726336 0.1591033 0.7061979 0.2065738 0.7192135 0.1591033 0.7061979 0.07136112 0.475437 0.100086 0.4348197 0.07136112 0.475437 0.06899929 0.4508487 0.100086 0.4348197 0.06899929 0.4508487 0.06962823 0.4325194 0.100086 0.4348197 0.4739497 0.8678328 0.5013431 0.8786897 0.5009704 0.879655 0.5013431 0.8786897 0.5295172 0.8892358 0.5291244 0.8902818 0.5295172 0.05971139 0.502794 0.06636404 0.5025597 0.06544369 0.502794 0.06636404 0.4765917 0.07332915 0.476293 0.07220733 0.1850628 0.18121 0.2006973 0.1644561 0.2011783 0.1649515 0.2006973 0.1644561 0.2137423 0.1534786 0.2141215 0.1539717 0.2137423 0.1534786 0.2276031 0.1437029 0.2279561 0.1442885 0.2276031 0.1437029 0.2473633 0.1329278 0.2476933 0.1338273 0.07795536 0.3909354 0.07194328 0.4144436 0.07121813 0.4143 0.07194328 0.4144436 0.06962823 0.4325194 0.06895869 0.4324642 0.06962823 0.4325194 0.06899929 0.4508487 0.06825208 0.4508739 0.06899929 0.4508487 0.07136112 0.475437 0.07032048 0.4757152 0.2159641 0.7692719 0.1964907 0.7538846 0.196983 0.7533209 0.1964907 0.7538846 0.1834678 0.7407712 0.1839647 0.7403173 0.1834678 0.7407712 0.1716623 0.7267714 0.1722574 0.726336 0.1716623 0.7267714 0.1581724 0.7066474 0.1591033 0.7061979 0.07032048 0.4757152 0.07136112 0.475437 0.1591033 0.7061979 0.588906 0.08536309 0.5859484 0.1965386 0.4815203 0.3961101 0.5859484 0.1965386 0.5594912 0.2811687 0.4815203 0.3961101 0.6029086 0.2640186 0.6074154 0.2184247 0.6654121 0.3784819 0.6074154 0.2184247 0.6346403 0.1732774 0.6654121 0.3784819 0.4815203 0.3961101 0.5594912 0.2811687 0.6654121 0.3784819 0.5859484 0.1965386 0.588906 0.08536309 0.6346403 0.1732774 0.8092903 0.7429664 0.9728521 0.9283966 0.9785052 0.9350938 0.961242 0.9320834 0.9785052 0.9350938 0.9728521 0.9283966 0.9635866 0.7238996 0.961242 0.9320834 0.8825371 0.7362203 0.8439279 0.7155753 0.961242 0.9320834 0.9728521 0.9283966 0.9869545 0.6961445 0.9869545 0.9333373 0.9635866 0.7238996 0.8092903 0.7429664 0.8439279 0.7155753 0.9728521 0.9283966 0.961242 0.9320834 0.9869545 0.9333373 0.9785052 0.9350938 0.9635866 0.7238996 0.9869545 0.9333373 0.961242 0.9320834 0.8439279 0.7155753 0.8825371 0.7362203 0.961242 0.9320834 0.9869545 0.6961445 0.9785052 0.9350938 0.9869545 0.9333373 0.5859484 0.1965386 0.6074154 0.2184247 0.5594912 0.2811687 0.5594912 0.2811687 0.6074154 0.2184247 0.6029086 0.2640186</float_array>
          <technique_common>
            <accessor source="#mesh0_001-mesh-map-0-array" count="1002" stride="2">
              <param name="S" type="float"/>
              <param name="T" type="float"/>
            </accessor>
          </technique_common>
        </source>
        <vertices id="mesh0_001-mesh-vertices">
          <input semantic="POSITION" source="#mesh0_001-mesh-positions"/>
        </vertices>
        <triangles material="material0_002-material" count="334">
          <input semantic="VERTEX" source="#mesh0_001-mesh-vertices" offset="0"/>
          <input semantic="NORMAL" source="#mesh0_001-mesh-normals" offset="1"/>
          <input semantic="TEXCOORD" source="#mesh0_001-mesh-map-0" offset="2" set="0"/>
          <p>59 0 0 18 0 1 58 0 2 50 1 3 4 1 4 2 1 5 51 2 6 6 2 7 4 2 8 52 3 9 8 3 10 6 3 11 53 4 12 10 4 13 8 4 14 56 5 15 12 5 16 55 5 17 3 6 18 82 6 19 5 6 20 57 7 21 14 7 22 56 7 23 58 8 24 16 8 25 57 8 26 79 9 27 1 9 28 70 9 29 78 10 30 19 10 31 79 10 32 77 11 33 17 11 34 78 11 35 13 12 36 77 12 37 76 12 38 11 13 39 76 13 40 75 13 41 9 14 42 75 14 43 74 14 44 7 15 45 74 15 46 73 15 47 5 16 48 73 16 49 72 16 50 71 17 51 5 17 52 72 17 53 70 18 54 3 18 55 71 18 56 20 19 57 61 19 58 60 19 59 21 20 60 62 20 61 61 20 62 22 21 63 63 21 64 62 21 65 23 22 66 64 22 67 63 22 68 24 23 69 65 23 70 64 23 71 25 24 72 66 24 73 65 24 74 26 25 75 67 25 76 66 25 77 27 26 78 68 26 79 67 26 80 28 27 81 69 27 82 68 27 83 29 28 84 60 28 85 69 28 86 70 29 87 49 29 88 79 29 89 79 30 90 48 30 91 78 30 92 78 31 93 47 31 94 77 31 95 76 32 96 47 32 97 46 32 98 75 33 99 46 33 100 45 33 101 74 34 102 45 34 103 44 34 104 73 35 105 44 35 106 43 35 107 73 36 108 42 36 109 72 36 110 72 37 111 41 37 112 71 37 113 71 38 114 30 38 115 70 38 116 69 39 117 40 39 118 39 39 119 68 40 120 39 40 121 38 40 122 67 41 123 38 41 124 37 41 125 67 42 126 36 42 127 66 42 128 66 43 129 35 43 130 65 43 131 65 44 132 34 44 133 64 44 134 64 45 135 33 45 136 63 45 137 63 46 138 32 46 139 62 46 140 61 47 141 32 47 142 31 47 143 60 48 144 31 48 145 40 48 146 49 49 147 20 49 148 29 49 149 48 50 150 29 50 151 28 50 152 47 51 153 28 51 154 27 51 155 26 52 156 47 52 157 27 52 158 25 53 159 46 53 160 26 53 161 24 54 162 45 54 163 25 54 164 23 55 165 44 55 166 24 55 167 42 56 168 23 56 169 22 56 170 41 57 171 22 57 172 21 57 173 30 58 174 21 58 175 20 58 176 59 59 177 31 59 178 50 59 179 31 60 180 51 60 181 50 60 182 32 61 183 52 61 184 51 61 185 33 62 186 53 62 187 52 62 188 34 63 189 54 63 190 53 63 191 35 64 192 55 64 193 54 64 194 55 65 195 37 65 196 56 65 197 37 66 198 57 66 199 56 66 200 57 67 201 39 67 202 58 67 203 58 68 204 40 68 205 59 68 206 55 69 207 10 69 208 54 69 209 59 70 210 2 70 211 0 70 212 88 71 213 86 71 214 84 71 215 19 72 216 81 72 217 1 72 218 17 73 219 89 73 220 19 73 221 15 74 222 88 74 223 17 74 224 15 75 225 86 75 226 87 75 227 13 76 228 85 76 229 86 76 230 11 77 231 84 77 232 85 77 233 9 78 234 83 78 235 84 78 236 1 79 237 80 79 238 3 79 239 5 80 240 83 80 241 7 80 242 90 81 243 166 81 244 167 81 245 169 82 246 94 82 247 168 82 248 94 83 249 91 83 250 90 83 251 168 84 252 125 84 253 124 84 254 99 85 255 100 85 256 157 85 257 137 86 258 162 86 259 141 86 260 142 87 261 147 87 262 126 87 263 132 88 264 157 88 265 136 88 266 101 89 267 106 89 268 98 89 269 100 90 270 101 90 271 162 90 272 105 91 273 114 91 274 102 91 275 99 92 276 108 92 277 100 92 278 100 93 279 109 93 280 101 93 281 99 94 282 106 94 283 107 94 284 105 85 285 102 85 286 106 85 287 104 85 288 107 85 289 103 85 290 112 95 291 116 95 292 111 95 293 112 96 294 121 96 295 113 96 296 103 97 297 116 97 298 104 97 299 105 98 300 116 98 301 117 98 302 102 99 303 115 99 304 103 99 305 110 100 306 115 100 307 114 100 308 119 85 309 121 85 310 120 85 311 111 101 312 118 101 313 119 101 314 113 102 315 118 102 316 110 102 317 111 103 318 120 103 319 112 103 320 124 104 321 123 104 322 122 104 323 90 105 324 125 105 325 94 105 326 168 106 327 122 106 328 167 106 329 167 107 330 123 107 331 90 107 332 166 108 333 91 108 334 127 108 335 137 109 336 169 109 337 140 109 338 132 110 339 166 110 340 135 110 341 142 111 342 95 111 343 145 111 344 147 112 345 161 112 346 98 112 347 98 85 348 99 85 349 152 85 350 157 113 351 138 113 352 136 113 353 160 114 354 139 114 355 138 114 356 159 115 357 140 115 358 139 115 359 158 116 360 137 116 361 140 116 362 142 117 363 163 117 364 161 117 365 145 118 366 164 118 367 163 118 368 144 119 369 165 119 370 164 119 371 143 120 372 162 120 373 165 120 374 147 121 375 128 121 376 126 121 377 150 122 378 129 122 379 128 122 380 149 123 381 130 123 382 129 123 383 148 124 384 127 124 385 130 124 386 132 125 387 153 125 388 151 125 389 135 126 390 154 126 391 153 126 392 134 127 393 155 127 394 154 127 395 133 128 396 152 128 397 155 128 398 127 129 399 152 129 400 131 129 401 93 130 402 92 130 403 167 130 404 97 131 405 168 131 406 96 131 407 59 132 408 0 132 409 18 132 410 50 133 411 51 133 412 4 133 413 51 134 414 52 134 415 6 134 416 52 135 417 53 135 418 8 135 419 53 136 420 54 136 421 10 136 422 56 137 423 14 137 424 12 137 425 3 138 426 80 138 427 82 138 428 57 139 429 16 139 430 14 139 431 58 140 432 18 140 433 16 140 434 79 141 435 19 141 436 1 141 437 78 142 438 17 142 439 19 142 440 77 143 441 15 143 442 17 143 443 13 144 444 15 144 445 77 144 446 11 145 447 13 145 448 76 145 449 9 146 450 11 146 451 75 146 452 7 147 453 9 147 454 74 147 455 5 148 456 7 148 457 73 148 458 71 149 459 3 149 460 5 149 461 70 150 462 1 150 463 3 150 464 20 151 465 21 151 466 61 151 467 21 152 468 22 152 469 62 152 470 22 153 471 23 153 472 63 153 473 23 154 474 24 154 475 64 154 476 24 155 477 25 155 478 65 155 479 25 156 480 26 156 481 66 156 482 26 157 483 27 157 484 67 157 485 27 158 486 28 158 487 68 158 488 28 159 489 29 159 490 69 159 491 29 160 492 20 160 493 60 160 494 70 161 495 30 161 496 49 161 497 79 162 498 49 162 499 48 162 500 78 163 501 48 163 502 47 163 503 76 164 504 77 164 505 47 164 506 75 165 507 76 165 508 46 165 509 74 166 510 75 166 511 45 166 512 73 167 513 74 167 514 44 167 515 73 168 516 43 168 517 42 168 518 72 169 519 42 169 520 41 169 521 71 170 522 41 170 523 30 170 524 69 171 525 60 171 526 40 171 527 68 172 528 69 172 529 39 172 530 67 173 531 68 173 532 38 173 533 67 174 534 37 174 535 36 174 536 66 175 537 36 175 538 35 175 539 65 176 540 35 176 541 34 176 542 64 177 543 34 177 544 33 177 545 63 178 546 33 178 547 32 178 548 61 179 549 62 179 550 32 179 551 60 180 552 61 180 553 31 180 554 49 181 555 30 181 556 20 181 557 48 182 558 49 182 559 29 182 560 47 183 561 48 183 562 28 183 563 26 184 564 46 184 565 47 184 566 25 185 567 45 185 568 46 185 569 24 186 570 44 186 571 45 186 572 23 187 573 43 187 574 44 187 575 42 188 576 43 188 577 23 188 578 41 189 579 42 189 580 22 189 581 30 190 582 41 190 583 21 190 584 59 191 585 40 191 586 31 191 587 31 192 588 32 192 589 51 192 590 32 193 591 33 193 592 52 193 593 33 194 594 34 194 595 53 194 596 34 195 597 35 195 598 54 195 599 35 196 600 36 196 601 55 196 602 55 197 603 36 197 604 37 197 605 37 198 606 38 198 607 57 198 608 57 199 609 38 199 610 39 199 611 58 200 612 39 200 613 40 200 614 55 201 615 12 201 616 10 201 617 59 202 618 50 202 619 2 202 620 82 203 621 80 203 622 81 203 623 81 85 624 89 85 625 88 85 626 88 85 627 87 85 628 86 85 629 86 204 630 85 204 631 84 204 632 84 85 633 83 85 634 82 85 635 82 85 636 81 85 637 84 85 638 81 85 639 88 85 640 84 85 641 19 205 642 89 205 643 81 205 644 17 206 645 88 206 646 89 206 647 15 207 648 87 207 649 88 207 650 15 208 651 13 208 652 86 208 653 13 209 654 11 209 655 85 209 656 11 210 657 9 210 658 84 210 659 9 211 660 7 211 661 83 211 662 1 212 663 81 212 664 80 212 665 5 213 666 82 213 667 83 213 668 90 214 669 91 214 670 166 214 671 169 215 672 95 215 673 94 215 674 94 216 675 95 216 676 91 216 677 168 217 678 94 217 679 125 217 680 159 85 681 160 85 682 100 85 683 160 85 684 157 85 685 100 85 686 157 218 687 151 218 688 99 218 689 151 85 690 153 85 691 99 85 692 153 85 693 154 85 694 99 85 695 137 219 696 156 219 697 162 219 698 142 220 699 161 220 700 147 220 701 132 221 702 151 221 703 157 221 704 101 222 705 109 222 706 106 222 707 164 223 708 165 223 709 101 223 710 165 85 711 162 85 712 101 85 713 162 224 714 156 224 715 100 224 716 156 225 717 158 225 718 100 225 719 158 226 720 159 226 721 100 226 722 105 227 723 117 227 724 114 227 725 99 228 726 107 228 727 108 228 728 100 229 729 108 229 730 109 229 731 99 230 732 98 230 733 106 230 734 102 85 735 103 85 736 107 85 737 109 231 738 108 231 739 104 231 740 109 232 741 104 232 742 105 232 743 102 85 744 107 85 745 106 85 746 109 85 747 105 85 748 106 85 749 104 233 750 108 233 751 107 233 752 112 95 753 113 95 754 117 95 755 116 234 756 115 234 757 111 234 758 112 235 759 117 235 760 116 235 761 112 236 762 120 236 763 121 236 764 103 237 765 115 237 766 116 237 767 105 238 768 104 238 769 116 238 770 102 239 771 114 239 772 115 239 773 117 240 774 113 240 775 110 240 776 110 241 777 111 241 778 115 241 779 114 85 780 117 85 781 110 85 782 119 242 783 118 242 784 121 242 785 111 243 786 110 243 787 118 243 788 113 244 789 121 244 790 118 244 791 111 245 792 119 245 793 120 245 794 124 246 795 125 246 796 123 246 797 90 247 798 123 247 799 125 247 800 168 248 801 124 248 802 122 248 803 167 249 804 122 249 805 123 249 806 129 250 807 130 250 808 91 250 809 130 251 810 127 251 811 91 251 812 127 252 813 131 252 814 166 252 815 131 253 816 133 253 817 166 253 818 133 254 819 134 254 820 166 254 821 137 255 822 141 255 823 95 255 824 141 256 825 143 256 826 95 256 827 143 257 828 144 257 829 95 257 830 95 258 831 169 258 832 137 258 833 169 259 834 139 259 835 140 259 836 132 260 837 136 260 838 169 260 839 136 261 840 138 261 841 169 261 842 138 262 843 139 262 844 169 262 845 169 263 846 166 263 847 132 263 848 166 264 849 134 264 850 135 264 851 142 265 852 126 265 853 91 265 854 126 266 855 128 266 856 91 266 857 128 267 858 129 267 859 91 267 860 91 268 861 95 268 862 142 268 863 95 269 864 144 269 865 145 269 866 161 270 867 163 270 868 101 270 869 163 271 870 164 271 871 101 271 872 101 272 873 98 272 874 161 272 875 98 85 876 149 85 877 150 85 878 150 273 879 147 273 880 98 273 881 154 274 882 155 274 883 99 274 884 155 85 885 152 85 886 99 85 887 152 275 888 146 275 889 98 275 890 146 85 891 148 85 892 98 85 893 148 276 894 149 276 895 98 276 896 157 277 897 160 277 898 138 277 899 160 278 900 159 278 901 139 278 902 159 279 903 158 279 904 140 279 905 158 280 906 156 280 907 137 280 908 142 281 909 145 281 910 163 281 911 145 282 912 144 282 913 164 282 914 144 283 915 143 283 916 165 283 917 143 284 918 141 284 919 162 284 920 147 285 921 150 285 922 128 285 923 150 286 924 149 286 925 129 286 926 149 287 927 148 287 928 130 287 929 148 288 930 146 288 931 127 288 932 132 289 933 135 289 934 153 289 935 135 290 936 134 290 937 154 290 938 134 291 939 133 291 940 155 291 941 133 292 942 131 292 943 152 292 944 127 293 945 146 293 946 152 293 947 169 294 948 97 294 949 166 294 950 97 295 951 93 295 952 166 295 953 92 296 954 96 296 955 167 296 956 96 297 957 168 297 958 167 297 959 166 298 960 93 298 961 167 298 962 97 299 963 169 299 964 168 299 965 172 300 966 175 300 967 176 300 968 174 301 969 176 301 970 175 301 971 173 302 972 174 302 973 171 302 974 170 303 975 174 303 976 175 303 977 172 304 978 177 304 979 173 304 980 172 305 981 170 305 982 175 305 983 174 306 984 177 306 985 176 306 986 173 307 987 177 307 988 174 307 989 170 308 990 171 308 991 174 308 992 172 309 993 176 309 994 177 309 995 97 310 996 96 310 997 93 310 998 93 311 999 96 311 1000 92 311 1001</p>
        </triangles>
      </mesh>
    </geometry>
  </library_geometries>
  <library_visual_scenes>
    <visual_scene id="Scene" name="Scene">
      <node id="StreetLight_002" name="StreetLight.002" type="NODE">
        <matrix sid="transform">1 0 0 0 0 1 0 0 0 0 1 0 0 0 0 1</matrix>
        <instance_geometry url="#mesh0_001-mesh" name="StreetLight.002">
          <bind_material>
            <technique_common>
              <instance_material symbol="material0_002-material" target="#material0_002-material">
                <bind_vertex_input semantic="mesh0_002-mesh-map-0" input_semantic="TEXCOORD" input_set="0"/>
              </instance_material>
            </technique_common>
          </bind_material>
        </instance_geometry>
      </node>
    </visual_scene>
  </library_visual_scenes>
  <scene>
    <instance_visual_scene url="#Scene"/>
  </scene>
</COLLADA>